Encryption; Encryption_s2; Encryption_s3;ListenPort;ListenPort_s2;ListenPort_s3;DefaultCall_Protocol;DefaultCall_Protocol_s2;DefaultCall_Protocol_s3;DefaultTransport;DefaultTransport_s2;DefaultTransport_s3;Ice_DefaultCandidate;Ice_DefaultCandidate_s2;Ice_DefaultCandidate_S3;MTU;MTU_s2;MTU_s3;DefaultCall_Rate;DefaultCall_Rate_s2;DefaultCall_Rate_s3;MaxTransmitCallRate;MaxTransmitCallRate_s2;MaxTransmitCallRate_s3;MaxReceiveCallRate;MaxReceiveCallRate_s2;MaxReceiveCallRate_s3;Done
BestEffort;BestEffort;Off;Off;Off;On;H320;Sip;Auto;TCP;TCP;TCP;Host;Host;Rflx;961;596;1476;4557;1811;2626;5942;405;815;5448;5852;5977;FailedFailed
Off;BestEffort;BestEffort;On;On;On;Sip;Sip;Sip;TCP;TCP;Auto;Host;Host;Relay;1221;620;985;1319;4251;2791;5942;739;642;2087;1341;5282;FailedConnected
BestEffort;On;Off;Off;Off;On;H320;Auto;Sip;TCP;Tls;UDP;Relay;Host;Rflx;1154;596;1325;3037;404;2626;5942;405;815;4351;5958;5276;FailedConnected
On;On;BestEffort;On;On;On;Auto;Sip;H320;Tls;TCP;TCP;Host;Host;Relay;1221;624;908;1723;920;2123;5925;399;2417;1171;5958;2067;ConnectedConnected
BestEffort;BestEffort;Off;Off;Off;On;H320;Sip;Auto;TCP;TCP;TCP;Host;Host;Relay;668;660;1332;2842;4785;115;5942;2831;4620;2959;1434;5977;FailedConnected
On;On;BestEffort;On;On;On;H323;Sip;H320;TCP;TCP;Auto;Host;Host;Relay;1221;839;985;5810;3397;3464;5903;535;1470;3469;3082;3395;ConnectedFailed
On;On;BestEffort;On;On;On;H323;Sip;Auto;TCP;TCP;Auto;Host;Host;Relay;1221;818;1324;2662;1871;2050;5801;587;2417;1171;5958;5276;ConnectedFailed
On;BestEffort;BestEffort;Off;On;On;H323;Sip;Auto;TCP;TCP;TCP;Host;Host;Rflx;1154;596;1465;3122;479;2045;5925;262;532;5521;5543;4193;ConnectedFailed
On;On;BestEffort;Off;On;On;Auto;Sip;H320;TCP;TCP;TCP;Host;Host;Host;1051;839;985;2662;404;3304;5925;587;2417;4117;5852;202;ConnectedFailed
On;BestEffort;BestEffort;Off;Off;On;Auto;Sip;Sip;TCP;TCP;TCP;Host;Host;Rflx;1154;596;1465;1254;479;2045;5925;262;532;4709;5543;4193;FailedFailed
BestEffort;On;Off;Off;Off;On;H320;Sip;H323;TCP;TCP;Auto;Host;Host;Rflx;1114;761;1324;3714;2094;4262;5869;291;2417;1171;1484;5282;FailedFailed
BestEffort;BestEffort;Off;Off;Off;On;H320;Sip;Auto;TCP;TCP;TCP;Host;Host;Rflx;1221;620;1325;745;920;347;5925;405;2417;2962;194;5977;FailedFailed
BestEffort;BestEffort;Off;Off;Off;On;H320;Sip;Auto;TCP;TCP;TCP;Host;Host;Rflx;961;596;1476;4557;2094;3304;5942;587;2417;3469;3082;5281;ConnectedFailed
BestEffort;On;Off;On;Off;On;Sip;Auto;Sip;TCP;TCP;UDP;Host;Host;Rflx;900;818;1324;3714;2094;3304;5942;262;3157;3469;417;5281;ConnectedFailed
BestEffort;BestEffort;Off;Off;Off;On;Sip;Sip;H320;Tls;TCP;Tls;Host;Host;Rflx;1130;596;1444;1254;479;647;5925;262;1940;1171;194;5977;FailedConnected
BestEffort;BestEffort;Off;Off;Off;On;H320;Sip;Auto;TCP;TCP;Tls;Host;Host;Rflx;1024;818;1401;1089;404;3477;5925;2831;2417;3653;1707;5977;ConnectedFailed
BestEffort;On;Off;Off;Off;On;H320;Sip;H323;TCP;TCP;Auto;Host;Host;Rflx;1218;596;1418;1609;2094;3304;5942;262;3157;3469;5852;5282;ConnectedConnected
BestEffort;BestEffort;Off;Off;Off;On;Sip;Auto;Auto;TCP;TCP;UDP;Host;Host;Relay;1221;624;908;1723;920;2123;5925;2831;4979;1936;194;5977;FailedConnected
BestEffort;BestEffort;Off;Off;Off;On;H320;Sip;Auto;TCP;TCP;TCP;Host;Host;Rflx;961;596;1476;4557;1811;2626;5942;405;815;5448;5852;5977;ConnectedConnected
On;BestEffort;On;Off;On;On;Sip;Auto;H320;TCP;TCP;Auto;Host;Host;Relay;1221;761;1324;3714;2094;647;5925;587;2417;1171;438;5276;ConnectedConnected
BestEffort;On;Off;On;On;On;Sip;Sip;H323;Tls;TCP;UDP;Host;Host;Relay;1221;761;1324;3714;2094;647;5925;587;2417;1171;438;5276;FailedConnected
On;On;BestEffort;Off;Off;On;H323;Sip;H320;TCP;TCP;Tls;Host;Host;Host;1170;839;985;2662;1871;1646;5903;535;4644;3469;3082;3395;ConnectedFailed
On;BestEffort;BestEffort;On;On;On;H323;Sip;Auto;TCP;TCP;Auto;Host;Host;Relay;961;596;1495;4557;1811;2626;5942;405;1636;5448;3082;4193;FailedFailed
BestEffort;BestEffort;On;Off;On;On;Sip;Sip;H320;TCP;TCP;Auto;Host;Host;Rflx;1024;818;1289;1089;404;607;5925;2831;4812;1171;3035;5282;ConnectedConnected
BestEffort;BestEffort;On;Off;Off;On;Sip;Auto;Sip;TCP;TCP;UDP;Relay;Host;Rflx;961;596;1476;4557;1811;3362;5942;405;815;5448;194;5977;ConnectedConnected
On;BestEffort;BestEffort;On;On;On;H323;Sip;H320;TCP;TCP;Auto;Host;Host;Rflx;1221;620;1325;2080;920;2515;5735;291;1176;3769;2171;4565;ConnectedFailed
BestEffort;On;Off;On;On;On;Sip;Sip;Sip;Tls;TCP;Auto;Host;Host;Relay;1221;624;908;1723;920;2123;5925;399;2417;1171;5958;5276;ConnectedFailed
On;BestEffort;On;Off;Off;On;Sip;Sip;H320;TCP;TCP;UDP;Host;Host;Relay;1218;761;1409;3714;2094;1719;5925;2831;4812;1936;2332;5281;ConnectedConnected
On;On;BestEffort;Off;On;On;Auto;Sip;H320;TCP;TCP;TCP;Host;Host;Host;1051;839;985;2662;1811;2328;5942;405;1197;2668;3032;5284;ConnectedFailed
BestEffort;On;Off;Off;Off;On;Sip;Auto;H320;TCP;TCP;TCP;Host;Host;Relay;1221;839;985;3714;2094;3304;5942;405;815;4351;5958;5291;ConnectedFailed
On;BestEffort;BestEffort;Off;On;On;Sip;Sip;H320;TCP;TCP;UDP;Host;Host;Relay;1221;624;908;1723;404;3304;5942;2831;4324;3705;173;3396;ConnectedConnected
On;BestEffort;BestEffort;On;On;On;Sip;Sip;Sip;TCP;TCP;Auto;Host;Host;Relay;1221;818;1324;3714;2094;4507;5942;262;3157;4172;417;5720;FailedConnected
On;On;On;Off;On;On;H323;H320;H323;Tls;TCP;TCP;Host;Host;Host;961;596;1476;4557;1811;4562;5942;405;815;1171;2724;5276;ConnectedConnected
BestEffort;On;Off;Off;Off;On;H320;Sip;H323;TCP;TCP;Auto;Host;Host;Rflx;1221;620;1325;745;1811;4562;5942;405;815;1171;2724;5276;FailedConnected
BestEffort;BestEffort;Off;Off;On;On;H320;Sip;H323;TCP;TCP;UDP;Host;Host;Rflx;961;596;1476;4557;1811;2626;5942;1886;815;5448;5852;5977;ConnectedFailed
On;On;BestEffort;Off;On;On;Sip;Sip;Sip;TCP;TCP;Tls;Host;Host;Relay;1221;839;985;174;404;3304;5925;587;2417;4117;5852;202;ConnectedFailed
On;On;BestEffort;Off;Off;On;H323;Sip;Sip;TCP;TCP;TCP;Host;Host;Relay;1221;839;985;745;920;647;5925;587;2417;1171;5958;5276;FailedFailed
On;BestEffort;BestEffort;Off;On;On;H323;Sip;H320;TCP;TCP;TCP;Host;Host;Rflx;1154;596;1444;1254;1183;2626;5942;405;3177;5258;354;5977;ConnectedFailed
On;On;BestEffort;On;Off;On;Auto;Sip;Sip;TCP;TCP;TCP;Host;Host;Host;961;839;985;1037;2094;3304;5942;262;3157;3469;5852;5282;FailedConnected
On;BestEffort;BestEffort;On;Off;On;H323;Sip;H323;TCP;TCP;UDP;Relay;Host;Host;961;596;1444;1254;1456;3243;5925;262;532;4709;5543;4193;FailedConnected
On;BestEffort;Off;Off;Off;On;Auto;Sip;H320;Tls;TCP;Tls;Host;Host;Rflx;1118;596;1444;1254;786;647;5925;262;4423;1171;194;5977;FailedConnected
BestEffort;BestEffort;Off;Off;On;On;H320;Sip;H323;TCP;TCP;UDP;Host;Host;Rflx;961;596;1476;4557;1811;2626;5942;405;815;5448;5852;5977;ConnectedConnected
Off;On;On;On;On;On;Sip;Sip;Sip;TCP;TCP;Tls;Host;Host;Relay;1221;839;985;5810;404;2905;5925;587;2417;4117;3032;5276;FailedConnected
Off;BestEffort;BestEffort;Off;On;On;Sip;Sip;Auto;TCP;TCP;Auto;Host;Host;Relay;1221;839;985;3714;2094;3304;5942;587;2417;3469;3032;5284;ConnectedConnected
On;BestEffort;BestEffort;Off;On;On;Sip;Sip;H320;TCP;TCP;UDP;Host;Host;Relay;1221;620;929;1530;2094;3304;5942;2831;532;4010;173;5282;FailedConnected
On;BestEffort;Off;Off;Off;On;Sip;Sip;H323;Tls;TCP;Tls;Host;Host;Rflx;675;596;1325;4557;2280;323;5925;587;2417;1171;438;5276;FailedFailed
On;BestEffort;BestEffort;Off;On;On;H323;Sip;H323;TCP;TCP;Auto;Host;Host;Relay;1221;596;1062;1947;1651;90;5869;587;2417;1171;5537;5542;FailedFailed
BestEffort;BestEffort;Off;Off;Off;On;Sip;Sip;Auto;TCP;TCP;TCP;Host;Host;Relay;668;660;1332;2842;4785;115;5942;2831;2996;4704;354;5977;ConnectedConnected
BestEffort;BestEffort;Off;On;Off;On;Auto;Sip;H320;TCP;TCP;UDP;Host;Rflx;Rflx;1221;596;1444;137;1811;2626;5942;405;815;5448;5852;5281;FailedConnected
BestEffort;On;BestEffort;Off;Off;On;Auto;Sip;Sip;TCP;TCP;TCP;Host;Host;Rflx;961;696;1216;4557;404;3304;5925;587;2417;1936;5958;5282;FailedFailed
BestEffort;On;Off;Off;Off;On;H320;Sip;H323;TCP;TCP;UDP;Host;Host;Rflx;1221;839;1325;4557;404;3304;5925;405;2417;2962;5958;5281;ConnectedFailed
On;BestEffort;BestEffort;Off;On;On;H323;Sip;Auto;TCP;TCP;TCP;Host;Host;Rflx;1154;596;1465;3122;479;2045;5925;262;532;5521;5543;4193;ConnectedFailed
On;On;Off;Off;On;On;Sip;Sip;Sip;TCP;TCP;TCP;Host;Host;Relay;961;818;1053;1663;404;3304;5942;2831;532;1843;173;5282;FailedFailed
On;BestEffort;BestEffort;On;On;On;H323;Sip;Auto;TCP;TCP;TCP;Host;Host;Host;1051;839;985;2662;404;3304;5925;587;2417;4117;5852;202;FailedConnected
On;On;Off;Off;On;On;Auto;Sip;Sip;Tls;TCP;UDP;Host;Host;Relay;1221;624;908;3202;920;647;5925;587;2417;1171;5958;5276;FailedConnected
BestEffort;On;On;On;Off;On;Sip;Sip;H320;TCP;TCP;Auto;Host;Host;Relay;1221;761;921;205;2094;4262;5869;291;3082;1219;5958;5276;FailedFailed
On;On;BestEffort;Off;On;On;Auto;Sip;H320;TCP;TCP;TCP;Host;Host;Host;1051;839;985;2662;1871;1646;5903;535;1470;3469;3082;3395;ConnectedConnected
BestEffort;BestEffort;BestEffort;Off;On;On;Sip;Sip;H320;TCP;TCP;TCP;Host;Host;Rflx;1221;596;1444;137;1289;2626;5942;405;815;4351;5958;5291;ConnectedFailed
BestEffort;On;Off;Off;Off;On;Auto;Sip;Sip;TCP;TCP;Tls;Host;Host;Host;1172;707;934;2256;833;760;5925;262;1940;4411;5958;5977;ConnectedConnected
On;BestEffort;BestEffort;Off;Off;On;Sip;Sip;Auto;TCP;TCP;TCP;Host;Host;Rflx;1154;596;1465;3122;479;2045;5925;262;532;5521;5543;4193;FailedFailed
Off;On;On;On;On;On;Sip;Sip;Sip;TCP;TCP;Tls;Host;Host;Relay;1221;839;985;5810;591;2905;5925;587;2417;4117;3032;5284;FailedConnected
On;BestEffort;Off;Off;Off;On;Sip;Sip;Auto;TCP;TCP;Auto;Host;Host;Relay;1221;620;1374;4557;1246;647;5869;587;5421;3469;3082;5264;ConnectedConnected
On;BestEffort;On;Off;On;On;Sip;Sip;Sip;Tls;TCP;Auto;Host;Host;Relay;961;596;1325;4557;404;3304;5942;405;3177;5258;3082;5291;FailedFailed
On;On;BestEffort;Off;On;On;Sip;Sip;Sip;TCP;TCP;Tls;Host;Host;Rflx;1154;596;1465;3122;479;2045;5925;262;532;5521;5543;4193;FailedFailed
On;BestEffort;On;Off;On;On;Sip;Sip;H320;Tls;TCP;UDP;Host;Host;Rflx;675;596;1325;4557;2280;2626;5942;587;2417;3469;3073;5284;ConnectedConnected
On;BestEffort;BestEffort;Off;Off;On;Sip;Sip;Auto;TCP;TCP;TCP;Host;Host;Rflx;1154;596;1266;1254;1456;3243;5925;262;532;4709;5543;4193;FailedFailed
On;BestEffort;BestEffort;Off;Off;On;Sip;Sip;Sip;Tls;Tls;TCP;Host;Host;Relay;961;596;1325;137;1183;2626;5801;443;4091;2959;2789;5977;FailedConnected
BestEffort;BestEffort;Off;Off;Off;Off;Auto;Auto;H320;TCP;TCP;Auto;Rflx;Host;Rflx;961;596;1216;2418;404;3304;5925;405;1868;1936;194;5977;FailedFailed
BestEffort;BestEffort;BestEffort;Off;Off;On;Auto;Sip;H323;TCP;TCP;UDP;Host;Host;Rflx;1221;839;1325;4557;2602;3304;5925;405;2417;2962;5958;5281;FailedFailed
On;BestEffort;BestEffort;Off;On;On;Sip;H323;Sip;TCP;TCP;Auto;Host;Host;Relay;1221;596;1325;4221;404;3304;5942;262;3157;3469;3082;5281;FailedFailed
On;BestEffort;BestEffort;Off;On;On;Sip;Sip;Sip;Tls;TCP;TCP;Host;Host;Rflx;1154;596;1444;1254;479;3243;5925;262;532;4709;5543;4704;ConnectedFailed
BestEffort;On;On;On;Off;On;Sip;H320;Sip;TCP;TCP;TCP;Host;Host;Relay;1221;761;1401;1089;1600;2644;5925;402;3157;3469;3082;5281;FailedFailed
On;On;BestEffort;Off;Off;On;Sip;Sip;Auto;TCP;TCP;TCP;Host;Host;Rflx;1154;596;1465;3122;479;2045;5925;262;532;5521;5543;4193;FailedConnected
On;On;On;On;Off;On;Auto;Sip;H320;TCP;TCP;Auto;Host;Host;Relay;1221;620;1325;1530;2094;3304;5942;2831;532;1171;194;5977;ConnectedFailed
BestEffort;On;Off;Off;On;On;Auto;Sip;Auto;TCP;TCP;Auto;Host;Host;Relay;1221;596;1198;4557;1871;3304;5925;587;2417;1171;438;5276;ConnectedFailed
On;BestEffort;BestEffort;On;On;On;Sip;Sip;Auto;TCP;TCP;TCP;Host;Host;Rflx;1221;596;1062;1947;1651;90;5869;587;2417;1171;5958;5977;FailedConnected
BestEffort;BestEffort;Off;On;Off;On;Auto;Sip;H320;TCP;TCP;TCP;Host;Host;Rflx;1221;596;1444;137;1811;2050;5801;587;2417;1171;680;5977;FailedConnected
BestEffort;On;Off;Off;Off;On;Auto;Sip;H320;Tls;TCP;TCP;Host;Host;Relay;1221;620;1325;745;920;647;5925;587;2417;1171;5958;5276;FailedFailed
On;BestEffort;On;On;Off;On;H323;Sip;H323;Tls;TCP;TCP;Host;Host;Host;899;596;1393;1254;479;647;5925;262;1940;1171;194;5977;ConnectedFailed
On;On;BestEffort;Off;Off;On;Auto;Sip;H323;TCP;TCP;Tls;Host;Host;Relay;961;596;1444;1254;1456;3243;5925;262;5348;4709;5543;4193;ConnectedConnected
On;BestEffort;BestEffort;On;On;On;H323;Sip;Auto;TCP;TCP;TCP;Host;Host;Host;1051;596;1476;4557;1811;2437;5942;405;815;5448;194;5977;ConnectedFailed
BestEffort;BestEffort;Off;Off;Off;Off;Auto;Auto;H320;TCP;TCP;Auto;Host;Host;Rflx;961;596;1216;2418;404;2515;5735;291;1176;3769;5695;5357;FailedConnected
On;On;BestEffort;Off;On;On;Sip;Sip;Sip;TCP;TCP;Tls;Host;Host;Relay;1221;620;946;1530;2094;3304;5942;2831;532;4010;173;5282;FailedFailed
On;BestEffort;Off;On;On;On;Sip;Sip;H320;TCP;TCP;TCP;Host;Host;Relay;1218;761;1324;4584;236;3750;5925;262;889;1936;3082;5276;ConnectedConnected
BestEffort;On;Off;Off;Off;On;H320;Sip;H323;TCP;TCP;UDP;Host;Host;Rflx;1221;620;1476;4557;1811;2626;5942;405;815;5448;5852;5977;ConnectedConnected
BestEffort;BestEffort;Off;Off;Off;On;H320;Sip;Auto;TCP;TCP;TCP;Host;Host;Rflx;961;596;1476;4557;2094;3304;5735;291;1176;3769;5695;5357;FailedFailed
BestEffort;On;Off;Off;Off;On;H320;Sip;H323;Tls;TCP;Auto;Host;Host;Rflx;1221;596;1198;4557;1871;3304;5925;587;2417;1171;438;5276;FailedConnected
BestEffort;On;On;Off;Off;On;Auto;Sip;Auto;TCP;TCP;TCP;Host;Host;Relay;961;596;1325;4557;404;3304;5942;1494;3177;5258;3082;5291;ConnectedConnected
On;BestEffort;On;Off;On;On;H323;Sip;Auto;TCP;TCP;TCP;Host;Host;Rflx;1093;596;1325;5585;1183;1993;5801;443;4091;2482;980;5529;FailedConnected
On;BestEffort;BestEffort;Off;Off;On;Sip;Sip;H323;Tls;TCP;UDP;Host;Host;Relay;1221;620;1325;1530;1191;3304;5942;405;3177;5421;3082;4809;ConnectedFailed
On;On;Off;On;On;On;Auto;Sip;Auto;TCP;TCP;Auto;Host;Host;Relay;961;596;1303;3158;1811;2328;5942;405;1197;2668;3032;5284;FailedConnected
BestEffort;BestEffort;Off;Off;On;On;H320;Sip;H323;TCP;TCP;Auto;Host;Host;Rflx;1024;818;1289;1089;404;607;5925;2831;4812;1171;3035;5282;ConnectedConnected
On;On;On;On;Off;On;Auto;Sip;H320;Tls;TCP;TCP;Host;Host;Relay;1221;624;908;1723;920;2123;5925;399;2417;1171;4334;5276;ConnectedFailed
BestEffort;BestEffort;On;Off;On;On;Sip;Sip;H320;TCP;TCP;UDP;Host;Host;Rflx;961;736;1376;1319;4251;2791;5942;739;642;1171;194;5977;ConnectedConnected
BestEffort;BestEffort;On;Off;On;On;Auto;Sip;H320;Tls;TCP;Auto;Host;Host;Rflx;961;596;1476;4557;1811;2437;5942;405;4091;2959;2789;5977;FailedFailed
On;BestEffort;Off;Off;On;On;Sip;Sip;H320;TCP;TCP;UDP;Rflx;Host;Rflx;961;596;1216;4557;404;3304;5925;405;2417;2962;5958;5276;FailedFailed
Off;BestEffort;On;On;On;On;Sip;Sip;Sip;Tls;TCP;Tls;Host;Host;Relay;1218;761;1409;3425;2094;1719;5925;2831;4812;1936;2332;5281;FailedConnected
BestEffort;On;Off;Off;Off;On;Auto;Sip;Auto;TCP;TCP;TCP;Host;Host;Rflx;1221;596;1444;137;1289;2626;5942;405;815;4351;5958;5291;FailedFailed
On;BestEffort;BestEffort;Off;Off;On;Sip;Sip;H323;Tls;TCP;UDP;Host;Host;Host;1221;620;941;4557;404;512;5942;852;265;3469;3082;5281;FailedConnected
On;BestEffort;Off;Off;Off;On;Sip;Sip;H323;Auto;TCP;Auto;Relay;Host;Rflx;961;596;1476;4557;1811;2437;5942;405;815;5448;194;5977;FailedFailed
On;BestEffort;BestEffort;On;On;On;Auto;H320;H320;Tls;TCP;TCP;Host;Host;Relay;1051;839;985;4707;404;3304;5942;405;815;5448;194;5977;FailedFailed
On;On;Off;Off;Off;On;Sip;Sip;Sip;TCP;TCP;Auto;Host;Host;Relay;648;660;1168;5810;2094;3304;5942;262;3157;3469;3082;5281;FailedFailed
BestEffort;BestEffort;BestEffort;Off;Off;On;Auto;Sip;Auto;TCP;TCP;UDP;Host;Host;Relay;1221;624;908;1723;920;2123;5925;5760;4812;1936;194;5977;ConnectedFailed
BestEffort;BestEffort;Off;Off;Off;On;H320;Sip;Auto;TCP;TCP;TCP;Host;Host;Rflx;1488;596;1476;4557;2094;3304;5925;2831;2417;3653;1707;5977;FailedConnected
On;BestEffort;BestEffort;Off;Off;On;Sip;Sip;Auto;TCP;TCP;Tls;Host;Host;Rflx;1154;620;1325;4557;1246;2515;5735;2015;1176;3769;5695;5357;FailedConnected
BestEffort;BestEffort;On;Off;On;On;Sip;Sip;H320;TCP;TCP;TCP;Host;Host;Relay;1221;620;1325;1530;1191;4325;5942;405;3177;5421;3082;4809;ConnectedConnected
On;BestEffort;BestEffort;On;On;On;H323;Sip;Auto;TCP;TCP;UDP;Host;Host;Relay;1218;761;1324;3714;2094;3250;5925;587;532;2349;173;5908;ConnectedFailed
BestEffort;BestEffort;BestEffort;Off;Off;On;Sip;Sip;H320;TCP;TCP;Tls;Host;Host;Rflx;961;596;1304;4557;714;3304;5942;2831;4758;5726;2332;5977;ConnectedConnected
On;BestEffort;BestEffort;Off;On;On;Sip;Sip;Sip;Tls;TCP;TCP;Host;Host;Rflx;1154;761;1324;205;2094;4262;5869;291;3082;1171;5958;5282;FailedConnected
On;On;BestEffort;On;Off;On;Auto;Sip;Sip;TCP;TCP;TCP;Host;Host;Rflx;733;771;934;5700;1403;2050;5801;587;2417;1171;5958;2067;FailedConnected
BestEffort;On;Off;Off;Off;On;H320;Sip;H323;TCP;TCP;Auto;Relay;Host;Rflx;961;596;1476;4557;1811;2437;5942;405;3177;5258;3082;5291;FailedConnected
BestEffort;BestEffort;Off;Off;Off;On;Sip;Sip;H323;Tls;TCP;Tls;Host;Host;Relay;1218;761;1409;3714;2094;1719;5925;2831;4812;1936;2332;5281;ConnectedFailed
On;On;Off;Off;Off;On;Auto;H320;Auto;Tls;TCP;TCP;Host;Host;Host;1154;596;1325;3037;404;2626;5942;405;815;4351;5958;5276;FailedFailed
BestEffort;BestEffort;BestEffort;On;Off;On;Auto;Sip;Auto;TCP;TCP;TCP;Host;Host;Rflx;1221;596;1444;137;1289;2626;5942;405;815;4351;5958;5291;FailedFailed
On;BestEffort;On;On;On;On;Sip;Sip;Sip;TCP;TCP;UDP;Host;Host;Rflx;1024;818;1333;1663;4267;3304;5942;2831;532;1843;173;5282;ConnectedFailed
BestEffort;On;Off;Off;Off;On;H320;Auto;Sip;TCP;Tls;UDP;Relay;Host;Rflx;900;596;1325;4557;1871;4380;5925;405;2417;2962;5958;5281;FailedFailed
BestEffort;BestEffort;Off;Off;On;On;H320;Sip;H320;TCP;TCP;Auto;Host;Host;Rflx;1221;620;1325;1530;344;4822;5869;587;2417;3632;5958;5542;ConnectedFailed
BestEffort;On;Off;Off;Off;On;H320;Sip;H323;TCP;TCP;UDP;Host;Host;Rflx;1221;620;1476;4557;1811;3304;5735;291;1176;3769;5695;5357;ConnectedFailed
On;BestEffort;BestEffort;On;Off;On;H323;Sip;H323;TCP;TCP;UDP;Relay;Host;Host;961;596;1444;1254;1456;3243;5925;262;4091;2482;980;5529;FailedFailed
On;On;On;On;Off;On;Auto;Sip;H320;Tls;TCP;TCP;Host;Host;Relay;1221;624;908;1723;920;2123;5925;399;3787;1171;5958;5276;FailedConnected
BestEffort;BestEffort;Off;Off;On;On;Sip;Sip;Sip;Tls;TCP;Tls;Host;Host;Host;1172;635;935;3714;2094;1210;5942;587;2417;3469;3032;5977;FailedConnected
BestEffort;On;BestEffort;On;Off;On;Auto;Sip;Sip;TCP;TCP;Tls;Host;Host;Host;1172;707;934;2256;833;760;5925;262;1940;4411;5958;5977;FailedFailed
BestEffort;BestEffort;Off;Off;Off;On;Sip;Sip;Auto;TCP;TCP;TCP;Host;Host;Rflx;961;596;1476;4557;1811;2626;5942;405;815;5448;5852;5977;FailedFailed
On;BestEffort;BestEffort;On;Off;On;Sip;Sip;Sip;TCP;TCP;Auto;Host;Host;Relay;1221;839;985;5810;1191;3304;5942;405;3177;5421;3082;4809;ConnectedConnected
BestEffort;On;On;Off;Off;On;Auto;Sip;Auto;TCP;TCP;TCP;Host;Host;Rflx;1221;596;1444;137;1289;2626;5942;405;815;4351;5958;5291;FailedConnected
On;On;On;On;Off;On;Sip;H320;Sip;TCP;TCP;TCP;Host;Host;Relay;1221;761;1444;1254;1456;3243;5925;262;532;4709;354;5977;FailedConnected
On;BestEffort;BestEffort;On;On;On;Sip;Sip;Sip;Tls;TCP;Auto;Host;Host;Relay;855;660;1476;4557;3608;3304;5942;587;2417;3469;3082;5977;FailedFailed
On;On;On;Off;On;On;Sip;Sip;H320;TCP;TCP;UDP;Host;Host;Relay;1218;596;1393;1254;479;647;5925;262;1940;1171;194;5977;FailedFailed
BestEffort;BestEffort;On;Off;On;On;Auto;Sip;H323;Tls;TCP;Auto;Host;Host;Rflx;1421;596;1476;4557;1811;2437;5942;405;2417;2962;5958;5281;FailedFailed
On;On;Off;Off;On;On;Auto;Sip;Auto;TCP;TCP;TCP;Host;Host;Relay;1221;761;1324;205;2094;4262;5869;291;2417;1171;1484;5282;FailedConnected
On;BestEffort;On;Off;On;On;Sip;Sip;H320;TCP;TCP;TCP;Host;Host;Rflx;1024;658;1289;1089;404;3681;5925;2831;4812;1936;2332;5284;ConnectedConnected
BestEffort;BestEffort;Off;Off;On;On;H320;Sip;Auto;TCP;TCP;Auto;Host;Host;Rflx;1218;761;1324;3714;2094;3250;5925;405;2816;2962;3082;5281;FailedConnected
BestEffort;BestEffort;Off;Off;Off;On;Auto;Sip;H320;Tls;TCP;Tls;Host;Host;Rflx;961;596;1175;4557;714;3304;5942;2831;4082;5726;2332;5977;FailedFailed
BestEffort;BestEffort;Off;Off;On;On;H320;Sip;Auto;TCP;TCP;Auto;Host;Host;Rflx;1223;620;1325;745;920;4822;5869;200;3157;3469;3082;5281;FailedFailed
On;On;Off;On;On;On;Auto;Sip;Auto;TCP;TCP;Auto;Host;Host;Rflx;1221;707;934;2256;833;2515;5735;291;1176;3769;5695;5357;ConnectedConnected
On;On;BestEffort;On;On;On;H323;Sip;Auto;TCP;TCP;Auto;Host;Host;Relay;1221;818;1324;2662;1871;2050;5801;587;2417;1171;5958;5977;ConnectedConnected
On;On;BestEffort;Off;On;On;Sip;Sip;Sip;TCP;TCP;UDP;Host;Host;Host;1069;596;1444;745;920;647;5925;587;3082;1171;5958;5276;FailedConnected
On;BestEffort;BestEffort;Off;On;On;Sip;Sip;H323;TCP;TCP;Tls;Host;Host;Relay;1221;839;985;5810;404;2905;5925;587;2417;4117;3032;5276;ConnectedFailed
On;On;BestEffort;On;Off;On;Auto;Sip;Sip;TCP;TCP;TCP;Host;Host;Rflx;1118;596;1444;1254;479;2775;5925;262;1940;1171;194;5977;ConnectedConnected
On;BestEffort;On;On;On;On;Sip;H320;Sip;Tls;Tls;TCP;Host;Host;Rflx;1221;620;1325;4557;1246;2515;5735;291;1176;3769;5695;5357;FailedConnected
On;On;BestEffort;Off;Off;On;Auto;Sip;Sip;TCP;TCP;TCP;Host;Host;Rflx;1154;596;1444;1254;998;3243;5925;587;2417;5448;5852;2699;FailedConnected
On;On;BestEffort;On;Off;On;H323;Sip;Auto;TCP;TCP;Auto;Host;Host;Relay;961;596;1476;4557;1811;2626;5942;405;815;5448;5852;3714;FailedFailed
BestEffort;On;BestEffort;On;Off;On;Sip;Auto;H320;TCP;TCP;TCP;Host;Host;Relay;1221;761;1324;205;2094;4262;5869;291;3082;1171;1499;5276;ConnectedFailed
On;BestEffort;BestEffort;Off;On;On;Sip;Sip;H320;TCP;TCP;TCP;Host;Host;Rflx;961;596;1304;4557;714;3304;5942;2831;4758;5726;2110;5284;ConnectedConnected
On;BestEffort;BestEffort;Off;On;On;H323;Sip;Sip;TCP;TCP;TCP;Host;Host;Relay;1221;660;1215;4959;2003;647;5925;2831;4812;1936;2332;4385;FailedConnected
On;On;On;Off;Off;On;Sip;Sip;H320;TCP;TCP;UDP;Host;Host;Host;961;736;1376;1319;2094;4262;5869;291;1498;1171;1484;5282;FailedConnected
Off;BestEffort;On;Off;On;On;Sip;Sip;Sip;Tls;TCP;Tls;Host;Host;Relay;668;660;1215;5161;3464;647;5925;587;781;3469;3082;5291;FailedConnected
BestEffort;On;Off;Off;Off;On;H320;Sip;Sip;TCP;TCP;Auto;Relay;Host;Rflx;961;596;1476;4557;1811;2437;5942;405;2266;5448;5852;5282;FailedConnected
On;BestEffort;Off;On;On;On;Sip;Sip;Sip;Tls;TCP;Auto;Host;Host;Relay;1221;620;1376;745;920;647;5925;587;2417;1171;2332;5353;ConnectedFailed
On;BestEffort;On;On;Off;On;Sip;Sip;Sip;Tls;TCP;Auto;Host;Host;Relay;1221;839;985;3030;1871;3464;5869;587;5421;3469;3082;5281;FailedConnected
BestEffort;BestEffort;BestEffort;Off;On;On;Sip;Sip;Sip;TCP;TCP;TCP;Host;Host;Host;961;818;1053;1663;4624;1186;5942;587;2417;3469;792;5977;FailedFailed
On;On;On;Off;Off;On;Auto;Sip;Auto;TCP;TCP;TCP;Host;Host;Relay;961;596;1325;4557;404;3304;5942;405;3177;5258;3082;5291;FailedConnected
On;BestEffort;BestEffort;Off;On;On;Sip;Sip;Auto;TCP;TCP;TCP;Host;Host;Rflx;961;596;1304;4557;714;3304;5942;2831;4758;3653;1707;5977;ConnectedFailed
BestEffort;On;Off;Off;Off;On;Auto;Sip;H320;Tls;TCP;Tls;Host;Host;Relay;1218;761;1409;3714;2094;1719;5925;2831;4812;1936;2332;5281;FailedFailed
On;BestEffort;BestEffort;Off;On;On;Sip;Sip;Sip;Tls;TCP;TCP;Host;Host;Rflx;1154;596;1444;1254;479;3243;5925;262;532;4709;5543;4704;FailedConnected
On;BestEffort;Off;Off;On;On;Auto;Auto;H320;TCP;TCP;TCP;Host;Host;Rflx;1221;620;1325;4557;1246;2515;5735;2015;1176;3769;5695;5357;FailedFailed
On;On;BestEffort;Off;On;On;H323;Sip;Auto;TCP;TCP;Auto;Host;Host;Relay;961;596;1495;4557;1811;2626;5942;405;815;5448;3082;3395;FailedConnected
Off;BestEffort;On;Off;On;On;Sip;Sip;Sip;Tls;TCP;Tls;Host;Host;Relay;1218;761;1409;3714;2094;1719;5942;535;3008;3469;3082;5542;FailedConnected
On;On;On;Off;On;On;Auto;Sip;Sip;TCP;TCP;Auto;Host;Host;Rflx;1024;596;1418;1609;2094;3304;5942;262;3157;3469;5852;5282;FailedFailed
BestEffort;On;On;Off;Off;On;Auto;Sip;Sip;TCP;TCP;UDP;Host;Host;Relay;1221;624;908;1723;920;647;5925;587;2417;1171;5958;5276;FailedFailed
On;On;On;Off;On;On;Auto;Sip;Sip;TCP;TCP;Auto;Host;Host;Rflx;1024;761;1070;4557;1742;3304;5869;587;3157;3469;5852;5282;ConnectedFailed
BestEffort;On;Off;Off;On;On;Sip;Sip;Auto;TCP;TCP;TCP;Host;Host;Rflx;1221;596;1062;1947;1651;90;5869;587;2417;1171;5958;5977;ConnectedConnected
On;On;BestEffort;On;Off;On;H323;Sip;Auto;TCP;TCP;Auto;Host;Host;Relay;1221;818;1324;3714;2094;3304;5942;262;3157;3469;417;3395;FailedConnected
On;BestEffort;Off;Off;Off;On;Sip;Auto;Auto;TCP;TCP;UDP;Host;Host;Relay;1221;624;908;1723;920;2123;5925;2831;4979;1936;194;5977;ConnectedConnected
BestEffort;BestEffort;BestEffort;Off;On;On;Auto;Sip;H320;TCP;TCP;UDP;Host;Host;Relay;709;660;1215;4959;2003;647;5925;2831;532;4709;5543;5977;ConnectedFailed
BestEffort;BestEffort;On;On;Off;On;Auto;Sip;Auto;TCP;TCP;Auto;Host;Host;Rflx;961;818;985;3714;920;3304;5942;587;2417;3469;792;5977;ConnectedConnected
Off;BestEffort;BestEffort;On;On;On;Sip;Sip;Sip;TCP;TCP;Auto;Host;Host;Relay;1221;620;1325;1530;1246;4822;5869;587;3157;3469;3082;5282;ConnectedConnected
BestEffort;BestEffort;BestEffort;Off;Off;On;Auto;Sip;Auto;TCP;TCP;Auto;Host;Relay;Relay;961;596;1495;4557;1811;2626;5942;405;815;3469;3082;5281;ConnectedFailed
On;BestEffort;Off;On;On;On;Sip;Sip;Sip;TCP;Tls;TCP;Host;Host;Rflx;1221;620;1325;4557;1246;4822;5869;587;225;4471;5555;5977;ConnectedConnected
On;On;On;On;Off;On;Auto;Sip;H323;TCP;TCP;UDP;Host;Host;Rflx;1221;839;985;1319;4251;2791;5942;739;642;3538;1341;5282;FailedConnected
BestEffort;On;Off;On;Off;On;H320;Sip;Sip;TCP;TCP;UDP;Relay;Host;Rflx;961;596;1325;4557;404;3304;5925;405;2417;5799;2332;5353;FailedConnected
On;On;On;On;Off;On;Auto;Sip;H320;TCP;TCP;Auto;Host;Host;Relay;1221;620;1325;1530;2094;3304;5942;2831;532;4010;173;5282;FailedConnected
On;On;On;Off;Off;On;Auto;Sip;Auto;TCP;TCP;TCP;Host;Host;Rflx;1221;596;1444;137;1289;2626;5942;405;815;4351;5958;5291;FailedFailed
On;BestEffort;BestEffort;Off;On;On;H323;Sip;Sip;TCP;TCP;Tls;Host;Host;Host;961;596;1476;4557;1811;4562;5942;405;815;5448;354;5282;ConnectedConnected
BestEffort;BestEffort;Off;Off;On;On;Sip;Sip;Sip;Tls;TCP;Auto;Host;Host;Host;1154;839;985;5810;4251;2791;5942;739;642;3538;1341;5282;ConnectedConnected
On;BestEffort;On;Off;Off;On;Auto;Auto;Auto;TCP;TCP;Auto;Host;Host;Relay;1221;596;1062;1947;1651;90;5869;587;2417;1171;1554;5542;FailedFailed
Off;BestEffort;On;Off;On;On;Sip;Sip;Sip;Auto;TCP;Tls;Host;Host;Relay;1214;660;1215;5161;3464;647;5925;2831;4812;1936;2332;5353;FailedConnected
BestEffort;BestEffort;On;Off;On;On;Sip;Sip;H320;TCP;TCP;TCP;Host;Host;Relay;1221;620;1325;1530;1191;4325;5942;405;3177;1936;2332;5353;FailedConnected
On;BestEffort;BestEffort;Off;On;On;Sip;Sip;Sip;TCP;TCP;Tls;Host;Host;Relay;1221;839;985;5810;404;3304;5925;587;2417;4117;5852;202;FailedFailed
BestEffort;On;Off;Off;Off;On;H320;Sip;H323;Tls;TCP;Auto;Host;Host;Rflx;1485;596;1444;137;1289;2626;5942;405;815;4351;5958;5291;FailedConnected
BestEffort;On;On;On;Off;On;Auto;Sip;Sip;TCP;TCP;Auto;Host;Host;Rflx;923;596;1418;1609;2077;3304;5942;262;3157;3469;5852;5357;ConnectedFailed
BestEffort;BestEffort;Off;Off;On;On;H320;Sip;H323;TCP;TCP;Auto;Host;Host;Rflx;961;596;1325;4557;404;3304;5942;587;532;2349;173;5908;FailedFailed
On;On;BestEffort;Off;On;On;Auto;Sip;H320;TCP;TCP;TCP;Host;Host;Rflx;1221;596;1444;137;1289;2626;5942;405;815;2959;5958;5276;FailedFailed
BestEffort;BestEffort;Off;Off;On;On;H320;Sip;H323;TCP;TCP;Auto;Host;Host;Rflx;1221;839;985;1319;4251;2791;5942;739;642;3538;1341;5282;ConnectedConnected
On;BestEffort;BestEffort;On;Off;On;Auto;Sip;Sip;TCP;TCP;TCP;Host;Host;Host;961;839;1325;745;1811;4562;5942;405;815;1171;2724;5276;ConnectedConnected
On;On;BestEffort;On;Off;On;Auto;Sip;H320;Tls;TCP;TCP;Host;Host;Relay;919;728;1324;3714;2094;3304;5942;262;3157;3469;3082;5281;ConnectedFailed
On;On;On;Off;On;On;H323;Sip;H323;Tls;TCP;TCP;Host;Host;Relay;668;596;1418;4076;236;100;5925;262;5652;5468;2332;5977;FailedFailed
BestEffort;BestEffort;On;Off;On;On;Sip;Auto;H320;TCP;TCP;Auto;Host;Host;Relay;1221;761;1324;3714;2094;647;5925;587;2417;1171;438;5276;ConnectedConnected
On;On;BestEffort;On;On;On;H323;Sip;Auto;TCP;TCP;Auto;Host;Host;Relay;1221;818;1324;2662;1871;2050;5801;587;2417;1171;5958;2067;ConnectedFailed
BestEffort;BestEffort;BestEffort;On;Off;Off;Auto;Auto;H323;Tls;Tls;TCP;Host;Host;Host;1051;596;1444;745;404;3304;5942;2831;889;1936;2332;5353;FailedConnected
On;BestEffort;BestEffort;On;On;On;Sip;Sip;Sip;TCP;TCP;Tls;Host;Host;Relay;1221;1352;1189;5683;404;3304;5903;535;1470;3469;3082;3395;ConnectedConnected
BestEffort;BestEffort;Off;Off;Off;On;Sip;Sip;Auto;TCP;TCP;Auto;Host;Host;Rflx;1221;620;1374;4557;1246;647;5869;587;5421;3469;3082;5264;ConnectedFailed
BestEffort;BestEffort;Off;Off;On;On;H320;Sip;H323;TCP;TCP;UDP;Host;Host;Rflx;961;736;1376;1319;4251;2791;5942;739;537;1171;194;5977;ConnectedConnected
BestEffort;On;Off;Off;Off;On;Auto;Sip;Auto;TCP;TCP;Auto;Host;Host;Relay;1221;596;1198;4557;1871;3304;5925;587;2417;1171;438;5276;FailedFailed
BestEffort;BestEffort;On;Off;On;On;Auto;Sip;H320;TCP;TCP;TCP;Host;Host;Relay;1070;818;1324;3714;2094;3304;5942;262;3157;3469;3082;5281;FailedFailed
On;BestEffort;Off;On;On;On;Sip;Sip;Sip;Tls;TCP;Auto;Host;Host;Relay;668;660;1476;4557;3608;3304;5942;587;2417;3469;3082;5977;ConnectedFailed
On;On;BestEffort;On;On;On;H323;Sip;Auto;TCP;TCP;Auto;Host;Host;Relay;1221;818;947;3714;2094;3304;5942;262;3157;3469;417;5281;ConnectedConnected
On;BestEffort;On;Off;On;On;Sip;Sip;Auto;TCP;TCP;TCP;Host;Host;Rflx;1221;839;985;1319;4251;2791;5942;2831;889;1936;2332;5353;ConnectedFailed
BestEffort;On;Off;Off;Off;On;Auto;Sip;Sip;TCP;TCP;Auto;Relay;Host;Rflx;961;596;1325;4557;404;3304;5925;405;2417;5799;2332;5353;ConnectedFailed
On;BestEffort;BestEffort;On;Off;On;H323;Sip;H320;TCP;TCP;UDP;Host;Host;Relay;961;596;1325;4221;404;3304;5942;262;3157;3469;3082;5281;ConnectedFailed
On;BestEffort;BestEffort;Off;On;On;Auto;Sip;H320;TCP;TCP;TCP;Host;Host;Host;1051;839;985;2662;1871;2515;5735;291;1176;3769;2171;4565;FailedFailed
BestEffort;On;On;On;Off;On;Auto;Sip;Auto;TCP;TCP;Tls;Host;Host;Rflx;1154;596;1112;3122;479;1719;5942;587;2417;3469;2110;5284;FailedFailed
BestEffort;BestEffort;On;Off;On;On;Sip;Sip;Sip;Tls;TCP;Auto;Host;Host;Relay;1218;653;1324;3714;2094;3304;5942;1490;2417;5258;3082;5291;FailedFailed
On;On;On;Off;On;On;Sip;Sip;H320;TCP;TCP;Auto;Host;Host;Rflx;733;771;934;5700;1403;2050;5801;587;2417;1171;5958;5542;FailedConnected
BestEffort;On;Off;Off;Off;On;H320;Sip;H323;TCP;TCP;Auto;Relay;Host;Rflx;961;596;1476;1089;404;2644;5925;402;3157;3469;3082;5281;FailedFailed
On;On;BestEffort;On;On;On;Auto;Sip;H320;TCP;TCP;UDP;Host;Host;Relay;1218;761;1324;3714;2094;1719;5942;587;2417;3469;2110;5284;FailedConnected
On;On;Off;On;On;On;Auto;Sip;Auto;Auto;TCP;Auto;Host;Host;Relay;961;596;1303;3158;1811;2328;5942;405;1197;2668;3032;5276;FailedFailed
BestEffort;On;On;On;Off;On;Auto;Sip;Sip;TCP;TCP;Auto;Host;Relay;Rflx;923;596;1476;3631;1811;2626;5942;405;5125;5448;5958;5276;FailedFailed
BestEffort;BestEffort;On;Off;On;On;Sip;Sip;Sip;Tls;TCP;Tls;Host;Host;Relay;668;660;1215;5161;3464;647;5925;587;781;3469;3082;5291;ConnectedFailed
BestEffort;BestEffort;On;Off;On;On;Sip;Sip;H323;TCP;TCP;Auto;Host;Host;Relay;919;818;1324;3714;2094;3304;5942;262;3157;3469;3082;5284;ConnectedFailed
On;On;BestEffort;Off;Off;On;Auto;Sip;Sip;TCP;TCP;Tls;Host;Host;Host;961;596;1476;4557;1811;4562;5942;405;815;5448;354;5282;ConnectedFailed
On;BestEffort;On;On;Off;On;Auto;Auto;H320;TCP;TCP;TCP;Host;Host;Relay;1221;761;1393;3457;479;647;5925;262;1940;3138;194;5977;FailedConnected
BestEffort;BestEffort;On;On;Off;On;Auto;H323;Sip;TCP;TCP;Auto;Host;Host;Rflx;1024;596;1418;1609;2094;3304;5942;587;815;5448;194;5977;FailedFailed
BestEffort;BestEffort;Off;On;On;On;Sip;Sip;Auto;TCP;TCP;TCP;Host;Host;Rflx;1118;596;1444;1254;786;647;5942;1005;2417;3469;3082;5281;ConnectedConnected
BestEffort;On;On;On;On;On;Auto;Sip;H320;TCP;TCP;Tls;Host;Host;Relay;1154;596;1444;1254;786;647;5925;262;1940;1171;5958;5276;ConnectedFailed
On;BestEffort;On;Off;On;On;Auto;Sip;Auto;TCP;TCP;Tls;Host;Host;Relay;1221;839;985;5810;404;1646;5903;535;4644;3469;2265;3395;ConnectedConnected
BestEffort;BestEffort;On;Off;Off;On;Auto;Sip;Sip;TCP;TCP;TCP;Host;Host;Rflx;1221;596;1062;1947;1651;90;5869;587;4417;1936;5958;5282;FailedConnected
On;On;BestEffort;Off;Off;On;Auto;Sip;Sip;TCP;TCP;UDP;Host;Host;Rflx;1154;596;1444;1254;998;3243;5925;262;532;4709;5543;4193;FailedFailed
BestEffort;On;Off;Off;On;On;Sip;Sip;Sip;TCP;TCP;TCP;Host;Host;Relay;1221;624;908;1723;920;2123;5925;587;5851;1171;5958;5276;ConnectedFailed
On;On;Off;Off;Off;On;Auto;Sip;H320;TCP;TCP;UDP;Host;Host;Relay;1218;761;1409;3714;2094;1719;5942;587;2417;3469;3032;5284;FailedConnected
BestEffort;BestEffort;BestEffort;Off;On;On;Sip;Sip;Sip;TCP;TCP;TCP;Host;Host;Host;961;818;1053;1663;404;1186;5942;587;2417;3469;792;5977;ConnectedFailed
On;On;Off;Off;Off;On;Auto;Sip;Sip;TCP;TCP;UDP;Relay;Host;Rflx;961;596;1160;3037;404;3304;5925;405;2417;5799;5981;5977;ConnectedFailed
Off;BestEffort;On;Off;On;On;Sip;Sip;H323;TCP;TCP;Auto;Host;Host;Relay;1221;624;1332;2842;4785;115;5942;2831;2996;4704;354;5977;ConnectedConnected
On;BestEffort;BestEffort;Off;On;On;Auto;Sip;H320;TCP;TCP;TCP;Host;Host;Host;1051;839;985;2662;1871;2050;5801;587;2417;1171;5958;2067;ConnectedConnected
On;BestEffort;Off;Off;Off;On;Auto;Sip;Auto;TCP;TCP;TCP;Host;Host;Rflx;961;818;1216;4557;2094;4262;5869;291;2417;1171;1484;5282;FailedFailed
On;On;On;On;Off;On;Sip;H320;Sip;TCP;TCP;TCP;Host;Host;Relay;1221;761;1401;1089;404;2644;5925;402;3157;3469;3082;5281;ConnectedFailed
On;BestEffort;BestEffort;Off;On;On;H323;Sip;Auto;TCP;TCP;Tls;Host;Host;Rflx;1154;596;908;1723;920;647;5925;2234;3673;1171;479;5353;FailedFailed
BestEffort;BestEffort;Off;Off;Off;On;Sip;Auto;Sip;TCP;TCP;TCP;Host;Host;Relay;668;660;1332;3158;1811;2328;5942;405;4174;5258;2815;5291;FailedConnected
On;BestEffort;On;Off;Off;On;Sip;Sip;Sip;Tls;TCP;Auto;Host;Host;Relay;1221;596;1198;4557;1871;3304;5925;587;2417;1171;438;5276;ConnectedFailed
On;On;BestEffort;On;On;On;H323;Sip;Sip;TCP;TCP;Auto;Host;Host;Relay;1221;620;1325;1530;1246;4822;5869;587;3157;3469;3082;5282;FailedFailed
On;On;BestEffort;On;On;On;Auto;Sip;Sip;TCP;TCP;Auto;Host;Host;Relay;1221;620;1455;4549;2094;3304;5942;587;5421;3469;3082;5281;FailedFailed
BestEffort;BestEffort;On;Off;Off;On;Auto;Auto;Auto;TCP;TCP;Auto;Host;Host;Rflx;1024;596;1418;1609;2094;3191;5942;262;1940;4411;5958;5276;ConnectedFailed
On;BestEffort;BestEffort;Off;Off;On;Auto;Sip;Sip;TCP;TCP;UDP;Host;Host;Relay;961;596;941;4557;833;2515;5735;5699;1176;3769;2881;5357;FailedConnected
BestEffort;On;Off;Off;Off;On;H320;Auto;Sip;TCP;TCP;UDP;Relay;Host;Rflx;961;596;1476;4557;1811;3362;5942;405;815;5448;194;5977;ConnectedFailed
On;BestEffort;BestEffort;On;Off;On;H323;Sip;H323;TCP;TCP;UDP;Relay;Host;Host;961;596;1444;1254;1456;3243;5925;262;532;3469;3073;3597;FailedFailed
BestEffort;BestEffort;BestEffort;On;Off;On;Auto;Sip;Auto;TCP;TCP;TCP;Host;Host;Rflx;1221;596;1444;137;1289;2626;5942;587;2417;3469;438;5276;FailedFailed
BestEffort;BestEffort;Off;Off;Off;On;Auto;Sip;Auto;TCP;TCP;Auto;Host;Host;Relay;961;596;1325;1349;1043;2626;5942;405;4174;5258;2815;5291;ConnectedConnected
On;On;BestEffort;On;Off;On;Auto;Sip;H320;Tls;TCP;Tls;Host;Host;Relay;1221;596;1198;4557;1871;3304;5925;587;2417;1171;438;5276;FailedFailed
BestEffort;BestEffort;Off;Off;Off;On;H320;Sip;H323;Tls;TCP;Auto;Host;Host;Rflx;1485;596;1444;137;1289;2626;5942;405;815;4351;5958;5291;FailedFailed
BestEffort;BestEffort;Off;Off;On;On;Sip;Sip;Sip;TCP;TCP;TCP;Host;Host;Rflx;689;596;1062;1947;1651;90;5869;587;807;1171;5958;5542;FailedConnected
BestEffort;BestEffort;On;Off;On;On;Sip;Sip;H320;TCP;TCP;TCP;Host;Host;Relay;1221;620;1325;1530;1191;4325;5942;405;3177;5421;3082;4809;FailedConnected
On;BestEffort;BestEffort;Off;On;On;Sip;Sip;Auto;TCP;TCP;TCP;Host;Host;Host;689;596;1062;1071;920;2123;5925;291;3082;1171;5958;5276;ConnectedFailed
BestEffort;On;Off;Off;Off;On;Auto;Sip;Sip;TCP;TCP;TCP;Host;Host;Rflx;1024;596;1418;1609;2094;3304;5942;262;3157;3469;2946;5281;FailedConnected
BestEffort;BestEffort;Off;Off;Off;On;Auto;Sip;Auto;TCP;TCP;TCP;Host;Host;Rflx;1221;596;1444;137;1289;2626;5942;405;815;4351;5958;5291;FailedFailed
On;BestEffort;Off;On;On;On;Auto;Sip;Auto;TCP;TCP;Auto;Host;Host;Relay;961;596;1303;3158;1811;2328;5942;405;1197;3469;3082;5281;FailedConnected
BestEffort;BestEffort;Off;Off;Off;On;H320;Sip;Auto;TCP;TCP;TCP;Host;Host;Host;961;596;1476;4557;1811;2626;5942;405;815;5448;5852;5977;FailedFailed
On;BestEffort;Off;On;On;On;Sip;Sip;Auto;Auto;TCP;Tls;Host;Host;Rflx;675;596;1325;4557;2280;2626;5942;3479;2417;3469;3073;5284;FailedConnected
On;On;BestEffort;Off;Off;On;H323;Sip;H320;TCP;TCP;TCP;Host;Host;Relay;1221;761;1324;205;2094;4262;5869;291;3082;1171;5958;5276;FailedConnected
On;BestEffort;BestEffort;Off;Off;On;Sip;H320;Sip;TCP;TCP;TCP;Host;Host;Relay;1221;761;1324;205;2094;4262;5869;291;2417;1171;1484;5281;FailedFailed
On;BestEffort;BestEffort;On;On;On;Sip;Sip;Sip;TCP;TCP;Tls;Host;Host;Relay;1221;839;985;5810;591;2905;5925;587;2417;4117;3032;5284;FailedConnected
BestEffort;On;On;Off;On;On;Sip;Auto;H320;TCP;TCP;UDP;Host;Host;Relay;1218;596;1393;1254;479;647;5925;262;1940;1171;194;5977;ConnectedConnected
On;BestEffort;Off;Off;Off;On;Sip;Sip;H323;Tls;TCP;Tls;Relay;Host;Rflx;675;596;1325;4557;2280;323;5925;587;2263;3632;354;5977;FailedConnected
On;BestEffort;BestEffort;On;On;On;Auto;Sip;Auto;TCP;TCP;Auto;Host;Host;Relay;1221;596;1198;4557;1871;3304;5925;587;2417;1547;438;5276;FailedConnected
BestEffort;BestEffort;Off;On;On;On;Sip;Sip;Auto;TCP;TCP;TCP;Host;Host;Relay;1221;620;1376;745;920;647;5925;587;2417;1171;2332;5353;FailedConnected
On;BestEffort;BestEffort;On;On;On;Auto;Sip;Sip;TCP;TCP;Tls;Host;Host;Host;1172;707;934;2256;833;2515;5735;291;1176;3769;5695;4565;ConnectedFailed
BestEffort;BestEffort;On;Off;On;On;Sip;Sip;Sip;Tls;TCP;Tls;Host;Host;Rflx;675;596;1325;4557;2280;2626;5942;3479;2417;3469;3073;5284;FailedFailed
BestEffort;On;Off;Off;Off;On;H320;Auto;Sip;TCP;TCP;UDP;Relay;Host;Rflx;900;596;1269;3719;714;760;5925;545;1940;4411;5958;5908;FailedFailed
On;BestEffort;BestEffort;Off;Off;Off;Auto;Sip;Sip;TCP;Tls;Tls;Relay;Host;Host;1013;596;1325;3037;404;3304;5925;405;2417;5799;5981;5977;ConnectedFailed
BestEffort;On;Off;Off;Off;On;Auto;Sip;Auto;TCP;TCP;Auto;Host;Host;Relay;961;596;1303;3158;1811;2328;5942;405;1197;2668;3032;5276;FailedConnected
BestEffort;BestEffort;BestEffort;Off;Off;On;Sip;Sip;H320;TCP;TCP;TCP;Host;Host;Relay;1221;761;1393;3457;479;647;5925;262;1940;1171;194;5977;ConnectedConnected
On;BestEffort;On;Off;Off;On;Auto;Auto;Auto;TCP;TCP;Auto;Host;Host;Relay;1221;596;1444;3714;2094;3304;5942;2011;2417;3469;2110;5284;FailedFailed
On;BestEffort;Off;Off;On;On;Auto;Auto;H320;TCP;TCP;TCP;Host;Host;Relay;1221;839;985;3714;239;3304;5942;587;2417;3469;5852;5977;FailedFailed
On;BestEffort;On;Off;On;On;Auto;Auto;Auto;TCP;TCP;Tls;Host;Host;Relay;1221;839;985;3011;404;3304;5925;587;2417;1936;5958;5282;FailedConnected
BestEffort;On;On;Off;Off;On;Sip;Auto;Sip;TCP;TCP;Auto;Host;Host;Rflx;1221;620;1325;745;920;647;5925;587;2417;1171;5958;5276;ConnectedFailed
On;On;BestEffort;Off;Off;On;Sip;Sip;Auto;TCP;TCP;TCP;Host;Host;Rflx;1221;704;985;5810;404;3304;5925;587;2417;5799;5958;4565;ConnectedConnected
BestEffort;On;On;Off;Off;On;Auto;Sip;Auto;TCP;TCP;Auto;Host;Host;Relay;1221;620;1325;1530;2094;3304;5942;2831;532;4010;173;5282;ConnectedConnected
On;On;Off;Off;Off;On;Auto;Sip;H320;TCP;TCP;UDP;Host;Host;Relay;1218;761;1409;3714;2094;1719;5942;587;2417;3469;3032;5284;ConnectedConnected
On;On;BestEffort;On;Off;On;H323;Sip;H320;TCP;TCP;TCP;Host;Host;Relay;1221;761;1324;205;2094;4262;5869;291;3082;1171;5958;5276;FailedConnected
BestEffort;On;Off;Off;Off;On;Auto;Sip;Auto;TCP;TCP;Auto;Host;Host;Relay;961;596;1325;1349;1043;2626;5942;405;4174;5258;2815;5291;FailedConnected
On;BestEffort;BestEffort;Off;Off;On;Sip;Sip;Auto;TCP;TCP;Auto;Host;Host;Relay;1093;596;1325;137;1183;1993;5801;443;4091;2482;980;5529;ConnectedFailed
BestEffort;BestEffort;On;On;Off;On;Auto;Auto;H320;TCP;TCP;Auto;Host;Host;Relay;1221;620;1325;1530;2094;3304;5942;2831;532;4010;173;5282;ConnectedConnected
On;BestEffort;Off;Off;Off;On;Auto;Sip;Auto;TCP;TCP;TCP;Host;Host;Rflx;961;818;1216;4557;404;3304;5925;405;2487;2962;5958;5276;ConnectedFailed
BestEffort;BestEffort;On;Off;Off;On;Sip;Auto;Sip;TCP;TCP;Auto;Host;Host;Rflx;1362;673;934;5700;1931;214;5801;587;4428;1171;2835;5542;ConnectedConnected
BestEffort;On;Off;Off;Off;On;Sip;Sip;Auto;TCP;TCP;TCP;Host;Host;Relay;1221;761;1324;205;2094;4262;5869;291;2417;1171;1484;5282;FailedFailed
On;On;On;Off;On;On;Sip;Sip;H320;TCP;TCP;Auto;Host;Host;Host;961;839;985;1037;2094;3304;5942;262;3157;3469;5852;5282;ConnectedFailed
On;BestEffort;BestEffort;Off;On;On;Auto;Sip;H320;TCP;TCP;UDP;Host;Host;Relay;1221;660;1215;4959;2003;647;5925;2831;532;4709;5543;5977;ConnectedFailed
On;On;BestEffort;On;Off;On;Sip;Sip;Auto;TCP;TCP;TCP;Host;Host;Rflx;1154;596;1062;1947;1651;90;5869;587;2417;1171;5537;5542;ConnectedFailed
BestEffort;On;On;Off;Off;On;Auto;Sip;Auto;TCP;TCP;TCP;Host;Host;Rflx;1221;596;1062;1947;1651;90;5869;587;4417;1936;5958;5282;ConnectedConnected
BestEffort;BestEffort;Off;Off;On;On;Sip;Sip;Sip;Tls;TCP;Tls;Host;Host;Host;1172;635;935;3714;2094;682;5942;587;2417;1936;1341;5284;FailedConnected
BestEffort;BestEffort;Off;Off;Off;On;H320;Sip;Auto;Tls;TCP;TCP;Host;Host;Rflx;1488;596;1476;4557;2094;3304;5942;587;2417;3469;173;5908;FailedFailed
On;BestEffort;On;On;Off;On;Auto;Auto;H320;TCP;TCP;Tls;Host;Host;Rflx;961;596;1304;4557;714;3304;5942;2831;4758;5726;2332;5977;FailedConnected
BestEffort;BestEffort;Off;On;Off;On;Sip;Sip;Auto;TCP;TCP;TCP;Host;Host;Rflx;1118;596;1444;1254;786;647;5942;1005;2417;1936;1341;5284;FailedFailed
On;On;On;Off;Off;On;Sip;Sip;H320;TCP;TCP;Auto;Host;Host;Host;961;839;985;1037;2094;3304;5942;262;3157;3469;5852;5282;FailedFailed
On;On;On;On;Off;On;Auto;Auto;H320;TCP;TCP;Tls;Relay;Host;Rflx;608;596;1444;137;1289;4822;5869;587;2417;1171;438;5276;FailedConnected
BestEffort;BestEffort;Off;Off;On;On;H320;Sip;H323;TCP;TCP;Auto;Host;Host;Rflx;961;696;1216;4557;404;3304;5925;405;2417;2962;5958;5276;ConnectedFailed
On;BestEffort;Off;On;On;On;Auto;Sip;Auto;TCP;TCP;Auto;Host;Host;Rflx;961;596;1303;3158;1811;2328;5942;405;1197;3469;3082;5281;FailedConnected
On;BestEffort;BestEffort;On;Off;On;Sip;Sip;H320;TCP;TCP;UDP;Host;Host;Relay;1221;761;1324;205;2094;4262;5869;291;3082;1171;5958;5276;ConnectedConnected
BestEffort;BestEffort;On;On;Off;On;Auto;Auto;Sip;TCP;TCP;Auto;Host;Host;Rflx;1024;596;1418;1609;2094;3304;5942;587;2410;3469;2110;5284;ConnectedConnected
On;BestEffort;BestEffort;Off;On;On;Sip;Sip;H323;TCP;TCP;Tls;Host;Host;Host;961;596;1292;4557;1871;646;5942;2831;532;4709;5543;4193;FailedConnected
On;BestEffort;Off;On;On;On;Sip;Sip;Auto;Auto;TCP;Auto;Host;Host;Relay;1218;653;1324;3714;2094;3304;5942;1490;2417;5258;3082;5291;FailedFailed
BestEffort;On;BestEffort;Off;Off;On;Sip;Sip;Sip;TCP;TCP;Auto;Host;Host;Relay;1221;620;1374;4465;1246;647;5869;587;5421;3469;3082;5264;FailedConnected
On;On;On;On;Off;Off;Auto;Auto;H320;TCP;TCP;Auto;Rflx;Host;Rflx;961;596;1216;4557;404;3304;5925;405;1868;1936;5852;5282;ConnectedFailed
Off;BestEffort;On;Off;On;On;Sip;Sip;Sip;Tls;TCP;Tls;Host;Host;Relay;1218;761;1409;3714;2094;1719;5942;535;3008;3469;1621;5282;ConnectedFailed
BestEffort;BestEffort;Off;Off;Off;On;H320;Sip;Auto;TCP;TCP;TCP;Host;Host;Relay;668;596;1393;1254;3683;647;5925;262;1671;1171;194;5977;ConnectedConnected
BestEffort;BestEffort;BestEffort;On;Off;On;Auto;Sip;Sip;TCP;TCP;TCP;Host;Host;Rflx;1221;620;1325;4557;1246;4822;5869;587;225;4471;5555;5977;FailedConnected
BestEffort;BestEffort;Off;Off;Off;On;Auto;Sip;H320;TCP;TCP;Auto;Host;Host;Rflx;1221;620;1325;4998;920;647;5925;587;2417;1171;5958;5542;ConnectedFailed
BestEffort;On;On;Off;On;On;Auto;Sip;Auto;TCP;TCP;TCP;Host;Host;Rflx;1221;596;1444;137;1289;2626;5942;405;815;4351;5958;5291;FailedFailed
On;BestEffort;BestEffort;Off;On;On;H323;Sip;Sip;TCP;TCP;TCP;Host;Host;Relay;1221;660;1215;4959;2003;647;5925;2831;532;4709;5543;4193;ConnectedFailed
On;BestEffort;Off;Off;Off;On;Auto;Sip;H323;Tls;TCP;TCP;Host;Host;Rflx;1154;818;1305;2256;1285;647;5925;587;2417;5134;2332;5353;ConnectedFailed
BestEffort;BestEffort;BestEffort;On;Off;On;Auto;Sip;Auto;TCP;TCP;TCP;Host;Host;Rflx;1221;596;1444;137;1289;2626;5942;405;815;4351;5958;5291;FailedFailed
On;BestEffort;Off;Off;Off;On;Auto;Sip;H320;Tls;TCP;Auto;Host;Host;Host;1069;596;1444;745;920;647;5925;587;3082;1171;5958;5276;ConnectedFailed
On;On;BestEffort;On;On;On;H323;Sip;H320;TCP;TCP;TCP;Host;Host;Relay;1221;761;1324;205;2094;4262;5869;291;2417;1171;1484;5282;ConnectedFailed
On;BestEffort;On;On;Off;On;H323;Sip;H323;Tls;TCP;TCP;Host;Host;Relay;961;818;1053;4051;1651;3304;5942;535;781;3469;3082;5282;ConnectedFailed
On;On;BestEffort;On;On;On;Auto;Sip;Sip;TCP;TCP;Tls;Host;Host;Host;1172;707;934;2256;833;2515;5735;291;1176;3769;1215;4565;ConnectedFailed
BestEffort;BestEffort;On;Off;Off;On;Sip;H320;H320;TCP;TCP;TCP;Host;Host;Relay;1221;761;1324;205;2094;4262;5869;399;2417;1171;5958;5276;ConnectedConnected
BestEffort;BestEffort;On;Off;Off;On;Sip;Auto;Sip;TCP;TCP;UDP;Host;Host;Relay;1221;839;985;3714;2094;1210;5942;587;2417;3469;3032;5977;ConnectedFailed
BestEffort;BestEffort;BestEffort;Off;On;On;Auto;Sip;H320;TCP;TCP;TCP;Host;Host;Host;1051;839;985;2662;1246;647;5925;262;2550;1171;194;5977;ConnectedFailed
BestEffort;On;Off;Off;Off;On;H320;Sip;Sip;TCP;TCP;Auto;Host;Host;Rflx;1221;620;1325;745;920;647;5925;587;2417;1171;5958;5276;FailedConnected
BestEffort;BestEffort;Off;Off;Off;On;H320;Sip;Auto;TCP;TCP;TCP;Host;Host;Relay;1221;596;1376;745;920;647;5925;262;1940;1171;194;5977;ConnectedFailed
BestEffort;On;BestEffort;Off;Off;On;Auto;Sip;Sip;TCP;TCP;TCP;Host;Host;Rflx;961;696;1216;4557;404;3304;5925;405;2417;2962;5958;5276;FailedFailed
BestEffort;On;On;On;On;On;Sip;Sip;H323;Tls;TCP;UDP;Host;Host;Relay;1221;624;908;1723;920;2123;5925;587;2417;1171;5958;5276;ConnectedFailed
BestEffort;BestEffort;On;Off;Off;On;Auto;Sip;Sip;TCP;TCP;TCP;Host;Host;Rflx;1154;596;1465;1254;479;2045;5925;405;815;2959;5958;5276;FailedConnected
On;BestEffort;BestEffort;Off;On;On;Sip;Sip;Auto;TCP;TCP;TCP;Host;Host;Rflx;961;596;1304;4557;714;3304;5942;2831;4758;5726;2332;5977;ConnectedFailed
On;On;BestEffort;Off;On;On;Sip;Sip;Sip;TCP;TCP;Tls;Host;Host;Relay;1221;624;908;1723;404;3304;5942;2831;4324;3705;173;3396;ConnectedConnected
On;On;Off;Off;Off;On;Auto;H323;H323;Tls;TCP;Auto;Host;Host;Rflx;1154;596;1444;1254;1183;2548;5942;405;3177;5258;354;5977;ConnectedConnected
On;On;Off;On;Off;On;Auto;Sip;Sip;TCP;TCP;UDP;Host;Host;Relay;1221;624;908;1723;920;647;5925;587;2417;1171;5958;5276;FailedFailed
On;BestEffort;Off;Off;Off;On;Sip;Auto;Sip;TCP;TCP;TCP;Host;Host;Relay;668;660;1332;2842;4785;115;5942;2831;2996;4704;354;5977;FailedFailed
BestEffort;BestEffort;BestEffort;Off;On;On;Sip;Sip;Sip;Tls;Tls;TCP;Host;Host;Relay;961;596;1325;137;1183;2626;5801;443;4091;2959;2789;5977;FailedConnected
BestEffort;BestEffort;Off;Off;Off;On;Sip;Auto;H320;TCP;TCP;TCP;Host;Host;Rflx;1202;596;1444;137;5133;4822;5869;587;2417;3632;354;5977;ConnectedFailed
BestEffort;BestEffort;On;Off;Off;On;Sip;Auto;Sip;TCP;TCP;UDP;Host;Host;Relay;1221;839;985;3011;404;3304;5925;587;2417;1936;5958;5282;FailedConnected
On;BestEffort;BestEffort;Off;Off;On;H323;Sip;Auto;TCP;TCP;TCP;Host;Host;Host;1170;839;985;2662;1871;1646;5903;535;1470;3469;3082;3395;ConnectedFailed
On;On;BestEffort;On;Off;On;Auto;Sip;Sip;TCP;TCP;TCP;Host;Host;Rflx;753;771;1216;4557;920;647;5925;587;2417;1171;5958;5276;FailedConnected
On;On;BestEffort;On;On;On;Auto;Sip;H320;Tls;TCP;TCP;Host;Host;Relay;1221;624;908;1723;920;2123;5925;399;2417;1171;5958;5276;ConnectedFailed
On;BestEffort;Off;Off;Off;On;Sip;Sip;H323;TCP;TCP;UDP;Host;Host;Relay;1221;624;985;5810;404;2905;5925;587;2417;4117;3032;5276;ConnectedFailed
BestEffort;BestEffort;Off;Off;Off;On;Auto;Sip;Sip;TCP;TCP;Tls;Host;Host;Host;961;596;1476;4557;1811;4562;5942;405;815;1171;2724;5276;ConnectedFailed
On;BestEffort;BestEffort;On;On;On;H323;Sip;H320;TCP;TCP;Auto;Host;Host;Relay;1221;761;1324;3714;2094;647;5925;587;2417;1171;438;5276;ConnectedFailed
BestEffort;On;Off;Off;On;On;Auto;Sip;Auto;TCP;TCP;Auto;Host;Host;Relay;1221;596;1198;4584;236;3750;5925;262;889;1936;3082;5282;FailedFailed
BestEffort;BestEffort;On;On;Off;On;Auto;Sip;Auto;TCP;TCP;Auto;Host;Host;Rflx;961;818;985;745;404;3304;5942;2831;889;1936;2116;5282;ConnectedConnected
On;On;On;Off;Off;On;H323;Sip;Auto;TCP;TCP;TCP;Host;Host;Host;1170;839;1324;4584;236;3750;5925;262;889;1936;3082;5282;ConnectedConnected
On;BestEffort;On;Off;On;On;H323;Sip;H323;TCP;TCP;Auto;Host;Host;Host;1221;620;1038;745;920;3464;5903;535;1470;1171;5852;5282;ConnectedFailed
BestEffort;BestEffort;On;On;Off;On;Auto;Sip;Auto;TCP;TCP;Auto;Host;Host;Rflx;961;818;985;3714;920;647;5925;2234;2417;1171;5958;5542;FailedFailed
BestEffort;BestEffort;Off;Off;On;On;H320;Sip;Auto;TCP;TCP;Auto;Host;Host;Rflx;1223;620;1325;745;920;4822;5942;587;2417;3469;3032;5284;ConnectedConnected
BestEffort;On;Off;Off;Off;On;H320;Auto;Sip;TCP;TCP;UDP;Relay;Host;Rflx;900;596;1269;3719;714;760;5925;545;1940;4411;5958;5908;FailedFailed
On;BestEffort;On;On;Off;On;Sip;Sip;Sip;Tls;TCP;Auto;Host;Host;Relay;1221;596;1376;745;920;647;5925;947;1940;1171;194;5977;ConnectedFailed
BestEffort;On;Off;Off;Off;On;Auto;Sip;Sip;TCP;TCP;Auto;Host;Host;Rflx;698;596;1216;4557;404;3304;5925;405;1868;1936;5852;5282;FailedFailed
On;On;BestEffort;On;Off;On;Auto;Sip;Sip;TCP;TCP;TCP;Host;Host;Rflx;733;771;934;5700;1403;2050;5801;587;2417;3469;5852;5282;FailedFailed
On;BestEffort;BestEffort;Off;On;On;H323;Sip;H323;TCP;TCP;Auto;Host;Host;Relay;1221;596;1062;1947;1651;90;5869;587;2417;1171;5852;5282;ConnectedFailed
BestEffort;BestEffort;Off;On;On;On;Sip;Sip;H320;TCP;TCP;Auto;Host;Host;Rflx;1221;620;1325;4557;1246;647;5925;183;5421;1171;5958;5542;ConnectedFailed
BestEffort;BestEffort;Off;On;On;On;Auto;H323;H320;TCP;TCP;Auto;Host;Host;Rflx;923;596;1495;745;920;3464;5903;535;1470;1171;194;5542;ConnectedFailed
BestEffort;BestEffort;Off;Off;On;On;H320;Sip;Auto;TCP;TCP;Auto;Host;Host;Rflx;689;596;1325;5326;1043;3243;5925;405;2417;2962;5958;5291;ConnectedFailed
BestEffort;On;Off;Off;Off;On;Auto;Sip;Auto;TCP;TCP;Auto;Host;Host;Rflx;1221;839;985;1319;4251;2791;5942;739;642;3538;1341;5282;ConnectedConnected
On;On;On;On;Off;On;Sip;Sip;Sip;Tls;TCP;Auto;Host;Host;Relay;1221;839;985;3030;1871;3464;5869;587;5421;3469;3082;5281;FailedConnected
On;On;On;On;Off;On;Sip;H320;Auto;TCP;Tls;Auto;Rflx;Host;Rflx;900;596;870;3719;714;760;5925;262;1940;4763;5958;5276;FailedConnected
Off;BestEffort;BestEffort;On;On;On;Sip;Sip;Sip;TCP;TCP;Auto;Host;Host;Host;1221;620;985;1319;4251;2791;5942;739;642;2087;3032;5282;FailedConnected
BestEffort;BestEffort;Off;Off;Off;On;Sip;Auto;H320;TCP;TCP;TCP;Host;Host;Rflx;1202;596;1444;137;5133;4822;5869;587;2417;3632;354;5977;FailedConnected
BestEffort;BestEffort;Off;Off;Off;On;H320;Sip;Auto;TCP;TCP;TCP;Rflx;Host;Rflx;961;596;1476;4557;1811;2626;5925;262;1940;4411;5958;5276;ConnectedFailed
On;BestEffort;BestEffort;Off;On;On;H323;Sip;Sip;TCP;TCP;TCP;Host;Host;Relay;1221;660;1215;4959;2003;647;5925;2831;532;4709;2946;5281;ConnectedConnected
BestEffort;BestEffort;Off;Off;Off;On;H320;Sip;Auto;TCP;TCP;TCP;Host;Host;Rflx;961;596;1476;4557;2094;3304;5942;587;2417;5430;3073;5284;FailedConnected
BestEffort;BestEffort;Off;Off;On;On;H320;Sip;H323;TCP;TCP;UDP;Rflx;Host;Rflx;961;596;1476;4557;1811;2626;5942;405;815;5448;5852;5281;FailedConnected
BestEffort;On;Off;Off;On;On;Sip;Sip;Auto;TCP;TCP;Auto;Host;Host;Relay;961;596;1325;2996;1043;2626;5942;405;4174;5258;2815;5291;ConnectedConnected
On;BestEffort;On;On;Off;On;H323;H320;Auto;TCP;TCP;Auto;Host;Host;Host;961;818;1053;1414;1651;3304;5942;535;3008;3469;3082;5542;FailedConnected
On;BestEffort;BestEffort;On;On;On;H323;Sip;Auto;TCP;TCP;Auto;Host;Host;Relay;1221;620;1325;745;920;647;5925;587;2417;3705;173;3396;FailedConnected
BestEffort;BestEffort;Off;Off;Off;On;H320;Sip;Auto;TCP;TCP;TCP;Host;Host;Rflx;961;596;1476;4557;1811;3304;5942;587;532;2349;173;5908;FailedConnected
On;On;On;Off;On;On;H323;H320;H323;Tls;TCP;TCP;Host;Host;Relay;668;596;1418;2928;236;100;5925;262;2417;3469;3073;5284;ConnectedConnected
On;BestEffort;On;Off;On;On;Sip;Sip;H320;TCP;TCP;TCP;Host;Host;Relay;1221;620;1160;1442;1043;851;5925;262;3350;4486;5852;5446;ConnectedConnected
BestEffort;BestEffort;BestEffort;Off;Off;On;Auto;Sip;Auto;TCP;TCP;Auto;Host;Relay;Relay;961;596;1495;4557;1811;2626;5942;405;815;3469;3082;5281;ConnectedFailed
On;BestEffort;On;On;Off;On;Auto;Sip;H320;Tls;TCP;TCP;Host;Host;Relay;919;818;1324;3714;2094;3304;5942;262;3157;3469;3082;5281;ConnectedConnected
BestEffort;BestEffort;Off;On;Off;On;Sip;Auto;H320;TCP;TCP;TCP;Host;Host;Rflx;608;596;1444;137;1289;4822;5869;587;2417;3632;5532;5542;ConnectedConnected
On;On;On;Off;Off;On;Sip;Sip;H320;TCP;TCP;UDP;Host;Host;Rflx;961;736;899;1319;4251;2791;5942;739;642;1171;194;5977;ConnectedFailed
On;On;Off;On;On;On;Auto;Sip;Auto;TCP;TCP;Auto;Host;Host;Rflx;1221;707;934;2256;833;3304;5925;405;1868;1936;194;5977;ConnectedFailed
On;BestEffort;BestEffort;On;On;On;H323;Sip;Auto;TCP;TCP;Auto;Host;Host;Relay;1221;620;1325;745;920;647;5925;587;2417;1171;5958;5276;FailedConnected
BestEffort;BestEffort;BestEffort;Off;Off;On;Sip;Sip;H320;TCP;TCP;Tls;Host;Host;Rflx;961;596;1304;4557;714;3304;5942;2831;4758;5726;2332;5977;ConnectedFailed
BestEffort;On;Off;Off;Off;On;Sip;Sip;Sip;Tls;TCP;Auto;Host;Host;Relay;1221;620;1376;745;920;647;5925;587;2417;1171;2332;5353;FailedConnected
On;BestEffort;On;Off;On;On;Auto;Sip;H323;Tls;TCP;Auto;Host;Host;Rflx;1114;761;1324;3714;2094;4262;5869;291;2417;1171;1484;5282;ConnectedFailed
On;On;BestEffort;Off;Off;On;H323;Sip;H320;TCP;TCP;Auto;Host;Host;Relay;1218;596;1393;3457;479;647;5925;262;1940;1171;194;5977;ConnectedFailed
BestEffort;On;Off;Off;Off;On;Auto;Sip;H320;TCP;TCP;Tls;Host;Host;Relay;1154;596;1444;1254;786;647;5925;262;1940;1171;5958;5276;ConnectedFailed
On;BestEffort;BestEffort;On;Off;On;Auto;Sip;Auto;TCP;TCP;TCP;Host;Host;Rflx;1221;596;1444;137;1289;2626;5942;4258;815;4351;5958;5291;FailedConnected
BestEffort;On;Off;Off;Off;On;Auto;Sip;H320;TCP;TCP;Auto;Host;Host;Rflx;1221;620;1325;745;920;647;5925;587;2417;1171;5958;5276;FailedFailed
On;On;BestEffort;On;On;On;Auto;Sip;Sip;TCP;TCP;Auto;Host;Host;Relay;1221;620;1374;4465;1246;647;5869;587;5421;3469;3082;5264;FailedFailed
On;BestEffort;BestEffort;Off;Off;On;Auto;Sip;Sip;TCP;TCP;UDP;Host;Host;Relay;961;596;941;4557;404;3304;5942;405;3177;5258;3082;4578;FailedFailed
BestEffort;BestEffort;Off;On;Off;On;Auto;Sip;Auto;TCP;TCP;TCP;Host;Host;Host;1172;707;934;2256;833;760;5925;262;1940;3391;5958;5977;FailedConnected
On;BestEffort;On;Off;Off;On;Sip;Auto;Sip;TCP;TCP;Auto;Host;Host;Rflx;1362;673;934;5700;1931;214;5801;587;4428;1171;2835;5542;ConnectedFailed
Off;BestEffort;BestEffort;On;On;On;Sip;Sip;Sip;TCP;TCP;Auto;Host;Host;Relay;1221;620;1325;1530;1246;4822;5869;587;4091;2959;2789;5977;ConnectedFailed
On;BestEffort;Off;On;On;On;Sip;Sip;Auto;TCP;TCP;TCP;Host;Host;Rflx;1221;596;1444;137;1289;2626;5942;405;815;4351;5958;5291;ConnectedConnected
BestEffort;On;On;On;Off;On;Sip;Sip;H320;TCP;TCP;Auto;Host;Host;Relay;1093;596;1325;137;1183;1993;5801;443;4091;2482;980;5529;FailedFailed
BestEffort;BestEffort;BestEffort;On;On;On;Auto;Sip;H320;Tls;TCP;TCP;Host;Host;Relay;1051;839;1068;4780;579;1210;5942;587;2417;3469;3032;5977;FailedConnected
Off;BestEffort;On;Off;On;On;Sip;Sip;Sip;Tls;TCP;Tls;Host;Host;Relay;668;660;1215;5161;3464;647;5925;587;781;3469;3082;5291;FailedConnected
BestEffort;On;On;On;Off;On;Auto;Sip;Sip;TCP;TCP;Auto;Host;Host;Rflx;923;596;1476;3631;1811;2626;5942;405;5125;5448;5852;5977;ConnectedFailed
On;BestEffort;BestEffort;On;Off;On;Sip;Sip;Auto;TCP;TCP;Auto;Host;Host;Relay;1221;818;1324;3714;2094;4507;5942;262;3157;3469;417;5720;FailedConnected
On;On;BestEffort;Off;On;On;H323;Sip;Sip;TCP;TCP;Auto;Host;Host;Relay;1221;707;934;2256;833;2515;5735;291;1176;3769;5695;5357;FailedFailed
On;BestEffort;Off;On;Off;On;Sip;Sip;Sip;Tls;Tls;TCP;Host;Host;Relay;1221;839;985;3083;404;3511;5925;587;2417;5154;5958;5282;ConnectedFailed
On;BestEffort;Off;Off;Off;On;Auto;Sip;Sip;TCP;TCP;TCP;Host;Host;Rflx;961;596;1476;4557;1811;2626;5942;405;2417;1273;3082;5291;ConnectedConnected
On;BestEffort;Off;On;On;On;Sip;Sip;H320;TCP;TCP;Tls;Host;Host;Relay;1218;761;1409;3425;2094;1719;5925;2831;4812;1936;2332;5281;FailedFailed
BestEffort;On;On;Off;Off;On;Sip;Sip;H320;TCP;TCP;Tls;Host;Host;Rflx;961;596;1304;4557;714;3304;5942;2831;4758;5726;2332;5977;ConnectedFailed
On;BestEffort;Off;Off;On;On;Auto;Sip;Sip;TCP;TCP;Auto;Host;Host;Rflx;961;596;1476;3660;1811;2626;5942;405;815;5448;5852;5977;FailedConnected
On;BestEffort;BestEffort;Off;On;On;Sip;Sip;H320;Tls;TCP;Tls;Host;Host;Rflx;1118;596;1444;1254;479;4373;5925;262;1940;1171;194;5361;FailedFailed
BestEffort;On;Off;Off;On;On;Sip;Sip;Sip;TCP;TCP;TCP;Host;Host;Relay;1031;818;1053;1663;404;3304;5942;2831;532;1843;173;5282;FailedFailed
On;On;Off;Off;Off;On;Sip;H320;Sip;TCP;TCP;UDP;Host;Host;Relay;1221;839;1325;4557;404;3304;5925;405;2417;2962;5958;5281;ConnectedConnected
BestEffort;On;Off;Off;Off;On;Auto;Sip;H320;Tls;TCP;TCP;Host;Host;Relay;1221;620;1325;745;1720;90;5869;587;3600;3469;3082;5291;FailedFailed
On;BestEffort;On;Off;On;On;Auto;Sip;H320;Tls;TCP;Auto;Host;Host;Relay;1051;588;1068;4780;579;682;5942;587;2417;1936;1341;5284;FailedFailed
BestEffort;BestEffort;Off;Off;On;On;H320;Sip;Auto;TCP;TCP;UDP;Host;Host;Rflx;903;736;1376;1319;4251;2791;5942;739;642;3538;1341;5281;FailedFailed
BestEffort;BestEffort;Off;Off;Off;On;Sip;Auto;H320;TCP;TCP;Auto;Host;Host;Rflx;1221;620;1325;4557;1246;647;5925;587;5421;3469;3082;5281;ConnectedConnected
BestEffort;BestEffort;Off;Off;Off;On;H320;Sip;Auto;TCP;TCP;TCP;Host;Host;Relay;1221;596;1376;745;920;647;5925;262;1940;1171;194;5977;FailedFailed
BestEffort;On;Off;Off;Off;On;Sip;Sip;Sip;TCP;TCP;Auto;Host;Host;Relay;1218;761;1409;5470;2094;1719;5925;2831;4812;1936;2332;5281;ConnectedFailed
On;On;BestEffort;On;On;On;H323;Sip;Auto;TCP;TCP;Auto;Host;Host;Relay;961;596;1325;4221;404;3304;5942;262;5652;5468;2332;5977;ConnectedFailed
On;On;BestEffort;On;On;On;H323;Sip;Sip;TCP;TCP;Auto;Host;Host;Rflx;1118;596;1462;1254;479;2775;5925;262;1940;4010;173;5282;ConnectedFailed
On;BestEffort;BestEffort;Off;Off;On;Auto;Sip;Sip;TCP;TCP;TCP;Host;Host;Rflx;1154;596;1465;1254;479;2045;5925;405;815;2959;5958;5276;ConnectedFailed
BestEffort;On;Off;Off;Off;On;Sip;Sip;Sip;TCP;TCP;Auto;Host;Host;Relay;1221;620;1455;4549;2094;3304;5942;587;5421;3469;3082;5281;FailedFailed
BestEffort;BestEffort;BestEffort;Off;Off;On;Sip;Sip;H320;Tls;TCP;UDP;Host;Host;Rflx;900;596;1269;3719;714;760;5925;545;1940;4411;5958;5291;ConnectedFailed
On;BestEffort;BestEffort;Off;On;On;Sip;Sip;H323;Tls;TCP;UDP;Host;Host;Relay;1221;624;908;1723;920;2521;5925;587;2417;1171;5958;1936;FailedFailed
On;On;BestEffort;On;Off;On;H323;Sip;Auto;TCP;TCP;Auto;Host;Host;Relay;1221;620;1325;745;1191;4325;5942;405;3177;5421;3082;4809;ConnectedFailed
On;On;BestEffort;On;On;On;Auto;Sip;H320;Tls;TCP;TCP;Host;Host;Relay;1051;596;1465;1254;479;2045;5925;262;532;4709;5543;4193;ConnectedConnected
BestEffort;BestEffort;Off;Off;Off;On;Sip;Sip;Auto;TCP;TCP;TCP;Host;Host;Rflx;1221;596;1346;1947;1651;3243;5925;1847;2417;2962;5958;5291;FailedConnected
On;BestEffort;On;On;Off;On;H323;Sip;H323;Tls;TCP;TCP;Host;Host;Relay;961;818;1053;4051;1651;3304;5942;535;781;3469;3082;5282;FailedConnected
On;On;On;On;On;On;Sip;Sip;Auto;TCP;TCP;TCP;Host;Host;Rflx;1221;596;1062;1947;1651;90;5869;587;2417;3448;5958;5977;FailedFailed
BestEffort;BestEffort;BestEffort;On;On;On;Auto;Sip;H320;Tls;TCP;TCP;Host;Host;Relay;1051;839;1068;4780;579;682;5942;587;2417;1936;1341;5284;ConnectedFailed
On;BestEffort;On;Off;On;On;Sip;Auto;H320;TCP;TCP;Auto;Host;Host;Relay;1221;624;908;1723;920;2123;5925;587;2417;1171;5958;5276;FailedConnected
Off;BestEffort;On;Off;On;On;Sip;Sip;Sip;Auto;TCP;Auto;Host;Host;Relay;1214;660;1215;5161;3464;647;5925;2831;4812;1936;2332;5353;FailedFailed
BestEffort;On;Off;Off;Off;On;H320;Auto;Sip;TCP;TCP;UDP;Host;Host;Rflx;900;596;1324;3714;2094;3304;5942;262;3157;3469;5533;5284;ConnectedConnected
BestEffort;On;Off;Off;Off;On;Auto;Sip;H320;Tls;TCP;Tls;Host;Host;Rflx;1118;596;1444;1254;786;647;5925;262;4423;5928;194;5977;ConnectedFailed
BestEffort;BestEffort;Off;Off;On;On;Auto;Sip;Auto;TCP;TCP;TCP;Host;Host;Relay;1221;761;1324;205;2094;4262;5869;291;2417;1171;1484;5282;ConnectedConnected
On;BestEffort;On;Off;On;On;H323;Sip;H323;TCP;TCP;Auto;Host;Host;Host;1221;620;1038;378;1651;3304;5942;535;781;3469;3082;5542;ConnectedConnected
BestEffort;BestEffort;Off;Off;On;On;Sip;Sip;Auto;TCP;Tls;UDP;Host;Host;Rflx;1221;839;1325;4557;404;3304;5925;405;2417;2962;5958;5281;FailedConnected
BestEffort;On;On;On;On;On;Sip;Sip;H323;Tls;TCP;UDP;Host;Host;Rflx;1221;839;1325;2423;404;3304;5925;405;2417;4597;5958;5281;ConnectedFailed
BestEffort;On;Off;On;On;On;Sip;Sip;Sip;TCP;TCP;Tls;Host;Host;Host;1172;707;934;2256;833;760;5925;262;1940;4411;5958;5977;ConnectedFailed
On;BestEffort;Off;Off;On;On;Auto;Auto;H320;TCP;TCP;TCP;Host;Host;Relay;1221;839;985;3714;2094;3304;5942;587;2417;3469;438;5276;FailedConnected
BestEffort;BestEffort;Off;On;Off;On;Sip;Sip;H323;TCP;TCP;Auto;Host;Host;Rflx;1221;839;1444;3714;2094;3304;5942;587;2417;3469;2110;5284;ConnectedFailed
BestEffort;On;Off;Off;Off;On;Auto;Sip;Sip;TCP;TCP;Auto;Host;Host;Rflx;961;596;1476;4557;1811;2626;5942;405;815;5448;5852;5977;FailedFailed
BestEffort;On;Off;Off;Off;On;H320;Sip;H323;TCP;TCP;Auto;Relay;Host;Rflx;961;596;1476;1089;404;2644;5925;402;3157;3469;3082;5281;ConnectedFailed
BestEffort;BestEffort;Off;Off;Off;On;Auto;Sip;Auto;TCP;TCP;Auto;Host;Host;Rflx;1221;839;985;1319;4251;2791;5942;739;642;3538;1341;5282;ConnectedConnected
On;BestEffort;BestEffort;Off;Off;On;Auto;Sip;H323;TCP;TCP;Auto;Host;Host;Rflx;1218;761;1070;4557;1742;3304;5869;587;2173;3469;5852;5282;ConnectedFailed
On;On;On;Off;On;On;H323;Sip;H323;Tls;TCP;TCP;Host;Host;Relay;668;596;1418;4076;236;100;5925;262;5652;5468;2332;5977;FailedFailed
On;BestEffort;BestEffort;Off;Off;On;Auto;Sip;Sip;TCP;TCP;UDP;Host;Host;Relay;1221;624;908;1723;920;2123;5925;587;2417;1171;5958;5276;ConnectedConnected
Off;BestEffort;On;Off;On;On;Sip;Sip;Sip;Auto;TCP;Tls;Host;Host;Relay;1214;660;1215;1089;404;3477;5925;2831;2417;3653;1707;5977;FailedFailed
On;On;On;Off;Off;Off;Auto;Sip;Auto;TCP;TCP;TCP;Host;Host;Rflx;961;818;1216;4557;404;3304;5925;405;2417;3632;354;5977;ConnectedConnected
BestEffort;On;Off;Off;On;On;Sip;Sip;H323;Tls;TCP;UDP;Host;Host;Relay;961;596;941;4557;833;2515;5735;291;1176;3769;5695;5357;ConnectedFailed
On;BestEffort;Off;Off;On;On;Sip;Sip;H320;TCP;TCP;UDP;Host;Host;Rflx;961;596;1216;4557;404;3304;5925;405;2417;2962;5852;5977;ConnectedConnected
BestEffort;BestEffort;Off;Off;On;On;H320;Sip;Auto;TCP;TCP;Auto;Host;Host;Rflx;1221;624;908;1723;2094;3304;5942;443;4091;2482;980;5529;ConnectedConnected
BestEffort;BestEffort;Off;On;On;On;Sip;Sip;H320;TCP;TCP;Auto;Host;Host;Rflx;1221;620;1325;4557;1246;647;5925;2365;5421;1171;5958;5542;ConnectedFailed
On;On;BestEffort;On;On;On;Auto;Sip;Sip;TCP;TCP;Tls;Host;Host;Host;961;596;1476;4557;1811;2626;5942;405;2700;5448;5852;5977;ConnectedFailed
On;BestEffort;On;On;Off;On;Auto;Auto;H320;TCP;TCP;TCP;Host;Host;Relay;1221;761;1401;1089;404;2644;5925;262;3157;3469;3082;5281;ConnectedFailed
On;BestEffort;On;On;Off;On;Sip;Sip;Sip;Tls;TCP;UDP;Host;Host;Relay;1221;624;908;1723;920;2123;5925;5760;4812;1936;194;5977;ConnectedConnected
BestEffort;BestEffort;On;Off;On;On;Sip;Sip;H323;TCP;TCP;Auto;Host;Host;Relay;1221;624;908;1723;404;3304;5942;2831;3719;5729;5958;5276;ConnectedFailed
BestEffort;On;BestEffort;Off;Off;On;Auto;Sip;Auto;TCP;TCP;Auto;Host;Host;Relay;961;596;1325;2996;1043;2626;5942;405;4174;5258;2815;5291;FailedConnected
BestEffort;On;BestEffort;On;Off;On;Sip;Sip;Sip;Tls;TCP;Auto;Host;Host;Relay;1221;620;1376;745;920;647;5925;587;2417;1171;2332;5353;FailedFailed
BestEffort;BestEffort;Off;Off;Off;On;Auto;Sip;Sip;TCP;TCP;Tls;Host;Host;Host;1221;624;908;1723;920;647;5925;587;726;1171;5958;5276;ConnectedFailed
On;On;On;Off;Off;On;Auto;Sip;Auto;TCP;TCP;TCP;Host;Host;Rflx;1221;620;1325;4557;1246;3464;5869;587;5421;3469;3082;5281;FailedConnected
On;BestEffort;Off;Off;On;On;Auto;Auto;H320;TCP;TCP;TCP;Host;Host;Relay;1221;839;985;3714;2094;3304;5942;587;2417;3469;438;5276;ConnectedFailed
BestEffort;BestEffort;On;Off;On;On;Sip;Sip;Auto;TCP;TCP;Tls;Host;Host;Host;1172;707;934;2256;833;760;5925;262;1940;3391;5958;5977;FailedConnected
BestEffort;On;Off;Off;Off;On;H320;Auto;Sip;TCP;TCP;UDP;Relay;Host;Rflx;961;596;1476;4557;1811;3362;5942;405;815;5448;194;5977;FailedFailed
BestEffort;BestEffort;On;On;Off;Off;Auto;Auto;H323;Tls;Tls;TCP;Host;Host;Host;1051;596;1444;745;404;3304;5942;2831;889;1936;2332;5353;FailedConnected
BestEffort;BestEffort;Off;Off;On;On;Sip;Sip;Sip;Tls;TCP;Tls;Host;Host;Host;1172;635;935;3011;404;3304;5925;587;2417;1936;5958;5282;ConnectedFailed
On;On;On;Off;On;On;H323;Sip;H323;Tls;TCP;TCP;Host;Host;Relay;668;596;1418;4076;236;4262;5869;291;2417;1171;1484;5282;ConnectedFailed
BestEffort;BestEffort;Off;Off;Off;On;H320;Sip;Auto;TCP;TCP;TCP;Host;Host;Host;961;596;1476;4557;1811;2626;5942;405;815;5448;5852;5977;ConnectedFailed
BestEffort;On;On;On;Off;On;Sip;H320;Sip;TCP;TCP;TCP;Host;Host;Relay;1221;761;1401;1089;1600;2644;5925;402;3157;3469;3082;5281;FailedConnected
On;BestEffort;BestEffort;On;Off;On;Sip;Sip;Sip;TCP;TCP;TCP;Host;Host;Rflx;1154;596;1444;1254;1183;2626;5942;405;3177;5258;354;5977;ConnectedFailed
On;BestEffort;Off;Off;Off;On;Auto;Auto;H320;TCP;TCP;TCP;Host;Host;Relay;1221;839;985;3714;239;3304;5942;587;2417;3469;5852;5977;FailedFailed
On;BestEffort;On;Off;Off;On;Sip;Auto;H320;TCP;TCP;UDP;Host;Host;Host;1069;596;1444;745;920;647;5925;587;3082;1171;5958;5276;FailedFailed
On;BestEffort;Off;On;On;On;Sip;Sip;Sip;TCP;TCP;Auto;Host;Host;Relay;1221;620;1062;3714;2094;3304;5942;587;5421;3469;3073;5284;ConnectedFailed
BestEffort;On;On;Off;On;On;Sip;Auto;Auto;TCP;TCP;Tls;Host;Host;Host;1172;707;934;2256;833;760;5925;262;1940;3391;5958;5977;ConnectedFailed
On;On;Off;Off;On;On;Auto;Sip;Auto;TCP;TCP;TCP;Relay;Host;Host;1051;596;1444;745;404;3304;5942;2831;889;1936;5852;5282;ConnectedFailed
BestEffort;On;Off;On;On;On;Auto;Sip;H323;UDP;TCP;Auto;Host;Host;Relay;961;596;1303;3158;1811;2328;5942;405;1197;2668;3032;5284;FailedFailed
On;BestEffort;On;On;On;On;Sip;H320;Sip;Tls;Tls;UDP;Host;Host;Rflx;1221;839;1325;4557;404;3304;5925;405;2417;2962;5958;5281;ConnectedConnected
BestEffort;On;Off;Off;Off;On;H320;Sip;H323;TCP;TCP;Auto;Host;Host;Rflx;1218;761;1070;4557;1742;3304;5869;587;3157;3469;5852;5282;FailedConnected
BestEffort;BestEffort;Off;Off;Off;On;Sip;Sip;H320;Tls;TCP;Tls;Host;Host;Rflx;1130;596;1444;1254;479;647;5925;1698;1940;1171;5852;5282;FailedFailed
BestEffort;On;Off;Off;Off;On;Auto;Auto;Sip;TCP;Tls;Auto;Rflx;Host;Rflx;900;675;1269;3719;714;760;5925;262;1940;4411;5958;5542;ConnectedConnected
On;BestEffort;Off;Off;Off;On;Auto;Sip;Sip;TCP;TCP;Auto;Host;Host;Rflx;961;596;1476;4557;1811;2626;5942;405;815;5448;5852;5977;FailedFailed
BestEffort;BestEffort;On;On;Off;On;Auto;Sip;Auto;TCP;TCP;Auto;Host;Host;Rflx;1202;596;1444;137;5133;4822;5869;587;2417;3632;354;5977;ConnectedConnected
BestEffort;On;On;On;Off;On;Auto;Sip;Sip;TCP;TCP;Auto;Host;Host;Rflx;923;596;1476;3631;1811;2626;5942;405;5125;5448;5852;5977;ConnectedConnected
Off;On;On;On;On;On;Sip;Sip;Sip;TCP;TCP;Tls;Host;Host;Relay;1221;839;985;5810;591;2905;5925;587;2417;4117;3032;5284;ConnectedConnected
BestEffort;BestEffort;Off;On;On;On;Sip;Sip;Auto;TCP;TCP;TCP;Host;Host;Rflx;1118;596;1444;1254;786;647;5942;1005;2417;1936;1341;5284;ConnectedFailed
BestEffort;BestEffort;Off;Off;On;On;H320;Sip;Auto;TCP;TCP;Auto;Host;Host;Rflx;1221;620;1325;1046;920;3304;5925;587;2417;5799;5958;5284;FailedConnected
On;BestEffort;Off;On;On;On;Sip;Sip;Sip;TCP;TCP;Tls;Host;Host;Relay;1221;839;985;5810;404;2905;5925;587;2417;4117;3032;5276;ConnectedFailed
On;On;BestEffort;Off;On;On;Sip;Sip;Sip;TCP;TCP;UDP;Host;Host;Host;1069;596;935;3011;404;1350;5925;587;2417;1936;5958;5282;ConnectedFailed
BestEffort;BestEffort;Off;Off;Off;On;Auto;Sip;H320;TCP;TCP;Auto;Host;Host;Rflx;1221;620;1325;745;920;647;5925;587;2417;1171;5958;5276;FailedFailed
BestEffort;BestEffort;Off;On;On;On;Sip;Sip;Sip;Tls;TCP;Auto;Host;Host;Relay;1221;624;908;1723;920;2123;5925;399;2417;1171;5958;5276;FailedConnected
BestEffort;On;On;On;Off;On;Auto;Sip;H320;Tls;TCP;TCP;Host;Host;Relay;1221;761;1401;1089;404;2644;5925;402;3157;3469;194;5977;FailedConnected
BestEffort;BestEffort;Off;Off;On;On;Sip;Sip;Auto;TCP;TCP;TCP;Host;Host;Rflx;1221;596;1062;1947;1651;4822;5869;587;2417;3632;354;5977;ConnectedConnected
On;On;On;Off;Off;On;Auto;Sip;Auto;TCP;TCP;Auto;Host;Host;Relay;1221;761;1324;205;2094;4262;5869;291;2417;1171;1484;5281;ConnectedConnected
BestEffort;BestEffort;On;On;Off;On;Auto;Auto;H320;TCP;TCP;Auto;Host;Host;Relay;1221;620;1325;1530;404;3304;5925;405;2417;2962;5958;5276;FailedConnected
On;BestEffort;BestEffort;Off;On;On;Sip;H323;Sip;TCP;TCP;TCP;Rflx;Host;Relay;1458;761;1324;4584;236;3750;5925;262;889;1936;3082;5276;ConnectedFailed
BestEffort;BestEffort;Off;Off;Off;On;H320;Sip;Sip;TCP;TCP;TCP;Host;Host;Rflx;1221;620;1325;745;920;647;5925;587;2417;1171;5958;5276;ConnectedConnected
BestEffort;On;On;On;On;On;Sip;Sip;Sip;TCP;TCP;Tls;Host;Host;Relay;1221;624;985;5810;404;2905;5925;587;2417;4117;3032;5276;FailedFailed
On;BestEffort;Off;Off;Off;On;Auto;Sip;Sip;TCP;TCP;Auto;Host;Host;Rflx;961;596;1476;4557;1811;647;5925;587;2417;3469;3032;5282;ConnectedConnected
On;BestEffort;On;Off;Off;On;Sip;Sip;Sip;Tls;TCP;Auto;Host;Host;Relay;1221;596;1376;745;920;647;5925;262;1940;1171;194;5977;FailedFailed
On;On;BestEffort;On;Off;On;Auto;Sip;Sip;TCP;TCP;TCP;Host;Host;Rflx;753;771;1216;4557;1720;90;5869;587;3600;3469;3082;5291;FailedConnected
BestEffort;BestEffort;Off;On;Off;On;Auto;Auto;Auto;Auto;Auto;UDP;Host;Host;Rflx;689;596;1325;5174;1043;3243;5925;262;4812;4515;2332;5284;ConnectedFailed
BestEffort;BestEffort;Off;Off;Off;On;Sip;Sip;Auto;TCP;TCP;TCP;Host;Host;Rflx;961;596;1476;4557;1811;2626;5942;405;2417;3157;5958;5276;FailedFailed
On;BestEffort;On;Off;On;On;Sip;Sip;Auto;TCP;TCP;TCP;Host;Host;Rflx;1221;839;985;1319;4251;2791;5942;2831;889;1936;2332;5353;FailedConnected
On;On;On;On;Off;On;Sip;H320;Sip;Tls;TCP;Auto;Host;Host;Rflx;1221;839;1325;4557;404;3304;5925;405;2417;2962;5958;5281;FailedConnected
On;On;BestEffort;On;Off;On;H323;Sip;H323;TCP;TCP;Auto;Host;Host;Host;961;818;1053;1414;1651;3304;5942;535;3008;3469;3082;5542;FailedFailed
BestEffort;BestEffort;Off;Off;On;On;H320;Sip;Auto;TCP;TCP;TCP;Host;Host;Rflx;1154;596;1444;561;1289;2626;5942;405;815;4351;5958;5282;FailedConnected
BestEffort;On;On;On;Off;On;Auto;Sip;H320;Tls;TCP;TCP;Host;Host;Relay;1221;761;1401;1089;404;2644;5925;402;3157;3469;194;5977;ConnectedConnected
BestEffort;BestEffort;On;Off;Off;On;Sip;Sip;H320;Tls;TCP;UDP;Host;Host;Rflx;900;596;1269;3719;714;760;5925;545;1940;4411;5958;5291;ConnectedConnected
BestEffort;On;On;On;On;On;Sip;Sip;Sip;TCP;TCP;Tls;Host;Host;Relay;1221;624;985;5810;404;2905;5925;587;2417;4117;3032;5276;ConnectedFailed
BestEffort;BestEffort;Off;Off;On;On;H320;Sip;Auto;TCP;TCP;TCP;Host;Host;Rflx;1154;596;1444;561;1289;2626;5942;405;815;4351;5958;5291;FailedFailed
BestEffort;BestEffort;Off;Off;On;On;Auto;Sip;Auto;TCP;TCP;Auto;Host;Host;Relay;1221;596;1198;4557;1871;3304;5925;587;2417;1171;438;5276;ConnectedFailed
BestEffort;On;Off;Off;Off;On;Auto;H323;H323;Tls;TCP;Auto;Host;Host;Rflx;1154;596;1444;1254;1651;3304;5942;535;3008;3469;3082;5542;FailedFailed
On;BestEffort;BestEffort;On;On;On;H323;Sip;Sip;TCP;TCP;Tls;Host;Host;Host;1172;707;934;2256;833;2515;5735;291;265;3769;5695;4565;ConnectedConnected
BestEffort;On;Off;Off;Off;On;H320;Sip;H323;Tls;TCP;Auto;Host;Host;Rflx;1485;596;1444;137;1289;2626;5942;405;815;4351;5958;5291;ConnectedConnected
On;On;On;On;On;On;Auto;Sip;Sip;TCP;TCP;TCP;Host;Host;Relay;1221;761;1401;1089;404;3304;5942;587;2417;3469;3082;5977;ConnectedFailed
BestEffort;On;Off;Off;Off;On;H320;Sip;H323;TCP;TCP;Auto;Host;Host;Rflx;1218;596;1418;1609;2094;3304;5942;262;3157;3469;5852;5282;FailedFailed
BestEffort;BestEffort;Off;On;Off;On;H320;Sip;H320;TCP;TCP;TCP;Host;Host;Rflx;1221;596;1198;1319;4251;2791;5942;739;642;3538;1341;5282;FailedConnected
BestEffort;BestEffort;Off;On;Off;On;H320;Sip;H320;TCP;TCP;TCP;Host;Host;Rflx;1221;596;1198;4557;1871;3304;5942;2831;889;1936;5852;5282;FailedFailed
BestEffort;On;Off;Off;Off;On;Auto;Sip;Sip;TCP;TCP;TCP;Host;Host;Rflx;1024;596;1418;1609;2094;3304;5942;262;3157;3469;2946;5281;FailedConnected
On;On;Off;Off;On;On;Auto;Sip;Sip;Tls;TCP;UDP;Host;Host;Relay;1221;624;908;1723;920;2123;5925;587;2417;1171;402;5276;FailedFailed
On;BestEffort;BestEffort;On;On;On;H323;Sip;H320;TCP;TCP;Auto;Host;Host;Rflx;1221;620;1325;745;920;647;5925;587;2417;3469;3073;5284;ConnectedFailed
On;BestEffort;On;Off;On;On;Auto;Sip;Auto;TCP;TCP;Tls;Host;Host;Relay;1221;839;985;5810;404;1646;5903;535;4644;3469;2265;3395;FailedFailed
On;On;Off;Off;Off;On;Auto;H323;H323;Tls;TCP;Auto;Host;Host;Rflx;1154;596;1444;1254;1651;3304;5942;535;3008;3469;3082;5542;FailedFailed
BestEffort;BestEffort;Off;On;On;On;Sip;Sip;Sip;Tls;TCP;Auto;Host;Host;Relay;1221;624;908;1723;920;2123;5925;399;2417;3157;5958;5276;FailedConnected
