Encryption; Encryption_s2; Encryption_s3;ListenPort;ListenPort_s2;ListenPort_s3;DefaultCall_Protocol;DefaultCall_Protocol_s2;DefaultCall_Protocol_s3;DefaultTransport;DefaultTransport_s2;DefaultTransport_s3;Ice_DefaultCandidate;Ice_DefaultCandidate_s2;Ice_DefaultCandidate_S3;MTU;MTU_s2;MTU_s3;DefaultCall_Rate;DefaultCall_Rate_s2;DefaultCall_Rate_s3;MaxTransmitCallRate;MaxTransmitCallRate_s2;MaxTransmitCallRate_s3;MaxReceiveCallRate;MaxReceiveCallRate_s2;MaxReceiveCallRate_s3;Done
BestEffort;BestEffort;Off;On;Off;On;H320;Sip;Sip;TCP;TCP;Tls;Host;Host;Rflx;1308;578;1492;1254;1876;1473;5822;376;4567;5635;327;5989;NotDone
Off;BestEffort;On;On;On;On;Sip;Sip;Auto;TCP;TCP;Tls;Host;Host;Relay;619;822;1013;3421;2126;1694;5822;2371;5596;1703;2767;5274;NotDone
On;On;BestEffort;Off;On;On;Auto;Sip;Auto;TCP;TCP;UDP;Host;Host;Relay;1146;679;956;1254;984;2729;5822;376;4532;1618;5414;3366;NotDone
BestEffort;BestEffort;Off;Off;Off;On;H320;Sip;Sip;TCP;TCP;Tls;Host;Host;Relay;1029;593;1368;1254;3408;1694;5822;2423;3445;5635;327;5989;NotDone
On;On;BestEffort;On;On;On;H323;Sip;Auto;TCP;TCP;Auto;Host;Host;Relay;1124;846;956;324;1876;1694;5822;376;1547;1923;5414;3366;NotDone
BestEffort;On;Off;On;Off;On;H320;H320;H320;TCP;Tls;Tls;Host;Relay;Rflx;1308;578;1492;1254;1876;1694;5822;376;296;3934;5361;5989;NotDone
On;BestEffort;BestEffort;Off;On;On;H323;Auto;H323;TCP;TCP;Tls;Host;Host;Rflx;1208;589;1460;1254;1876;1694;5822;376;80;5603;5636;4054;NotDone
On;On;BestEffort;On;On;On;H323;Sip;H323;TCP;TCP;Auto;Host;Host;Relay;1124;846;956;324;2126;1694;5739;488;3445;3680;2432;5273;NotDone
BestEffort;BestEffort;Off;On;On;On;H320;Sip;Sip;TCP;TCP;UDP;Host;Host;Rflx;796;822;1368;1254;3708;1694;5822;644;5318;2793;3057;5274;NotDone
BestEffort;BestEffort;Off;Off;On;On;Sip;Sip;H320;TCP;TCP;Tls;Host;Host;Relay;1029;593;1368;3904;5864;1493;5822;376;80;5603;209;5989;NotDone
BestEffort;On;Off;Off;Off;On;Sip;Sip;H323;TCP;TCP;UDP;Host;Host;Rflx;1050;822;1368;1254;2126;1694;5822;488;3445;3680;2432;5273;NotDone
BestEffort;BestEffort;Off;On;Off;On;H320;Sip;Sip;TCP;TCP;UDP;Host;Host;Rflx;826;589;1435;1254;1876;3179;5822;5487;1809;3839;916;5989;NotDone
BestEffort;On;Off;Off;Off;On;H320;Sip;H320;TCP;TCP;Tls;Host;Host;Rflx;619;822;1368;1254;2126;1694;5822;218;5318;2793;3057;5274;NotDone
BestEffort;BestEffort;Off;On;On;On;H320;Sip;Sip;TCP;TCP;Tls;Host;Host;Rflx;1134;589;1457;4302;1876;1694;5822;376;4690;5603;209;5989;NotDone
On;BestEffort;BestEffort;On;Off;On;Auto;Sip;Sip;Auto;Tls;Tls;Host;Host;Rflx;1208;589;1460;1254;1876;1694;5822;376;80;5603;5636;4054;NotDone
BestEffort;On;Off;Off;On;On;Sip;Sip;Auto;TCP;TCP;Tls;Host;Host;Relay;1143;738;1460;1254;2126;1694;5822;644;5318;2793;3057;5274;NotDone
BestEffort;BestEffort;Off;On;Off;On;H320;Sip;Sip;TCP;TCP;Tls;Host;Host;Rflx;1308;578;1492;1254;1876;1473;5822;376;1232;5603;5636;5989;NotDone
On;On;BestEffort;Off;On;On;Auto;Sip;Sip;TCP;TCP;Auto;Host;Host;Relay;1050;593;867;1450;2025;2729;5822;376;5596;1618;5361;5274;NotDone
BestEffort;BestEffort;Off;On;Off;On;Sip;Sip;H323;TCP;TCP;Tls;Host;Host;Rflx;1050;593;1460;1254;1876;766;5822;402;4690;2831;209;5989;NotDone
BestEffort;On;Off;Off;Off;On;H320;Sip;H320;TCP;TCP;Auto;Host;Host;Rflx;1050;593;867;1254;2126;2729;5822;376;5596;1618;5361;5274;NotDone
BestEffort;BestEffort;Off;Off;Off;On;Auto;Sip;H320;UDP;TCP;TCP;Relay;Host;Rflx;1374;589;1460;1254;1876;513;5822;376;1838;5956;5361;5989;NotDone
BestEffort;On;On;Off;On;On;Sip;Sip;Auto;TCP;TCP;TCP;Host;Host;Relay;1146;679;956;1254;2126;2729;5822;376;5596;1618;5361;5274;NotDone
BestEffort;BestEffort;On;Off;Off;On;Sip;Sip;Sip;UDP;TCP;TCP;Host;Host;Relay;1050;593;867;1254;1876;5323;5822;402;2076;5603;327;5989;NotDone
On;On;BestEffort;On;On;On;Sip;Sip;H323;TCP;TCP;TCP;Host;Host;Relay;1146;657;956;1254;984;2729;5822;376;5596;1618;5361;5274;NotDone
BestEffort;On;Off;Off;Off;On;H320;Sip;Sip;TCP;TCP;UDP;Host;Host;Rflx;826;589;1460;1254;1876;1694;5739;488;3445;2367;2432;5273;NotDone
BestEffort;On;Off;Off;On;On;Sip;Sip;Auto;TCP;TCP;TCP;Host;Host;Relay;1146;679;956;1254;2126;2729;5822;376;5596;1618;5361;5274;NotDone
BestEffort;BestEffort;Off;Off;Off;On;Auto;Sip;H320;UDP;TCP;Auto;Relay;Host;Rflx;1374;589;1460;1254;1876;513;5822;376;5596;1618;5361;5274;NotDone
On;BestEffort;BestEffort;Off;On;On;Auto;Sip;Auto;TCP;TCP;UDP;Host;Host;Relay;1146;846;1435;1254;1876;1694;5822;376;4827;5603;3070;3451;NotDone
BestEffort;On;Off;Off;On;On;Sip;Sip;H323;TCP;TCP;TCP;Host;Host;Relay;1146;679;956;1254;984;2729;5822;376;5596;1618;5361;5274;NotDone
On;On;On;Off;On;On;H323;Auto;Auto;TCP;TCP;UDP;Host;Host;Relay;1050;593;867;3414;1876;1694;5739;488;3445;5635;327;5273;NotDone
BestEffort;BestEffort;On;On;On;On;Sip;Sip;Auto;TCP;TCP;Tls;Host;Host;Rflx;1050;593;1460;1254;1876;766;5822;1367;5596;5203;3057;5286;NotDone
BestEffort;On;Off;On;Off;On;H320;H323;Sip;TCP;TCP;TCP;Host;Rflx;Rflx;983;589;1460;1254;1876;513;5822;376;5596;3934;5709;5286;NotDone
On;On;BestEffort;On;Off;On;Auto;Sip;Sip;TCP;TCP;Auto;Host;Host;Relay;1050;593;867;1450;2025;1332;5822;376;5094;1338;3093;1742;NotDone
BestEffort;BestEffort;Off;On;Off;On;H320;Sip;Sip;TCP;TCP;TCP;Host;Relay;Rflx;826;589;1460;1254;1876;4641;5822;376;5330;2793;5901;5323;NotDone
On;On;BestEffort;On;Off;On;H323;Sip;Sip;TCP;TCP;Tls;Host;Host;Host;950;589;1460;1254;1876;1694;5822;376;80;5603;5636;4841;NotDone
On;On;Off;On;On;On;Auto;Sip;H323;TCP;TCP;TCP;Host;Host;Relay;1146;679;956;1254;2126;2729;5822;376;5596;1618;5361;5274;NotDone
On;On;BestEffort;On;Off;On;H323;Sip;Auto;TCP;TCP;Auto;Host;Host;Relay;1124;846;1025;1254;1876;4812;5822;376;4827;5603;3072;3315;NotDone
Off;BestEffort;On;On;On;On;Sip;Sip;Auto;TCP;TCP;Tls;Host;Host;Relay;1029;593;1368;1254;3408;1694;5822;2423;3445;5635;327;5989;NotDone
BestEffort;On;Off;Off;Off;On;H320;Sip;Sip;TCP;TCP;UDP;Host;Relay;Rflx;918;589;1460;1254;1876;1694;5822;376;5596;5692;5709;5323;NotDone
On;BestEffort;On;On;Off;On;H323;Sip;H323;TCP;TCP;UDP;Host;Host;Relay;1207;589;1368;1254;1876;1473;5822;376;4567;5635;327;5989;NotDone
On;BestEffort;BestEffort;Off;Off;On;H323;Sip;H320;TCP;TCP;Auto;Host;Host;Relay;1050;593;1460;1254;1876;5323;5822;402;4690;5603;209;1358;NotDone
BestEffort;On;Off;Off;Off;On;H320;Sip;Sip;TCP;TCP;UDP;Host;Host;Rflx;826;589;1460;1254;1876;1694;5739;488;3445;3538;5361;5274;NotDone
BestEffort;BestEffort;Off;On;Off;On;H320;Sip;Sip;TCP;TCP;TCP;Host;Host;Rflx;1143;593;1368;3904;5864;4332;5822;376;1232;5603;5636;5989;NotDone
On;BestEffort;Off;On;Off;On;Auto;Sip;H320;TCP;TCP;TCP;Host;Relay;Rflx;826;589;1460;4302;1876;4424;5822;376;4690;5603;209;5989;NotDone
On;BestEffort;BestEffort;On;On;On;Sip;Sip;H323;TCP;TCP;Tls;Host;Host;Rflx;1208;593;1368;3904;5864;4332;5822;376;1232;5603;5636;5989;NotDone
On;BestEffort;BestEffort;On;Off;On;Sip;Sip;H323;TCP;TCP;TCP;Host;Host;Relay;1230;822;1013;1254;1876;5323;5822;402;1595;5603;209;2116;NotDone
On;BestEffort;BestEffort;Off;On;On;H323;Sip;Auto;TCP;TCP;Auto;Host;Host;Relay;1050;593;867;1254;5518;4577;5822;376;2469;1618;3057;1709;NotDone
On;On;BestEffort;Off;On;On;H323;Sip;Auto;TCP;TCP;Auto;Host;Host;Relay;1050;593;867;1254;2126;890;5822;376;1450;1618;5361;5274;NotDone
BestEffort;BestEffort;Off;On;Off;On;H320;Sip;Sip;TCP;TCP;TCP;Host;Relay;Rflx;826;589;1460;5438;1876;1505;5822;376;80;3240;5901;5286;NotDone
On;BestEffort;On;On;On;On;Sip;Sip;H323;TCP;TCP;TCP;Host;Host;Relay;1146;679;956;1254;2126;2729;5822;376;5596;1618;5361;5274;NotDone
On;On;On;Off;On;On;H323;Sip;Auto;TCP;TCP;UDP;Host;Host;Relay;1050;593;867;1254;2126;2729;5822;376;5596;1618;5361;5274;NotDone
On;BestEffort;BestEffort;Off;Off;Off;Auto;Sip;Sip;TCP;TCP;UDP;Host;Host;Relay;965;593;1460;1254;1876;5323;5822;402;4690;5603;209;1358;NotDone
BestEffort;BestEffort;Off;On;On;On;H320;Sip;H320;Tls;TCP;TCP;Host;Host;Rflx;1308;578;1447;1254;4906;4036;5822;376;4567;5344;5636;5989;NotDone
BestEffort;BestEffort;Off;On;Off;On;H320;H320;H320;TCP;Tls;Tls;Host;Relay;Rflx;1308;578;1492;1254;1876;1694;5822;376;2929;3934;5361;5274;NotDone
On;BestEffort;On;Off;Off;On;Auto;Sip;Auto;TCP;TCP;TCP;Host;Relay;Rflx;826;589;1460;4302;1876;1694;5822;376;4690;5603;209;5989;NotDone
On;BestEffort;BestEffort;On;On;On;H323;Sip;H320;TCP;TCP;Tls;Host;Host;Host;950;589;1460;1254;1876;1694;5822;376;80;5603;5636;4841;NotDone
On;On;Off;On;On;On;Auto;Sip;H323;TCP;TCP;TCP;Host;Host;Relay;769;589;1368;4465;2126;1694;5822;376;5596;1618;3057;5274;NotDone
On;On;BestEffort;On;Off;On;Sip;Sip;H323;TCP;TCP;Tls;Host;Host;Relay;1050;593;867;1254;2482;1694;5822;376;109;1923;5709;5286;NotDone
On;BestEffort;On;On;On;On;Sip;Sip;H323;TCP;TCP;Tls;Host;Host;Rflx;926;805;1023;1254;3099;4831;5822;762;4923;3839;916;5989;NotDone
BestEffort;On;Off;Off;Off;On;Sip;Sip;H323;TCP;TCP;UDP;Host;Host;Rflx;1050;822;1368;1254;2126;1694;5822;644;5318;2793;3057;5989;NotDone
BestEffort;On;Off;Off;Off;On;H320;Sip;Sip;TCP;TCP;UDP;Host;Host;Rflx;1374;589;1460;1254;1876;513;5822;376;80;2943;5361;5323;NotDone
BestEffort;On;Off;On;On;On;Sip;Sip;Auto;TCP;TCP;Auto;Host;Host;Relay;1026;578;1447;3409;2921;1961;5822;376;2929;3934;5883;5274;NotDone
On;BestEffort;BestEffort;Off;Off;On;Sip;Auto;H323;TCP;TCP;Auto;Host;Host;Relay;1134;589;1457;4302;1876;1694;5822;376;4690;5603;209;5989;NotDone
On;BestEffort;BestEffort;Off;On;On;H323;Sip;Auto;TCP;TCP;Auto;Host;Host;Rflx;1173;657;1285;1254;1876;223;5822;376;109;1923;5709;520;NotDone
BestEffort;On;On;Off;On;On;Sip;Sip;Auto;TCP;TCP;TCP;Host;Host;Relay;1146;679;956;1254;984;2729;5822;376;5596;1618;5361;5274;NotDone
BestEffort;On;On;Off;Off;On;Sip;Sip;H323;TCP;TCP;TCP;Host;Host;Relay;619;822;1316;1254;1135;1694;5822;488;872;1125;327;5273;NotDone
On;BestEffort;BestEffort;Off;On;On;Sip;Sip;H323;TCP;TCP;TCP;Host;Host;Relay;1207;703;1344;1254;5437;1694;5822;376;109;1923;5361;3943;NotDone
Off;On;On;On;On;On;Sip;Sip;Sip;TCP;TCP;Auto;Host;Host;Relay;619;822;1013;3421;2126;1694;5822;2371;4058;1703;2767;5274;NotDone
Off;On;BestEffort;On;On;On;Sip;Sip;H323;TCP;TCP;Tls;Host;Host;Relay;1161;785;1287;1254;1017;1521;5822;1084;5596;4162;3057;5286;NotDone
On;BestEffort;BestEffort;On;Off;On;H323;Sip;Sip;TCP;TCP;Tls;Host;Host;Host;951;589;1460;1254;1876;1694;5822;376;80;5603;5636;4841;NotDone
On;On;BestEffort;On;Off;On;Sip;Auto;H323;Auto;TCP;Tls;Host;Host;Rflx;1208;589;1460;1254;1876;1694;5822;376;338;5603;5636;4054;NotDone
On;BestEffort;Off;Off;Off;On;Sip;Sip;H323;TCP;TCP;TCP;Host;Host;Relay;619;822;1368;1254;2126;1694;5822;644;5318;2793;3057;5274;NotDone
On;On;BestEffort;On;Off;On;Auto;Sip;Sip;Auto;TCP;Tls;Host;Host;Rflx;1208;589;1460;1254;1876;1694;5822;376;80;5603;5636;4841;NotDone
On;BestEffort;BestEffort;On;On;On;Sip;Sip;H323;TCP;TCP;Tls;Host;Host;Rflx;1208;593;867;1450;2025;1332;5822;376;5094;1338;3093;4095;NotDone
On;On;On;On;Off;On;Sip;Sip;Auto;TCP;TCP;Tls;Host;Host;Relay;1143;738;1398;736;2126;1694;5739;488;3445;3680;2432;5273;NotDone
BestEffort;BestEffort;Off;Off;Off;On;Sip;Sip;H320;TCP;TCP;Tls;Host;Host;Relay;1029;593;1368;3904;5864;1493;5822;376;80;5603;5636;5989;NotDone
On;BestEffort;BestEffort;Off;On;On;H323;Auto;H323;Auto;TCP;Tls;Host;Host;Rflx;1208;589;1460;1254;1876;1694;5822;376;4690;4489;209;5274;NotDone
On;On;BestEffort;Off;On;On;Sip;Sip;Auto;TCP;TCP;TCP;Host;Host;Relay;1146;679;956;1254;2126;2729;5822;376;5596;1618;5361;5274;NotDone
BestEffort;On;Off;Off;Off;On;H320;Sip;H320;TCP;TCP;Auto;Host;Host;Rflx;1050;593;867;1254;3099;4831;5822;376;5596;1618;5361;5274;NotDone
On;On;BestEffort;On;Off;On;Sip;Auto;H323;Auto;TCP;Tls;Host;Host;Relay;1062;822;1368;1254;1876;1473;5822;488;3445;5635;327;5273;NotDone
On;On;On;On;Off;On;Auto;Sip;H320;TCP;TCP;TCP;Host;Relay;Rflx;826;589;1460;4302;1876;4424;5822;376;4690;5603;209;5989;NotDone
On;On;BestEffort;Off;On;On;Auto;Sip;Sip;TCP;TCP;Auto;Host;Host;Relay;1050;593;867;1254;2126;2729;5822;376;5596;1618;5361;5274;NotDone
BestEffort;BestEffort;BestEffort;On;Off;On;Auto;Sip;Sip;TCP;TCP;UDP;Host;Host;Relay;1207;589;1368;1254;1876;1473;5822;376;4567;5635;327;5989;NotDone
On;BestEffort;BestEffort;On;On;On;H323;Sip;Auto;TCP;TCP;Auto;Host;Host;Relay;1124;846;1287;3396;1876;225;5822;376;109;1923;5709;520;NotDone
On;BestEffort;BestEffort;On;Off;On;Sip;Sip;Auto;TCP;TCP;Auto;Host;Host;Rflx;683;633;1287;1254;1876;2853;5822;376;109;1923;5709;4285;NotDone
BestEffort;On;On;Off;On;On;Auto;Sip;Auto;TCP;TCP;TCP;Host;Host;Relay;619;822;1026;1254;1135;1694;5822;488;3445;1125;327;5273;NotDone
BestEffort;On;On;Off;Off;On;Sip;Sip;Auto;TCP;TCP;UDP;Host;Host;Host;769;589;1368;4465;2126;1694;5739;488;3445;3680;2432;5273;NotDone
On;BestEffort;BestEffort;On;On;On;Sip;Sip;H323;TCP;TCP;TCP;Host;Host;Relay;1212;593;1368;1254;3408;1694;5822;2423;5596;2793;916;4388;NotDone
BestEffort;BestEffort;Off;Off;Off;On;Auto;Sip;H320;UDP;TCP;Auto;Relay;Host;Rflx;1374;589;1460;1254;1876;513;5822;376;1838;5603;209;5989;NotDone
BestEffort;On;Off;Off;Off;On;Auto;Sip;H320;UDP;TCP;UDP;Host;Host;Host;826;589;1460;1254;1876;513;5739;488;2038;3531;3057;5286;NotDone
On;BestEffort;BestEffort;Off;Off;On;Sip;Auto;H323;Auto;TCP;Tls;Host;Host;Rflx;1208;589;1460;1254;1876;1694;5822;376;80;5603;5636;4054;NotDone
On;BestEffort;BestEffort;Off;On;On;H323;Sip;Auto;TCP;TCP;Auto;Host;Host;Rflx;826;589;1460;1254;851;1694;5822;2423;1531;3839;1206;5989;NotDone
On;On;BestEffort;On;Off;On;Sip;Sip;Auto;TCP;TCP;Auto;Host;Host;Rflx;683;633;1287;1254;1876;2853;5822;376;109;1923;5709;4285;NotDone
BestEffort;On;On;Off;Off;On;Auto;Sip;Auto;TCP;TCP;Tls;Host;Host;Rflx;1062;822;1088;1254;3875;1091;5822;376;2929;3934;1809;5457;NotDone
On;BestEffort;On;Off;On;On;H323;Sip;Auto;TCP;TCP;Auto;Host;Host;Relay;1050;593;867;1254;5518;4577;5822;376;2469;3934;1809;5286;NotDone
BestEffort;BestEffort;BestEffort;On;On;On;Sip;Sip;Sip;TCP;TCP;TCP;Host;Host;Relay;1118;644;1368;1254;1876;2484;5822;2574;4567;5635;2976;5989;NotDone
On;On;BestEffort;Off;On;On;Auto;Sip;Sip;TCP;TCP;Auto;Host;Host;Relay;1050;593;867;1450;2025;1332;5822;376;5094;1338;2432;5273;NotDone
BestEffort;On;Off;On;On;On;Auto;Sip;Auto;TCP;TCP;TCP;Host;Host;Relay;1146;679;956;1254;2126;2729;5822;376;5086;1618;5361;5274;NotDone
BestEffort;BestEffort;Off;On;Off;On;Sip;Sip;H323;TCP;TCP;Auto;Host;Host;Relay;1114;578;1447;1254;4906;2484;5822;2574;4567;5635;327;5989;NotDone
On;On;On;Off;Off;On;H323;Sip;Auto;TCP;TCP;Tls;Host;Host;Relay;1207;610;899;1254;1876;1831;5822;376;4827;5203;3057;5274;NotDone
On;BestEffort;On;Off;Off;On;Auto;Sip;Auto;TCP;TCP;TCP;Host;Relay;Rflx;826;589;1460;4302;1876;1694;5822;644;5318;2793;3057;5274;NotDone
On;BestEffort;BestEffort;Off;On;On;H323;Sip;Sip;TCP;TCP;UDP;Host;Host;Relay;1124;687;1287;1254;3878;1694;5822;376;80;5603;5636;4054;NotDone
BestEffort;On;Off;Off;Off;On;Auto;Sip;H320;TCP;TCP;Tls;Relay;Host;Rflx;1050;593;867;1254;2126;890;5822;376;5330;2793;327;5273;NotDone
BestEffort;On;On;On;On;On;Auto;Sip;Auto;TCP;TCP;UDP;Host;Host;Relay;1050;667;919;1254;2126;2729;5822;376;5596;1618;5361;5989;NotDone
On;On;On;On;On;On;Sip;Sip;H323;TCP;TCP;TCP;Host;Host;Relay;728;822;1368;1254;2126;1694;5822;644;5318;2793;3057;5274;NotDone
On;On;BestEffort;On;Off;On;H323;Sip;Auto;Auto;TCP;UDP;Host;Host;Relay;1050;593;867;3414;1876;678;5822;376;4827;5603;3070;5323;NotDone
On;BestEffort;BestEffort;Off;Off;On;Sip;Auto;H323;TCP;TCP;Auto;Host;Host;Relay;1124;633;1381;1254;2126;1694;5822;376;5596;3934;5693;5274;NotDone
On;BestEffort;On;On;On;On;Auto;Sip;Sip;TCP;TCP;Auto;Host;Host;Rflx;1143;657;1046;1254;1876;1694;5822;273;994;3455;5361;5286;NotDone
On;On;On;Off;Off;On;Sip;Sip;H323;TCP;TCP;TCP;Host;Host;Relay;1146;657;1287;1254;1876;1694;5822;376;1046;2793;3057;5286;NotDone
BestEffort;BestEffort;On;On;Off;On;Auto;Sip;Auto;TCP;TCP;UDP;Host;Host;Rflx;664;800;1304;1254;1876;2866;5961;817;109;1923;5361;5274;NotDone
On;BestEffort;BestEffort;Off;Off;On;Sip;Sip;H323;TCP;TCP;UDP;Relay;Host;Host;1374;589;1460;1254;1876;1694;5822;376;80;5603;5379;4054;NotDone
BestEffort;BestEffort;BestEffort;On;Off;On;Auto;Sip;Sip;TCP;TCP;UDP;Host;Host;Relay;1207;589;1368;1254;1876;1473;5822;2434;4567;5635;1811;5989;NotDone
BestEffort;On;On;On;On;On;Auto;Sip;Auto;TCP;TCP;UDP;Host;Host;Relay;1050;667;919;1254;2126;2729;5822;376;5596;1618;5361;5274;NotDone
BestEffort;On;On;On;On;On;Sip;Sip;H323;TCP;TCP;TCP;Host;Host;Relay;619;822;1368;1254;2126;1694;5822;644;5318;2793;3057;5274;NotDone
On;BestEffort;BestEffort;Off;On;On;Sip;Sip;H323;TCP;TCP;Auto;Host;Host;Relay;1114;578;1447;1254;4906;2484;5822;2574;4567;5635;327;5989;NotDone
BestEffort;BestEffort;Off;Off;Off;On;H320;Sip;Sip;UDP;TCP;Auto;Host;Relay;Rflx;1280;589;1460;1254;1876;4070;5822;376;2868;5635;3070;5274;NotDone
On;On;On;Off;On;On;Sip;Sip;Auto;TCP;TCP;TCP;Host;Host;Relay;1146;679;956;1254;2126;2729;5822;376;5596;1618;5361;5274;NotDone
On;On;On;Off;On;On;Auto;Sip;Sip;TCP;TCP;Auto;Host;Host;Relay;1138;593;1368;4465;2126;1694;5822;376;5596;1618;5361;5274;NotDone
BestEffort;On;BestEffort;Off;Off;On;Auto;Auto;Sip;Tls;TCP;TCP;Host;Host;Rflx;1377;589;1368;1254;1876;1694;5822;376;3716;3839;5914;5286;NotDone
On;On;On;On;On;On;Sip;Sip;H323;TCP;TCP;TCP;Host;Host;Relay;1146;679;956;1254;984;2729;5822;376;5596;1618;5361;5274;NotDone
BestEffort;On;On;On;Off;On;Auto;Sip;H323;TCP;TCP;TCP;Host;Host;Rflx;695;677;1210;1254;1876;2599;5822;376;5596;3455;3057;5989;NotDone
On;BestEffort;BestEffort;On;Off;On;H323;Sip;Sip;TCP;TCP;Tls;Host;Host;Relay;950;822;1232;1254;2069;1694;5822;376;2469;1618;3057;1709;NotDone
BestEffort;BestEffort;BestEffort;Off;On;On;Sip;Sip;H323;TCP;TCP;Auto;Host;Host;Relay;1114;578;1447;1254;4906;2484;5822;2574;4567;5635;327;5989;NotDone
On;BestEffort;Off;On;On;On;Sip;Sip;H323;TCP;TCP;Tls;Host;Host;Relay;1029;593;1368;3904;5864;3065;5822;376;80;5603;5636;5989;NotDone
BestEffort;On;On;Off;On;On;Auto;Sip;Sip;TCP;TCP;Tls;Host;Host;Relay;1062;822;942;3384;2126;1694;5822;376;2929;5591;5709;5286;NotDone
On;On;On;On;On;On;Auto;Sip;H323;TCP;TCP;Auto;Host;Host;Relay;1062;822;1368;1254;1876;1473;5822;488;3445;5635;327;5273;NotDone
On;On;On;Off;On;On;H323;Sip;Auto;TCP;TCP;UDP;Host;Host;Relay;1050;593;1304;1254;2126;1694;5822;376;5596;3934;5693;5274;NotDone
On;BestEffort;Off;Off;Off;Off;Sip;Sip;H320;TCP;TCP;TCP;Host;Host;Rflx;1374;589;1457;1254;3586;1694;5822;2423;3445;5635;327;5989;NotDone
Off;BestEffort;On;On;On;On;Sip;Sip;Auto;TCP;TCP;Tls;Host;Host;Relay;1207;610;899;1254;1876;1831;5822;376;4827;3083;3070;5274;NotDone
Off;BestEffort;BestEffort;On;On;On;Sip;Sip;H323;Tls;TCP;Tls;Host;Host;Relay;608;703;1368;2963;3839;1694;5822;1520;2654;3334;1331;5491;NotDone
BestEffort;BestEffort;BestEffort;On;Off;On;Auto;Sip;H320;UDP;TCP;TCP;Host;Host;Rflx;826;589;1460;1254;1876;5323;5822;402;80;5603;5372;5989;NotDone
On;On;On;Off;Off;On;Auto;Sip;H320;TCP;TCP;Tls;Host;Host;Rflx;1050;593;867;1450;2025;1332;5822;3406;4294;1618;5361;5989;NotDone
On;On;On;Off;Off;On;Auto;Sip;H320;TCP;TCP;Tls;Host;Host;Rflx;619;822;1026;1254;1135;1694;5822;376;4827;1676;4095;5286;NotDone
On;BestEffort;On;On;On;On;Sip;Sip;H323;TCP;TCP;TCP;Host;Host;Rflx;1144;589;1457;1254;3586;1694;5822;2423;3445;5635;327;5989;NotDone
BestEffort;On;Off;Off;Off;On;Auto;Sip;Sip;TCP;TCP;UDP;Host;Host;Rflx;1146;679;956;1254;2126;2729;5822;376;4584;5161;3070;5274;NotDone
BestEffort;BestEffort;Off;Off;Off;On;Sip;Sip;H323;TCP;TCP;Auto;Host;Host;Rflx;1124;578;1492;1254;1876;1694;5822;376;2929;3934;5361;5274;NotDone
Off;On;BestEffort;Off;On;On;Sip;Sip;Auto;TCP;TCP;Tls;Host;Host;Host;769;589;1368;4465;2126;1694;5739;488;3445;3680;2432;5273;NotDone
BestEffort;On;Off;Off;On;On;Sip;Sip;Auto;TCP;TCP;UDP;Host;Relay;Rflx;826;589;1460;1254;1876;1694;5822;376;5596;3934;5709;5323;NotDone
BestEffort;On;On;On;Off;On;Auto;Sip;Auto;TCP;TCP;Auto;Host;Host;Relay;1124;846;1287;3396;1876;1694;5822;376;4690;5603;209;5989;NotDone
On;BestEffort;BestEffort;Off;On;On;H323;Sip;Sip;TCP;TCP;UDP;Host;Host;Relay;1124;687;1287;1254;3878;1694;5822;376;80;5603;5636;5989;NotDone
BestEffort;BestEffort;Off;On;On;On;H320;Sip;Sip;TCP;TCP;UDP;Host;Host;Rflx;1134;589;1457;4302;1876;1694;5822;376;555;2793;3057;5286;NotDone
On;On;On;Off;Off;On;Auto;Sip;H323;TCP;TCP;Tls;Host;Host;Rflx;619;822;1368;1254;2126;2325;5822;644;5318;2793;3057;5274;NotDone
Off;BestEffort;On;On;On;On;Sip;Sip;Sip;TCP;TCP;Auto;Host;Host;Relay;1143;738;1046;1254;2126;1694;5822;376;5318;2793;3057;5274;NotDone
BestEffort;On;Off;Off;Off;On;Auto;Sip;H320;TCP;TCP;Tls;Host;Host;Relay;1050;593;867;1254;2126;890;5822;376;5330;2793;5901;5323;NotDone
On;On;Off;Off;Off;On;Auto;Sip;H320;UDP;TCP;Auto;Host;Host;Rflx;826;589;1460;1254;1876;5323;5822;402;4827;5603;5361;5274;NotDone
BestEffort;On;Off;Off;Off;On;Auto;Sip;Sip;TCP;TCP;UDP;Host;Host;Rflx;1050;822;1368;1254;2126;1694;5822;644;5318;2793;3057;5989;NotDone
On;BestEffort;BestEffort;Off;On;On;Auto;Sip;Auto;TCP;TCP;UDP;Host;Host;Relay;1050;593;867;1254;1876;1694;5739;488;109;1923;5361;3943;NotDone
BestEffort;On;BestEffort;On;On;On;Sip;Sip;H323;TCP;TCP;Tls;Host;Host;Rflx;664;589;1460;1254;1876;513;5822;376;5596;3934;5709;5274;NotDone
On;BestEffort;Off;Off;Off;On;Auto;Sip;H320;UDP;TCP;TCP;Relay;Host;Rflx;619;822;1447;1254;3179;4036;5822;376;4567;2793;3057;5274;NotDone
BestEffort;BestEffort;On;Off;Off;On;Auto;Sip;Sip;TCP;TCP;UDP;Host;Host;Relay;1207;589;1368;1254;1876;1473;5822;2434;4567;5635;1811;5989;NotDone
On;On;On;On;On;On;Auto;Sip;H323;TCP;TCP;TCP;Host;Host;Relay;1188;715;1368;1254;4429;2910;5822;376;1387;2793;5901;5323;NotDone
On;BestEffort;Off;Off;Off;Off;Sip;Sip;H320;TCP;TCP;UDP;Host;Host;Rflx;826;589;1435;1254;1876;3179;5822;5487;1809;3839;916;5989;NotDone
On;On;BestEffort;On;Off;On;Auto;Sip;Sip;TCP;TCP;UDP;Host;Rflx;Relay;965;593;1460;1254;2126;2729;5822;376;5596;2632;5361;5274;NotDone
On;BestEffort;Off;Off;On;On;Sip;Sip;H323;TCP;TCP;TCP;Host;Host;Relay;1050;593;1460;1254;1876;5323;5822;402;1595;5603;209;5989;NotDone
BestEffort;On;Off;Off;Off;On;H320;Sip;Sip;TCP;TCP;Tls;Host;Host;Rflx;941;589;1304;3399;4559;1694;5822;376;5596;1618;3057;5274;NotDone
BestEffort;BestEffort;BestEffort;On;On;On;Sip;Sip;H323;TCP;TCP;Tls;Host;Host;Rflx;664;738;1429;1650;1876;1694;5822;644;5460;2872;916;5274;NotDone
On;On;On;On;On;On;Auto;Sip;H323;TCP;TCP;TCP;Host;Host;Relay;1146;846;956;1254;2126;4857;5822;376;4584;5161;3070;5274;NotDone
On;BestEffort;BestEffort;On;On;On;H323;Sip;Sip;TCP;TCP;Tls;Host;Host;Relay;1212;593;1482;1254;3408;1694;5822;2423;5596;2793;916;4388;NotDone
On;On;BestEffort;On;On;On;H323;Sip;Auto;TCP;TCP;Auto;Host;Host;Relay;1124;846;956;324;1876;1694;5822;376;1547;1923;5414;3366;NotDone
BestEffort;BestEffort;Off;On;On;On;H320;Sip;Sip;TCP;TCP;UDP;Host;Host;Rflx;1124;633;1287;1254;2126;1694;5822;376;2929;3934;1809;5274;NotDone
BestEffort;On;Off;Off;On;On;Auto;Sip;Auto;TCP;TCP;TCP;Host;Host;Relay;619;822;1026;1254;1135;1694;5822;488;3445;1125;327;5273;NotDone
On;On;On;Off;On;On;H323;Sip;Auto;TCP;TCP;UDP;Host;Host;Host;1094;589;1460;1254;1876;874;5822;376;80;5695;5361;5323;NotDone
On;BestEffort;BestEffort;On;Off;On;Auto;Auto;H323;TCP;TCP;TCP;Host;Host;Rflx;695;822;1023;1254;1876;2599;5822;376;3889;3934;916;5274;NotDone
BestEffort;On;On;On;On;On;Sip;Sip;H320;TCP;TCP;Tls;Host;Host;Relay;1029;593;1368;3904;5864;1493;5822;376;80;5603;209;5989;NotDone
BestEffort;On;On;Off;Off;On;Auto;Sip;Auto;TCP;TCP;Tls;Host;Host;Rflx;1207;703;1157;1254;2069;1694;5822;376;5596;1618;5361;5274;NotDone
BestEffort;BestEffort;Off;On;Off;On;Auto;Sip;Auto;TCP;TCP;Tls;Host;Host;Relay;1124;720;1287;1254;1017;1521;5822;1084;5596;3455;3057;5989;NotDone
BestEffort;On;On;Off;On;On;Auto;Sip;Auto;TCP;TCP;UDP;Host;Host;Relay;1207;703;1157;1254;2069;1694;5822;376;5596;1618;5361;5274;NotDone
BestEffort;On;On;Off;On;On;Auto;Sip;Sip;TCP;TCP;Tls;Host;Host;Relay;803;822;942;3384;2126;1694;5822;376;4827;5203;3057;5274;NotDone
BestEffort;BestEffort;BestEffort;On;On;On;Sip;Sip;H323;TCP;TCP;Tls;Host;Host;Rflx;664;589;1460;1254;1876;513;5822;376;5596;3934;5709;5274;NotDone
On;On;BestEffort;Off;On;On;Auto;Sip;Sip;TCP;TCP;Auto;Host;Host;Host;1173;657;1285;1254;1876;223;5822;376;109;1923;5709;5323;NotDone
BestEffort;BestEffort;On;On;On;On;Sip;Sip;H323;TCP;TCP;TCP;Host;Host;Relay;619;822;1026;1254;1135;1694;5822;488;872;1125;327;5273;NotDone
BestEffort;BestEffort;Off;On;Off;On;H320;Sip;Sip;TCP;TCP;UDP;Host;Host;Relay;1207;589;1368;1254;1876;1473;5822;376;5596;5203;5709;5286;NotDone
On;On;Off;Off;Off;On;Auto;Sip;H320;Auto;TCP;Auto;Host;Host;Rflx;695;822;1023;1254;1876;2599;5822;376;3889;3934;916;5274;NotDone
On;BestEffort;BestEffort;Off;Off;On;H323;Sip;Auto;TCP;TCP;Auto;Host;Host;Relay;846;578;1447;5107;3485;1425;5822;376;80;5695;1589;5323;NotDone
On;BestEffort;Off;Off;On;On;Auto;Sip;H323;TCP;TCP;Tls;Host;Host;Relay;1062;822;1023;1254;1876;1473;5822;485;5596;2666;916;5407;NotDone
On;BestEffort;BestEffort;Off;Off;On;H323;Sip;H320;TCP;TCP;Tls;Host;Host;Relay;1146;679;956;1254;984;2729;5822;376;5596;1618;5361;5274;NotDone
BestEffort;BestEffort;BestEffort;On;Off;On;Auto;Auto;Sip;Tls;TCP;Tls;Host;Host;Rflx;619;822;1026;1254;1776;1694;5822;488;3445;1125;327;5273;NotDone
BestEffort;On;Off;Off;Off;On;H320;Sip;Sip;TCP;TCP;Tls;Host;Host;Rflx;1400;657;1368;1650;1876;3966;5822;376;2695;5203;2037;5286;NotDone
On;On;On;Off;On;On;Sip;Sip;Sip;TCP;TCP;Auto;Host;Host;Relay;939;822;919;181;2126;1694;5822;376;5596;1618;5361;5989;NotDone
On;BestEffort;BestEffort;On;On;On;Sip;Sip;H323;TCP;TCP;Tls;Host;Host;Relay;950;822;1232;1254;2069;1694;5822;376;2469;1618;3057;1709;NotDone
On;On;BestEffort;On;Off;On;Sip;Sip;H323;TCP;TCP;Tls;Host;Host;Relay;1050;589;1460;1254;1876;1694;5822;376;2929;3934;5883;5274;NotDone
BestEffort;On;On;Off;Off;On;Sip;Sip;Auto;TCP;TCP;UDP;Host;Host;Relay;769;589;1232;5463;1876;1694;5869;376;4143;2793;1869;5323;NotDone
On;On;On;Off;Off;On;Auto;Sip;H323;TCP;TCP;Tls;Host;Host;Rflx;619;822;1368;1254;2423;2325;5822;1367;5596;5203;3057;5286;NotDone
On;On;BestEffort;Off;Off;On;Auto;H323;Auto;TCP;TCP;TCP;Host;Host;Rflx;1050;593;867;1254;1876;1694;5739;488;109;1923;5361;3943;NotDone
On;On;BestEffort;On;Off;On;Auto;Sip;Sip;TCP;TCP;Auto;Host;Host;Relay;1050;593;1460;1254;1876;4070;5822;376;3525;5635;3070;5274;NotDone
Off;BestEffort;BestEffort;On;On;On;Sip;Sip;Sip;TCP;TCP;Tls;Host;Host;Relay;1062;671;1368;1254;2126;1694;5822;376;3889;4198;916;2926;NotDone
On;On;BestEffort;Off;Off;On;Auto;Auto;Sip;Tls;TCP;TCP;Host;Host;Rflx;1377;589;1368;1254;1876;1694;5822;376;3716;3839;5914;5286;NotDone
On;On;On;Off;On;On;Auto;Sip;Auto;TCP;TCP;UDP;Host;Host;Relay;1124;785;1390;1254;1876;1694;5822;376;5596;1618;5361;5274;NotDone
On;On;BestEffort;Off;On;On;Auto;Sip;Auto;TCP;TCP;UDP;Host;Host;Relay;1146;679;956;1254;984;2729;5822;376;4532;1618;2981;3366;NotDone
On;On;Off;On;Off;On;Auto;Sip;H323;TCP;TCP;TCP;Host;Host;Relay;1050;593;867;3414;1876;1694;5739;488;450;5635;327;5273;NotDone
On;BestEffort;On;On;On;On;Sip;Sip;H323;TCP;TCP;TCP;Host;Host;Relay;941;778;1368;1254;2126;1694;5822;644;5318;2793;3057;5286;NotDone
On;BestEffort;BestEffort;On;On;On;Sip;Sip;H323;TCP;TCP;Tls;Host;Host;Rflx;1208;589;1460;1254;1876;1694;5822;376;80;5603;5636;4054;NotDone
On;On;On;Off;Off;On;Sip;H320;H323;TCP;TCP;Auto;Host;Host;Rflx;941;822;1368;1254;2126;1694;5822;690;4690;3369;209;5989;NotDone
BestEffort;BestEffort;Off;On;On;On;H320;Sip;Sip;TCP;TCP;UDP;Host;Host;Rflx;826;589;1460;4302;1876;1694;5822;376;4690;4489;3057;5274;NotDone
On;On;BestEffort;Off;Off;On;H323;Sip;Auto;TCP;TCP;Auto;Host;Host;Relay;1050;593;867;1254;2126;890;5822;376;1450;1618;5361;3989;NotDone
On;On;BestEffort;On;Off;On;Sip;Sip;Auto;TCP;TCP;Tls;Host;Host;Relay;1143;738;1460;3063;1876;1473;5822;2434;4567;5635;1811;5989;NotDone
On;On;BestEffort;On;Off;On;Sip;Sip;H323;TCP;TCP;UDP;Host;Host;Relay;1137;578;1368;1254;1876;1473;5822;1367;5596;5203;3057;5286;NotDone
On;BestEffort;On;Off;Off;On;Auto;Sip;Auto;TCP;TCP;TCP;Host;Relay;Rflx;826;589;1460;4302;1876;1694;5822;376;4690;5603;209;5989;NotDone
On;On;On;Off;Off;On;Auto;Sip;Sip;TCP;TCP;UDP;Host;Host;Relay;1207;589;1368;1254;1876;1473;5822;376;4567;5635;327;5989;NotDone
BestEffort;BestEffort;Off;On;On;On;H320;Sip;Sip;TCP;TCP;UDP;Host;Host;Rflx;796;721;969;1254;1876;1694;5822;376;109;1923;5361;5274;NotDone
On;BestEffort;Off;Off;Off;On;Auto;Sip;H323;TCP;TCP;Auto;Host;Host;Relay;908;846;956;324;1876;1694;5822;376;5596;1618;549;5274;NotDone
BestEffort;BestEffort;Off;On;Off;On;Auto;Sip;Auto;TCP;TCP;Tls;Host;Host;Relay;619;822;919;181;1876;2599;5822;376;3889;3934;916;5274;NotDone
Off;BestEffort;BestEffort;On;On;On;Sip;Sip;Sip;TCP;TCP;Auto;Host;Host;Relay;1143;738;1443;1450;1017;1521;5822;1084;5596;3455;3057;5286;NotDone
On;BestEffort;On;On;Off;On;H323;Sip;H323;TCP;TCP;TCP;Host;Host;Relay;1118;644;1368;1254;1876;1473;5822;376;5596;3455;3057;5286;NotDone
On;On;On;On;On;On;Sip;Sip;H323;TCP;TCP;TCP;Host;Host;Rflx;826;589;1460;1254;1876;5323;5822;402;80;5603;5372;5989;NotDone
On;On;BestEffort;On;Off;On;Sip;Sip;H323;TCP;TCP;UDP;Host;Host;Relay;1322;578;1368;1254;1876;1473;5822;376;5094;1338;2781;4315;NotDone
On;BestEffort;BestEffort;Off;On;On;Sip;Sip;H323;TCP;TCP;UDP;Host;Host;Relay;1207;589;1368;1254;1876;1473;5822;376;4567;5635;327;5012;NotDone
BestEffort;BestEffort;Off;Off;Off;On;H320;Sip;Sip;TCP;TCP;Tls;Host;Host;Rflx;1062;679;956;1254;2126;2729;5822;376;5596;1618;3057;5274;NotDone
On;On;BestEffort;On;On;On;H323;Sip;Auto;TCP;TCP;Auto;Host;Host;Relay;1146;846;956;1254;2126;4857;5822;376;5318;2793;3057;5286;NotDone
BestEffort;On;On;Off;Off;On;Auto;Sip;Auto;TCP;TCP;Tls;Host;Host;Rflx;1062;822;1088;1254;3875;1694;5822;376;2929;3934;1809;5286;NotDone
On;BestEffort;BestEffort;Off;Off;On;Sip;Auto;H323;Auto;TCP;Tls;Host;Host;Rflx;1208;589;1460;1254;1876;1694;5822;376;80;5603;5636;4054;NotDone
On;On;Off;On;Off;On;Auto;Sip;H320;UDP;TCP;Auto;Host;Host;Rflx;1124;589;1182;1254;1876;1473;5822;2434;4567;5635;1811;5989;NotDone
On;BestEffort;On;Off;Off;On;Auto;Sip;Auto;TCP;TCP;Tls;Host;Relay;Rflx;826;589;874;1254;1876;513;5822;376;1975;3934;5709;5286;NotDone
On;On;On;On;On;On;Auto;Sip;H323;TCP;TCP;TCP;Host;Host;Relay;619;715;1368;1254;2126;1694;5822;644;5318;2793;3057;5274;NotDone
BestEffort;BestEffort;Off;Off;Off;On;Auto;Auto;H323;Tls;TCP;TCP;Host;Host;Rflx;897;657;1391;1650;1876;1694;5571;376;2155;5203;5709;5286;NotDone
On;On;On;Off;Off;On;Auto;Sip;Sip;TCP;TCP;UDP;Host;Host;Relay;1207;589;1368;1254;2069;1694;5822;376;5596;1618;5361;5274;NotDone
On;On;BestEffort;On;Off;On;H323;Sip;Auto;TCP;TCP;TCP;Host;Host;Relay;1146;679;956;1254;2126;2729;5822;376;5596;1618;5361;5274;NotDone
BestEffort;BestEffort;Off;On;On;On;Sip;Sip;Auto;TCP;TCP;Tls;Host;Host;Rflx;1374;589;1008;3554;1876;3966;5822;376;5596;5203;5709;5286;NotDone
BestEffort;BestEffort;Off;On;Off;On;H320;Sip;Sip;Tls;TCP;Tls;Host;Relay;Rflx;1374;589;1368;458;1876;1694;5822;376;5596;1618;3057;5274;NotDone
BestEffort;BestEffort;On;On;Off;On;Auto;Sip;Auto;TCP;TCP;UDP;Host;Host;Rflx;664;800;1304;1254;1876;2866;5822;644;5318;2793;3057;5286;NotDone
BestEffort;BestEffort;On;Off;On;On;Sip;Sip;H323;TCP;TCP;UDP;Host;Host;Relay;1050;589;1460;1254;1876;513;5822;376;80;5695;5361;5323;NotDone
On;On;Off;On;On;On;Sip;Sip;H323;TCP;TCP;Tls;Host;Host;Relay;1146;679;956;1254;984;2729;5822;376;5596;1618;5361;5274;NotDone
BestEffort;BestEffort;Off;Off;Off;On;Auto;Sip;H320;UDP;TCP;Tls;Host;Host;Rflx;826;589;1460;1254;1876;2727;5822;376;2639;5635;5636;5989;NotDone
On;Off;On;Off;Off;On;Auto;Auto;Sip;TCP;TCP;UDP;Host;Host;Relay;1207;589;1368;1254;1876;1473;5822;376;4567;5635;327;5989;NotDone
BestEffort;BestEffort;Off;Off;On;On;Sip;Sip;H320;TCP;TCP;Tls;Host;Relay;Rflx;1374;589;1368;458;1358;1694;5822;164;109;2793;209;5274;NotDone
BestEffort;BestEffort;On;Off;Off;On;Auto;Sip;Auto;TCP;TCP;Tls;Host;Relay;Rflx;826;589;1460;1254;1876;513;5822;376;5596;1618;5361;5274;NotDone
BestEffort;BestEffort;Off;Off;On;On;Sip;Sip;Auto;TCP;TCP;TCP;Host;Host;Relay;728;822;1368;1254;2126;1694;5822;644;5318;2793;3057;5274;NotDone
On;BestEffort;On;On;Off;On;Sip;Sip;H323;TCP;TCP;TCP;Host;Host;Relay;797;822;1368;1254;2126;1694;5822;218;5318;2793;3057;5274;NotDone
BestEffort;On;Off;On;On;On;Sip;Sip;H320;TCP;TCP;TCP;Relay;Host;Relay;950;822;1232;5463;1876;1694;5869;376;109;2793;1869;5323;NotDone
On;On;BestEffort;On;On;On;H323;Sip;Auto;TCP;TCP;Auto;Host;Host;Relay;1124;846;1345;1254;2126;1694;5822;2371;5596;1703;2767;5274;NotDone
BestEffort;On;Off;Off;Off;On;Auto;Sip;Sip;TCP;TCP;Tls;Host;Host;Relay;1124;846;956;1254;1876;2729;5822;376;5596;1618;5361;5274;NotDone
On;BestEffort;BestEffort;On;On;On;Auto;Sip;Auto;TCP;TCP;UDP;Host;Host;Relay;1205;644;1368;1254;1876;2147;5822;2574;4567;5635;327;5989;NotDone
BestEffort;BestEffort;On;On;On;On;Sip;Sip;Auto;TCP;TCP;Auto;Host;Host;Rflx;1118;593;1368;971;3408;1694;5822;2423;5749;4150;800;5286;NotDone
On;On;On;Off;Off;On;Sip;Sip;H323;TCP;TCP;TCP;Host;Host;Relay;941;822;1368;1254;2126;1694;5822;644;555;2793;3057;5286;NotDone
On;BestEffort;On;On;On;On;Sip;Sip;Auto;TCP;TCP;Tls;Host;Host;Relay;1377;589;1368;1254;1876;1694;5822;376;3716;3839;5914;5286;NotDone
BestEffort;BestEffort;On;Off;Off;On;Auto;Sip;Auto;TCP;TCP;Tls;Host;Relay;Rflx;826;589;1460;1254;1876;513;5822;376;5596;5597;5709;5286;NotDone
BestEffort;BestEffort;BestEffort;On;On;On;Sip;Sip;H323;TCP;Tls;TCP;Host;Host;Relay;1076;822;1026;3426;1876;2957;5869;376;109;2793;1869;5323;NotDone
BestEffort;On;On;On;Off;Off;Auto;H323;Auto;TCP;TCP;Auto;Host;Host;Relay;1124;846;956;1254;1876;2729;5822;376;5596;1618;5361;5274;NotDone
Off;On;On;Off;On;On;Sip;Sip;Sip;TCP;TCP;Tls;Host;Host;Relay;1062;671;1368;1254;2126;1694;5822;376;5318;2793;3057;5274;NotDone
BestEffort;BestEffort;On;Off;Off;On;Sip;Sip;Auto;TCP;TCP;Auto;Host;Relay;Rflx;826;589;1460;4302;1876;1694;5739;376;5596;3455;3057;5286;NotDone
BestEffort;BestEffort;On;Off;Off;On;Auto;Sip;Auto;TCP;TCP;TCP;Host;Relay;Rflx;826;589;1460;4302;1876;1694;5822;376;4690;5603;209;5989;NotDone
On;On;BestEffort;On;Off;On;Auto;Sip;Sip;Auto;TCP;Tls;Host;Host;Rflx;1208;589;1460;1254;1876;1694;5822;376;80;5603;5636;4841;NotDone
On;BestEffort;BestEffort;Off;On;On;H323;Auto;H323;Auto;TCP;Tls;Host;Host;Relay;1124;846;956;1254;1876;2729;5822;376;5596;1618;5361;5274;NotDone
On;On;On;On;On;On;Sip;Sip;H323;TCP;TCP;UDP;Host;Host;Rflx;796;721;969;1254;1876;796;5822;376;109;1923;5361;5323;NotDone
BestEffort;On;Off;Off;Off;On;Auto;Sip;Sip;TCP;TCP;Auto;Host;Relay;Rflx;1280;589;1460;1254;1876;4070;5822;376;2868;5635;3070;5274;NotDone
BestEffort;On;On;Off;On;On;Sip;Sip;Auto;TCP;TCP;TCP;Host;Host;Relay;1146;679;1287;1254;1876;1694;5822;376;1046;2793;3057;5286;NotDone
On;BestEffort;BestEffort;Off;On;On;H323;Sip;H323;TCP;TCP;TCP;Host;Host;Relay;1146;679;956;1254;2126;2729;5822;376;5596;1618;5361;5274;NotDone
BestEffort;BestEffort;Off;Off;On;On;Auto;Sip;Sip;TCP;TCP;UDP;Host;Host;Rflx;1374;589;1460;1254;2126;4857;5822;376;4584;5161;3070;5274;NotDone
BestEffort;On;Off;Off;On;On;Sip;Sip;Auto;TCP;TCP;Tls;Host;Host;Relay;1143;738;1460;3063;1876;1694;5822;233;80;5603;5361;5323;NotDone
BestEffort;On;Off;Off;Off;On;H320;Sip;Sip;TCP;TCP;Tls;Host;Host;Rflx;941;589;1368;5438;2014;1694;5822;376;80;5591;5709;5449;NotDone
On;On;BestEffort;Off;On;On;H323;Sip;Auto;TCP;TCP;Auto;Host;Host;Relay;1050;593;867;1254;1876;4577;5822;376;2469;1618;3057;1709;NotDone
On;BestEffort;BestEffort;Off;On;On;Sip;Sip;Sip;TCP;TCP;Auto;Host;Host;Relay;1114;578;1447;1254;4906;1961;5822;376;4567;5635;327;5274;NotDone
On;On;On;Off;Off;On;Auto;Sip;H320;TCP;TCP;Tls;Host;Host;Rflx;1050;593;867;1254;2126;890;5822;376;5330;2793;5901;5323;NotDone
On;BestEffort;On;On;On;On;Sip;Sip;H323;TCP;TCP;TCP;Host;Relay;Rflx;826;589;1460;5438;1876;1505;5822;376;80;3240;5901;5286;NotDone
BestEffort;BestEffort;On;On;On;On;Auto;Sip;Auto;TCP;TCP;UDP;Host;Host;Rflx;664;800;1304;1254;1876;2866;5822;644;5318;2793;3057;5286;NotDone
BestEffort;On;BestEffort;Off;Off;On;Auto;Sip;Auto;TCP;TCP;UDP;Host;Host;Relay;1124;846;956;1254;1876;5036;5822;376;5460;2872;916;5274;NotDone
On;BestEffort;BestEffort;Off;Off;On;H323;H323;Auto;TCP;Auto;UDP;Relay;Host;Relay;950;822;1222;1254;1876;1694;5869;376;5596;3455;3057;5286;NotDone
On;BestEffort;On;On;Off;On;H323;H323;Auto;TCP;Tls;TCP;Host;Host;Relay;1076;822;1026;1254;1876;5877;5869;376;109;2793;1869;5323;NotDone
On;BestEffort;Off;Off;Off;On;Auto;Sip;H323;TCP;TCP;Auto;Host;Host;Relay;908;846;956;324;1876;1694;5822;378;1046;2793;3057;5286;NotDone
BestEffort;BestEffort;Off;Off;Off;On;Auto;Sip;Auto;TCP;TCP;Auto;Host;Relay;Rflx;826;589;1460;4302;1876;1694;5822;376;4690;4489;209;5989;NotDone
Off;BestEffort;On;Off;On;On;Sip;Sip;Auto;TCP;TCP;Tls;Host;Host;Relay;1029;593;1368;971;2126;1694;5822;644;5318;2793;3057;5274;NotDone
On;BestEffort;On;On;On;On;Sip;Sip;H323;TCP;TCP;Tls;Host;Host;Rflx;926;805;1023;1254;1876;1694;5822;2423;1744;3934;2602;5323;NotDone
BestEffort;BestEffort;Off;On;On;On;H320;Sip;Sip;TCP;TCP;UDP;Host;Host;Rflx;796;721;969;1254;2126;1694;5822;136;5596;3934;327;5989;NotDone
On;BestEffort;On;Off;Off;On;Auto;Sip;Auto;TCP;TCP;TCP;Host;Relay;Rflx;826;589;1460;1254;1876;4296;5822;5487;5753;5750;916;5989;NotDone
BestEffort;BestEffort;On;On;Off;On;Auto;Sip;Auto;TCP;TCP;UDP;Host;Host;Rflx;664;800;1304;1254;1876;1694;5822;376;5596;5692;5709;5323;NotDone
BestEffort;On;On;Off;On;On;Auto;Sip;Auto;TCP;TCP;TCP;Host;Host;Rflx;826;589;1460;4302;1876;1694;5822;376;4690;4489;3057;5274;NotDone
BestEffort;BestEffort;Off;On;On;On;H320;Sip;Sip;TCP;TCP;UDP;Host;Host;Rflx;1134;800;1351;1254;5864;1493;5822;376;80;5603;5636;5989;NotDone
Off;BestEffort;BestEffort;On;On;On;Sip;Sip;Sip;TCP;TCP;Tls;Host;Host;Relay;601;822;1443;1450;1017;1521;5822;1084;5596;3455;3057;5989;NotDone
BestEffort;BestEffort;Off;On;Off;On;H320;Sip;Sip;TCP;TCP;Tls;Host;Host;Rflx;1118;644;937;1254;1876;1694;5822;1275;5596;2038;2781;5491;NotDone
On;On;BestEffort;On;Off;On;H323;Sip;Auto;TCP;TCP;Auto;Host;Host;Relay;1124;846;1460;1254;1876;1694;5822;376;80;5603;5379;4054;NotDone
On;BestEffort;BestEffort;Off;On;On;Sip;Sip;Auto;TCP;TCP;Tls;Host;Host;Relay;1029;593;1368;1254;3408;1694;5822;2423;1531;3934;2602;5323;NotDone
BestEffort;BestEffort;Off;On;On;On;Auto;Sip;Auto;TCP;TCP;TCP;Host;Host;Rflx;664;800;1304;1254;1876;2866;5961;817;109;1923;5361;5274;NotDone
Off;On;On;On;On;On;Sip;Sip;H323;TCP;TCP;TCP;Host;Host;Relay;619;822;1368;1254;2126;1694;5822;644;5318;2793;3057;5286;NotDone
On;BestEffort;Off;Off;On;On;Sip;Sip;Sip;TCP;TCP;Auto;Host;Host;Relay;1026;578;1447;3409;2921;1961;5822;376;2929;3934;5883;5274;NotDone
On;On;Off;On;On;On;Auto;Sip;H323;TCP;TCP;TCP;Host;Host;Relay;769;589;1368;1254;1876;1473;5822;376;4567;5635;327;5989;NotDone
BestEffort;On;On;Off;On;On;Sip;Sip;Auto;TCP;TCP;UDP;Host;Host;Rflx;1134;589;1457;4302;4053;1694;5762;376;4690;5603;209;5989;NotDone
On;BestEffort;On;Off;On;On;Sip;Sip;Auto;TCP;TCP;UDP;Host;Host;Relay;1207;703;1460;1254;1876;5323;5822;402;1595;5603;209;5989;NotDone
BestEffort;On;On;Off;Off;On;Sip;Sip;Auto;TCP;TCP;UDP;Host;Host;Relay;619;822;1447;1254;3179;4036;5822;376;4567;2793;3057;5274;NotDone
On;BestEffort;On;On;On;On;Auto;Sip;Sip;TCP;TCP;Auto;Host;Host;Rflx;1143;657;1046;1254;1876;1694;5822;273;994;3455;5361;5274;NotDone
BestEffort;BestEffort;Off;On;Off;On;H320;Sip;Sip;TCP;TCP;Tls;Host;Host;Rflx;1118;644;1417;3904;5864;426;5822;376;5596;1618;5361;5274;NotDone
On;On;Off;Off;On;On;Auto;Sip;H320;UDP;TCP;TCP;Host;Host;Rflx;1192;589;1460;1254;1876;5323;5822;402;4827;5603;5361;5274;NotDone
BestEffort;On;Off;On;Off;On;Auto;Sip;Auto;TCP;TCP;Tls;Host;Host;Relay;1062;589;1457;1254;1876;4641;5822;376;5330;2793;5901;5323;NotDone
On;On;BestEffort;On;Off;On;Sip;Sip;H323;TCP;TCP;Tls;Host;Host;Relay;1050;593;867;3414;1876;678;5822;376;5318;2058;3057;5274;NotDone
BestEffort;BestEffort;BestEffort;Off;Off;On;Sip;Auto;Sip;TCP;TCP;Auto;Host;Host;Relay;846;578;1447;1254;4348;1425;5822;402;80;5603;5372;5989;NotDone
On;On;Off;On;On;On;Sip;Sip;H323;TCP;TCP;UDP;Host;Host;Relay;1207;589;1368;1254;1876;1473;5822;376;5596;5203;5709;5286;NotDone
BestEffort;BestEffort;Off;Off;Off;On;Sip;Sip;Auto;TCP;TCP;TCP;Host;Host;Relay;1146;679;956;1254;2126;2729;5822;376;5596;1618;5347;5274;NotDone
On;On;BestEffort;On;On;On;Auto;Sip;Auto;TCP;Tls;Auto;Host;Host;Relay;1124;846;1025;1254;1876;4812;5822;376;4827;5603;3072;3315;NotDone
On;BestEffort;BestEffort;On;On;On;H323;Sip;Auto;TCP;TCP;Auto;Host;Host;Relay;1050;593;867;1450;2025;1332;5822;376;5094;1338;2781;4315;NotDone
On;On;BestEffort;Off;Off;On;Auto;Sip;Auto;TCP;TCP;Tls;Host;Host;Relay;1392;822;1088;1254;3875;1091;5822;376;2929;3934;1809;5457;NotDone
BestEffort;On;On;Off;On;On;Sip;Sip;Auto;TCP;TCP;Auto;Host;Relay;Rflx;826;589;1460;1254;1876;1694;5822;376;5596;3934;5709;5323;NotDone
On;On;On;On;Off;On;H323;H323;Auto;TCP;Tls;TCP;Host;Host;Relay;1076;822;1026;1254;1876;5877;5869;376;109;2514;1869;5323;NotDone
BestEffort;BestEffort;BestEffort;On;Off;On;Auto;Sip;Sip;TCP;TCP;TCP;Host;Host;Relay;1062;822;1368;1254;2126;1694;5822;376;80;3365;888;5286;NotDone
BestEffort;On;Off;On;On;On;Auto;Sip;H323;TCP;TCP;UDP;Host;Host;Rflx;1124;785;1390;1254;1876;1694;5822;378;1046;2793;3057;5286;NotDone
BestEffort;On;On;On;Off;On;Auto;Sip;H323;TCP;TCP;Auto;Host;Host;Rflx;695;822;867;1254;2126;2729;5822;376;5596;2632;5361;5274;NotDone
BestEffort;BestEffort;Off;On;On;On;Auto;Sip;H323;TCP;TCP;TCP;Host;Host;Relay;1146;846;956;1254;2126;4857;5822;376;5318;2793;3057;5286;NotDone
On;On;On;On;Off;On;Auto;Sip;Auto;TCP;TCP;Auto;Host;Host;Relay;1124;633;1381;1254;2126;1694;5822;376;5596;3934;5709;5286;NotDone
BestEffort;On;On;Off;Off;On;Auto;Sip;Auto;TCP;TCP;UDP;Host;Host;Relay;1062;822;1368;1254;1876;1473;5822;488;3445;5635;327;5273;NotDone
On;BestEffort;Off;On;Off;On;Sip;Sip;Auto;TCP;TCP;Tls;Host;Host;Relay;619;822;919;181;2126;1694;5822;376;5596;4009;5361;5989;NotDone
On;On;On;On;On;On;Sip;Sip;H323;TCP;TCP;TCP;Host;Host;Relay;1146;679;956;1254;4906;4036;5822;376;4567;5344;5636;5989;NotDone
BestEffort;On;BestEffort;On;Off;On;Auto;H323;Auto;TCP;TCP;TCP;Host;Host;Relay;1188;715;1368;1254;4429;2910;5822;376;1387;4686;5901;5323;NotDone
BestEffort;BestEffort;On;On;On;On;Sip;Sip;Auto;TCP;TCP;Tls;Host;Host;Rflx;1050;593;1460;1254;1876;766;5822;1367;5596;5203;3057;5286;NotDone
BestEffort;On;Off;Off;Off;On;Auto;Sip;Sip;TCP;TCP;UDP;Host;Host;Rflx;1146;679;956;1254;2126;4332;5822;376;1232;5603;5636;5989;NotDone
BestEffort;BestEffort;Off;On;Off;On;Auto;Sip;Auto;TCP;TCP;Tls;Host;Host;Relay;619;822;919;181;2126;1694;5822;376;5596;4009;5361;5989;NotDone
On;On;BestEffort;On;Off;On;H323;Sip;Auto;TCP;TCP;Auto;Host;Host;Relay;1124;846;1287;1254;1876;842;5822;376;109;1923;2616;5286;NotDone
BestEffort;BestEffort;Off;On;Off;On;Sip;Sip;H323;TCP;TCP;TCP;Host;Host;Relay;1062;822;1368;1254;2126;1694;5822;376;80;3365;888;5286;NotDone
On;BestEffort;On;On;On;On;Sip;Sip;H323;TCP;TCP;TCP;Host;Host;Relay;1146;679;956;1254;2126;2729;5822;376;5596;2793;5901;5323;NotDone
BestEffort;On;On;Off;Off;On;Sip;Sip;H323;TCP;TCP;TCP;Host;Host;Relay;1050;593;867;1254;2126;2729;5822;376;5596;1618;5361;5274;NotDone
BestEffort;BestEffort;Off;Off;Off;On;H320;Sip;Sip;TCP;TCP;Auto;Host;Host;Rflx;683;607;1046;1254;1876;1694;5822;273;981;3455;5361;5286;NotDone
On;On;BestEffort;On;Off;On;H323;Sip;Auto;TCP;TCP;Auto;Host;Host;Relay;1146;846;1287;3396;1876;225;5822;376;80;5603;209;5989;NotDone
Off;On;On;Off;On;On;Sip;Sip;Sip;TCP;TCP;Tls;Host;Host;Relay;1062;671;1368;1254;2126;1694;5822;376;5318;2793;3057;5274;NotDone
On;On;On;Off;Off;On;Sip;Sip;H323;TCP;TCP;UDP;Host;Host;Relay;1146;657;1287;1254;1876;1694;5822;376;1046;1618;5361;5274;NotDone
On;On;BestEffort;Off;On;On;Auto;Sip;Sip;TCP;TCP;Auto;Host;Host;Host;1173;657;1285;1254;1876;223;5822;376;109;1923;5709;520;NotDone
On;On;On;Off;Off;On;Auto;Sip;H320;TCP;TCP;Tls;Host;Host;Relay;1029;593;1368;1254;3408;1694;5822;2423;1531;4025;2602;5323;NotDone
On;On;Off;On;Off;On;Auto;Sip;Auto;TCP;TCP;Tls;Host;Host;Rflx;941;589;1368;1254;1876;1694;5822;376;5596;2793;2616;5286;NotDone
BestEffort;On;On;Off;Off;On;Sip;Sip;H323;TCP;TCP;UDP;Host;Host;Rflx;1050;822;1368;1254;2126;1694;5822;644;5318;2793;3057;5989;NotDone
BestEffort;BestEffort;BestEffort;On;On;On;Sip;Sip;Auto;TCP;TCP;Tls;Host;Host;Relay;1029;593;1368;971;2126;1694;5822;669;5318;2793;3057;5274;NotDone
BestEffort;BestEffort;Off;Off;Off;On;Auto;Sip;Auto;TCP;TCP;TCP;Host;Relay;Rflx;826;589;1460;4302;2167;1694;5822;376;4690;4489;2432;5273;NotDone
Off;BestEffort;BestEffort;Off;On;On;Sip;Sip;H323;TCP;TCP;Tls;Host;Host;Host;769;589;1368;4465;2126;1694;5739;488;3445;3680;2432;5273;NotDone
On;BestEffort;On;Off;Off;On;Sip;Sip;H323;TCP;TCP;TCP;Host;Host;Relay;1146;679;956;1254;2126;2729;5822;376;4567;5635;327;5989;NotDone
BestEffort;BestEffort;Off;On;Off;On;H320;Sip;Sip;TCP;TCP;UDP;Host;Host;Rflx;796;644;1368;1254;1876;1473;5822;376;5596;3455;3057;5286;NotDone
Off;On;BestEffort;Off;On;On;Sip;Sip;Auto;TCP;TCP;Tls;Host;Host;Relay;769;589;1368;4465;2126;1694;5822;1848;5596;3526;916;5274;NotDone
On;BestEffort;Off;On;On;On;Sip;Sip;H323;TCP;TCP;UDP;Host;Host;Relay;1207;589;1368;1254;1876;1473;5822;376;5596;5203;5709;5286;NotDone
BestEffort;On;On;On;On;On;Sip;Sip;H323;TCP;TCP;TCP;Host;Host;Relay;619;822;1368;1254;2126;1694;5822;644;5318;2793;3057;5286;NotDone
On;BestEffort;BestEffort;Off;Off;On;H323;Sip;Auto;TCP;TCP;Auto;Host;Host;Relay;1124;846;956;4846;1876;1694;5822;376;1547;1923;3070;5274;NotDone
BestEffort;BestEffort;Off;Off;Off;On;Auto;Auto;Sip;Tls;TCP;Tls;Relay;Host;Rflx;619;822;1026;1254;1135;1694;5822;488;3445;1125;327;5273;NotDone
On;BestEffort;On;On;On;On;Sip;Sip;H323;TCP;TCP;Tls;Host;Host;Rflx;664;589;1460;1254;1876;513;5822;376;5596;3934;5709;5274;NotDone
On;BestEffort;Off;Off;Off;On;Auto;Sip;Auto;TCP;TCP;UDP;Host;Host;Rflx;796;721;969;1254;1876;796;5822;376;109;1923;5361;5323;NotDone
On;BestEffort;BestEffort;Off;On;On;H323;Sip;H320;Tls;TCP;TCP;Host;Host;Rflx;1222;822;1368;1254;2126;1694;5822;136;5596;3934;327;5989;NotDone
On;BestEffort;BestEffort;Off;On;On;Sip;Sip;Auto;TCP;TCP;Tls;Host;Host;Relay;1029;822;1368;1254;2126;1694;5822;644;5318;2793;3057;5286;NotDone
On;BestEffort;On;On;Off;On;Auto;Sip;H323;TCP;TCP;TCP;Host;Host;Rflx;695;677;1023;1254;1876;2599;5822;376;3889;3934;916;5274;NotDone
BestEffort;On;Off;Off;Off;On;H320;Sip;Sip;TCP;TCP;Auto;Host;Host;Rflx;1124;578;1492;1254;1876;1694;5822;376;2929;3934;5361;5274;NotDone
On;On;Off;On;On;On;Auto;Sip;Auto;TCP;Tls;TCP;Host;Host;Relay;1305;679;956;1650;1876;1694;5822;376;4974;5203;2192;5286;NotDone
BestEffort;BestEffort;Off;Off;Off;On;Auto;Auto;Sip;TCP;TCP;Auto;Host;Host;Relay;1050;593;1460;1254;1876;4070;5822;376;3525;5635;3070;5274;NotDone
BestEffort;BestEffort;On;On;On;On;Sip;Sip;H323;TCP;TCP;TCP;Host;Host;Relay;1050;593;1460;3421;2126;1694;5822;2578;5318;2793;3057;5274;NotDone
On;BestEffort;Off;Off;Off;On;Auto;Sip;Auto;TCP;TCP;Auto;Host;Relay;Rflx;826;589;1460;4302;1876;1694;5822;376;4690;4489;5333;5323;NotDone
BestEffort;BestEffort;Off;Off;Off;On;Auto;Sip;H323;Tls;TCP;Auto;Host;Host;Relay;1076;822;1026;1254;1876;5877;5869;376;109;2793;1869;5323;NotDone
Off;BestEffort;On;Off;On;On;Sip;Sip;Auto;TCP;TCP;Tls;Host;Host;Relay;1029;593;1368;971;3408;1665;5822;2423;3937;3365;800;5286;NotDone
BestEffort;BestEffort;Off;On;On;On;H320;Sip;Sip;TCP;TCP;UDP;Host;Host;Rflx;796;721;969;1254;1876;796;5822;376;109;1923;5361;5323;NotDone
On;On;Off;On;On;On;Sip;Sip;H323;TCP;TCP;Tls;Host;Host;Relay;1146;679;956;1254;2126;2729;5822;376;5596;1618;5361;5274;NotDone
On;BestEffort;BestEffort;Off;On;On;Sip;Sip;H323;TCP;TCP;UDP;Host;Host;Relay;1207;589;1368;1254;1876;1473;5822;376;3679;1618;5361;5274;NotDone
On;On;Off;On;Off;On;Auto;Sip;Sip;TCP;TCP;UDP;Host;Rflx;Relay;965;593;1460;1254;2126;2729;5822;376;5596;2632;5361;5274;NotDone
BestEffort;BestEffort;Off;On;Off;On;Sip;Sip;Auto;TCP;TCP;TCP;Host;Host;Rflx;1118;593;1368;971;3408;1694;5822;2423;5749;4150;800;5286;NotDone
BestEffort;BestEffort;On;Off;Off;On;Auto;Sip;Auto;TCP;UDP;Tls;Relay;Host;Relay;619;822;1026;1254;1135;1694;5822;488;3445;1125;327;5273;NotDone
On;On;On;On;On;On;Auto;Sip;H323;TCP;TCP;Auto;Host;Host;Relay;1124;846;956;1254;1876;5036;5822;376;5460;2872;916;5274;NotDone
On;BestEffort;BestEffort;Off;On;On;Sip;Sip;H323;TCP;TCP;Tls;Host;Host;Host;769;589;1368;1822;1138;1694;5739;488;3445;3680;2432;5273;NotDone
On;On;BestEffort;On;Off;On;H323;Sip;H323;TCP;TCP;Auto;Host;Host;Relay;1124;846;1287;1254;1876;225;5822;376;109;5635;327;5273;NotDone
BestEffort;BestEffort;BestEffort;On;Off;On;Auto;Sip;Sip;TCP;TCP;Auto;Host;Host;Rflx;1124;578;1492;1254;1876;1694;5822;376;2929;3934;5361;5274;NotDone
BestEffort;BestEffort;Off;On;On;On;Sip;Sip;H323;TCP;TCP;TCP;Host;Host;Relay;941;778;1368;1254;2126;1694;5822;644;5318;2793;3057;5286;NotDone
BestEffort;On;Off;Off;On;On;Sip;Sip;Auto;TCP;TCP;UDP;Host;Host;Relay;1050;593;867;3414;220;678;5822;376;4827;3083;3070;5274;NotDone
BestEffort;BestEffort;Off;Off;Off;On;H320;Sip;H323;TCP;TCP;Tls;Host;Host;Rflx;695;822;1023;1254;2126;1694;5822;376;5596;1189;5361;5989;NotDone
On;BestEffort;Off;Off;On;On;Auto;Sip;Auto;TCP;TCP;UDP;Host;Host;Relay;1207;589;1368;1254;1876;1473;5822;2434;4567;5635;1811;5989;NotDone
On;BestEffort;On;On;On;On;Sip;Sip;H323;TCP;TCP;Tls;Host;Host;Rflx;926;805;1023;1254;3099;4831;5822;762;4923;3839;916;5989;NotDone
On;On;Off;On;Off;On;Auto;Sip;H320;TCP;TCP;TCP;Host;Relay;Rflx;826;589;1460;4302;1876;4424;5822;376;4690;5603;209;5989;NotDone
BestEffort;BestEffort;On;On;On;On;Sip;Sip;Sip;TCP;TCP;Auto;Host;Host;Rflx;1118;593;1368;971;3408;1694;5822;376;2929;3934;5361;5274;NotDone
On;BestEffort;BestEffort;Off;On;On;Sip;Sip;Auto;TCP;TCP;Tls;Host;Host;Rflx;1050;593;867;1254;2126;890;5822;376;5330;2793;5901;5323;NotDone
On;On;BestEffort;On;Off;On;Auto;Sip;Sip;TCP;TCP;UDP;Host;Host;Relay;965;593;1460;1254;1876;5323;5822;402;4690;5603;209;1358;NotDone
BestEffort;On;Off;On;On;On;Auto;Sip;H323;TCP;TCP;UDP;Host;Host;Rflx;1146;679;956;1679;2126;2729;5822;376;5596;1618;5361;5274;NotDone
Off;BestEffort;BestEffort;On;On;On;Sip;Sip;Sip;TCP;TCP;Auto;Host;Host;Relay;1143;738;1443;1450;1017;1521;5822;1084;5596;3455;3057;5274;NotDone
BestEffort;BestEffort;BestEffort;On;On;On;Sip;Sip;Sip;TCP;TCP;TCP;Host;Host;Relay;1118;644;1368;1254;3672;2484;5822;2574;4567;5635;327;5989;NotDone
BestEffort;BestEffort;Off;Off;Off;On;H320;Sip;H320;TCP;TCP;Tls;Host;Host;Rflx;619;822;1368;1254;2126;1694;5822;376;3525;5635;3070;5274;NotDone
BestEffort;On;Off;On;Off;On;Auto;Sip;Auto;TCP;TCP;Tls;Host;Host;Relay;1062;589;1457;1254;1876;4641;5822;376;5330;2793;5901;5323;NotDone
BestEffort;BestEffort;Off;On;Off;On;Auto;Sip;Sip;TCP;UDP;TCP;Host;Rflx;Rflx;1308;578;1447;1254;4906;4036;5822;376;4567;5344;5636;5989;NotDone
On;BestEffort;BestEffort;On;On;On;H323;Sip;Sip;TCP;TCP;Tls;Host;Host;Relay;1139;822;942;3384;2126;1694;5822;376;2929;5591;5709;5286;NotDone
BestEffort;On;BestEffort;On;On;On;Sip;Sip;H323;TCP;TCP;TCP;Host;Host;Relay;1146;657;1287;1254;1876;1694;5822;376;1046;2793;3057;5286;NotDone
On;On;On;On;On;On;Sip;Sip;Auto;TCP;TCP;UDP;Host;Host;Relay;1050;593;867;3414;220;678;5822;376;4827;3083;3070;5274;NotDone
BestEffort;BestEffort;Off;Off;Off;On;H320;Sip;Sip;TCP;TCP;UDP;Host;Host;Host;1094;589;1460;1254;1876;874;5822;376;80;5695;5361;5323;NotDone
BestEffort;BestEffort;Off;Off;On;On;Sip;Sip;H323;TCP;TCP;Tls;Host;Host;Rflx;1029;667;919;1254;2126;1236;5822;376;5596;2793;1869;5323;NotDone
BestEffort;On;BestEffort;On;Off;On;Sip;Sip;Sip;TCP;TCP;Auto;Host;Host;Rflx;619;822;919;1254;2482;1694;5822;376;109;1923;5709;5286;NotDone
On;BestEffort;Off;Off;Off;On;Auto;Sip;Auto;TCP;TCP;Auto;Host;Relay;Rflx;826;589;1460;4302;1876;1694;5822;376;4690;4489;209;5274;NotDone
On;BestEffort;Off;On;On;On;Sip;Sip;H323;TCP;TCP;TCP;Host;Host;Relay;1050;593;867;3414;1876;1694;5739;488;3445;5635;327;5273;NotDone
On;BestEffort;BestEffort;Off;On;On;H323;Sip;Auto;TCP;TCP;Auto;Host;Host;Relay;1124;846;1287;1254;1876;225;5822;376;109;5635;327;5273;NotDone
BestEffort;On;On;On;On;Off;Sip;Sip;H323;TCP;TCP;TCP;Host;Relay;Rflx;826;589;1460;5438;1876;1505;5822;376;80;3240;5901;5286;NotDone
On;BestEffort;BestEffort;On;Off;On;Auto;Sip;H323;TCP;TCP;Auto;Host;Host;Relay;1146;679;956;1254;2126;2729;5822;376;5596;1618;5361;5274;NotDone
On;BestEffort;BestEffort;Off;Off;On;Sip;Sip;Sip;TCP;TCP;Tls;Host;Host;Relay;803;822;942;3384;2126;1694;5822;376;4827;5203;3057;5274;NotDone
On;BestEffort;Off;On;On;On;Sip;Sip;H323;Tls;TCP;TCP;Host;Host;Rflx;1400;657;1368;1650;1876;1694;5822;376;4974;5203;5709;5286;NotDone
On;BestEffort;On;On;Off;On;Auto;Sip;H323;TCP;TCP;TCP;Host;Host;Relay;1173;657;1287;1254;1876;1694;5822;376;2929;3934;1809;5274;NotDone
On;BestEffort;Off;Off;On;On;Sip;Sip;H323;TCP;TCP;Auto;Host;Host;Rflx;1118;593;1368;971;3408;1694;5822;2423;5749;4150;800;5286;NotDone
On;BestEffort;BestEffort;Off;Off;Off;Auto;H323;H323;TCP;TCP;TCP;Host;Host;Rflx;1495;657;1391;1650;1876;1694;5571;376;2155;5203;5709;5286;NotDone
BestEffort;On;Off;Off;Off;On;H320;Sip;Sip;TCP;TCP;Tls;Host;Host;Rflx;941;589;1368;5438;2014;1694;5822;376;5596;2793;5901;5323;NotDone
BestEffort;BestEffort;Off;On;Off;On;H320;H320;H320;TCP;Tls;Tls;Host;Relay;Rflx;1308;578;1180;1254;1876;1694;5822;376;2929;3934;5361;5274;NotDone
BestEffort;BestEffort;Off;On;On;On;Sip;Sip;Auto;TCP;TCP;Tls;Host;Host;Rflx;1374;589;1008;3554;1876;3966;5822;376;5596;5203;5361;5274;NotDone
On;BestEffort;Off;On;Off;On;Sip;Sip;Sip;TCP;TCP;Tls;Host;Host;Relay;1124;687;1287;1254;3878;1694;5822;376;80;5603;5636;5989;NotDone
Off;On;On;On;On;On;Sip;Sip;H323;TCP;TCP;TCP;Host;Host;Relay;619;822;1368;1254;2126;1694;5822;644;5318;2793;3057;5286;NotDone
On;On;BestEffort;On;Off;On;Sip;Sip;H323;TCP;TCP;Tls;Host;Host;Relay;1050;593;867;3414;1876;678;5822;376;4827;5603;3070;2463;NotDone
On;On;BestEffort;Off;On;On;Auto;Sip;Sip;TCP;TCP;Auto;Host;Host;Relay;619;822;919;181;2126;1694;5822;376;5596;4009;5361;5989;NotDone
On;On;On;On;Off;On;Auto;Auto;Auto;TCP;TCP;Auto;Host;Host;Relay;1124;633;1381;1254;2126;1694;5822;376;5596;3934;5693;5274;NotDone
BestEffort;BestEffort;On;On;On;On;Sip;Sip;Sip;TCP;TCP;Auto;Host;Host;Rflx;1118;593;1368;971;2126;2729;5822;376;5596;1618;5361;5274;NotDone
On;On;Off;On;On;On;Sip;Sip;H323;TCP;TCP;Tls;Host;Host;Relay;1161;822;1443;1450;1017;1521;5869;376;109;2793;1869;5323;NotDone
BestEffort;BestEffort;On;On;On;On;Sip;Sip;Sip;TCP;TCP;Tls;Relay;Host;Rflx;826;589;1460;1254;1876;1141;5822;376;2639;5635;5636;5989;NotDone
BestEffort;BestEffort;Off;On;On;On;Sip;Sip;Auto;TCP;TCP;Tls;Host;Host;Host;769;589;1368;4465;2126;1694;5739;488;3445;3680;2432;5273;NotDone
On;On;BestEffort;On;Off;On;H323;Sip;Auto;TCP;TCP;Auto;Host;Host;Relay;1124;846;1287;1254;1876;842;5822;644;555;2793;3057;5286;NotDone
On;On;On;Off;Off;On;Sip;Sip;Auto;TCP;TCP;UDP;Host;Host;Host;769;589;1368;4465;2126;1694;5739;488;3445;3680;2432;5273;NotDone
Off;BestEffort;On;Off;On;On;Sip;Sip;Auto;TCP;TCP;Tls;Host;Host;Relay;1029;593;1368;971;3408;1665;5822;2423;80;3365;800;5286;NotDone
On;On;BestEffort;On;On;On;H323;Sip;Auto;TCP;TCP;Auto;Host;Host;Relay;1124;653;1287;1254;2126;2729;5822;376;5596;1618;5361;5274;NotDone
BestEffort;On;Off;Off;Off;On;H320;Sip;Sip;TCP;TCP;UDP;Host;Relay;Rflx;826;589;1460;1254;1876;1694;5822;376;5596;5692;5709;5989;NotDone
BestEffort;BestEffort;Off;Off;Off;On;Auto;Sip;Auto;TCP;TCP;TCP;Host;Relay;Rflx;796;822;1368;1254;3708;1694;5822;1367;5596;5203;3057;5286;NotDone
On;On;On;On;Off;On;Sip;Sip;H323;TCP;TCP;TCP;Host;Rflx;Rflx;1308;644;1006;1254;1876;1509;5822;402;1531;3839;1206;5989;NotDone
Off;On;On;On;On;On;Sip;Sip;Sip;TCP;TCP;Auto;Host;Host;Relay;619;822;1013;3421;2126;1694;5822;2371;4058;1703;2767;5274;NotDone
On;On;Off;On;Off;On;Auto;Sip;Auto;TCP;TCP;Tls;Rflx;Host;Relay;1207;610;899;1254;1876;1694;5622;376;5596;3934;5709;5989;NotDone
On;On;BestEffort;On;Off;On;Sip;Sip;H323;TCP;TCP;Tls;Host;Host;Relay;1050;593;867;3414;1876;678;5822;376;4827;5603;3070;5323;NotDone
BestEffort;On;BestEffort;Off;Off;On;Sip;Sip;Auto;TCP;TCP;TCP;Host;Host;Relay;1146;679;1378;1254;2126;2729;5822;376;5596;1618;5361;5274;NotDone
BestEffort;BestEffort;Off;On;On;On;Sip;Sip;H320;TCP;TCP;Auto;Host;Host;Rflx;1144;589;1457;1254;1876;1473;5822;376;5596;3455;3057;5286;NotDone
On;BestEffort;BestEffort;On;On;On;H323;Sip;H320;TCP;TCP;Tls;Host;Host;Host;950;589;1460;1254;1876;513;5822;376;5596;3934;5709;5286;NotDone
BestEffort;BestEffort;On;On;On;On;Sip;Sip;Auto;TCP;TCP;Tls;Host;Host;Relay;1377;589;1368;1254;1876;1694;5822;376;3716;3839;5914;5286;NotDone
On;On;Off;Off;On;On;Sip;Sip;H323;TCP;TCP;Tls;Host;Host;Relay;1161;822;1443;1450;1017;1521;5822;1084;5596;3455;3057;5286;NotDone
On;BestEffort;BestEffort;Off;On;On;Sip;Sip;H323;TCP;TCP;TCP;Host;Host;Relay;1207;602;1344;1254;5437;1694;5822;376;109;2831;209;5989;NotDone
On;BestEffort;Off;On;Off;On;Auto;Sip;Sip;Tls;TCP;TCP;Host;Rflx;Rflx;1308;578;1447;1254;4906;4036;5822;376;4567;5344;5636;5989;NotDone
BestEffort;On;Off;On;On;On;Sip;Sip;Auto;TCP;TCP;Tls;Host;Host;Relay;1143;738;1398;1636;1876;4857;5822;376;5391;1618;5361;5274;NotDone
BestEffort;BestEffort;Off;On;On;On;H320;Sip;Sip;TCP;TCP;UDP;Host;Host;Rflx;1124;633;1381;1254;2126;1694;5822;376;5596;3934;5693;5274;NotDone
On;BestEffort;BestEffort;On;On;On;Sip;Sip;H323;TCP;TCP;TCP;Host;Host;Relay;1212;593;1368;1254;3408;1694;5822;376;5318;2793;3057;5274;NotDone
BestEffort;BestEffort;Off;On;Off;On;Sip;Sip;Auto;TCP;TCP;Tls;Host;Host;Rflx;1222;822;1370;1254;2126;4327;5822;136;5596;3934;327;5989;NotDone
On;On;BestEffort;On;On;On;Sip;Sip;Auto;TCP;TCP;TCP;Host;Host;Relay;1050;792;1447;1254;1876;1473;5822;376;5330;2793;5901;5323;NotDone
On;On;Off;On;On;On;Sip;Sip;H323;TCP;TCP;Tls;Host;Host;Relay;1161;822;1443;1450;1017;1521;5822;1084;5596;3455;3057;5286;NotDone
BestEffort;On;Off;Off;Off;On;Auto;Sip;Sip;TCP;TCP;UDP;Host;Host;Rflx;1374;589;1008;534;1876;3966;5822;376;5596;5203;5709;5286;NotDone
On;On;BestEffort;On;On;On;Sip;Sip;H323;TCP;TCP;TCP;Host;Host;Relay;1146;657;1287;1254;1876;1694;5822;376;1046;2793;3057;5286;NotDone
On;BestEffort;BestEffort;On;On;On;Sip;Sip;Sip;TCP;TCP;TCP;Host;Relay;Rflx;826;589;1460;5438;1876;1505;5822;376;4301;3240;5901;5286;NotDone
On;On;Off;On;On;On;Auto;Sip;H323;TCP;TCP;TCP;Host;Host;Relay;1124;785;1287;1254;1017;1521;5822;1084;5596;3455;3057;5286;NotDone
On;BestEffort;On;Off;Off;On;Auto;Sip;Auto;TCP;TCP;Tls;Host;Relay;Rflx;826;589;874;1254;3671;513;5822;376;1975;3934;5709;5286;NotDone
On;On;BestEffort;On;Off;On;Auto;Sip;Sip;TCP;TCP;Auto;Host;Host;Relay;1050;593;867;1254;2126;2729;5822;376;5596;1618;5361;5274;NotDone
BestEffort;BestEffort;Off;Off;Off;On;Auto;Sip;H320;UDP;TCP;TCP;Host;Host;Rflx;826;589;1460;1254;1876;4296;5822;5487;5753;5750;916;5989;NotDone
On;BestEffort;BestEffort;Off;On;On;H323;Sip;Auto;TCP;TCP;Auto;Host;Host;Relay;908;846;956;324;1876;1694;5822;378;1046;2793;3057;5286;NotDone
BestEffort;On;On;Off;Off;On;Sip;Sip;H323;TCP;TCP;UDP;Host;Relay;Relay;1146;679;956;1254;1876;513;5822;376;3167;5956;5361;5989;NotDone
On;On;On;On;On;On;Sip;Sip;H323;UDP;TCP;Auto;Host;Relay;Rflx;1280;589;1460;1254;1876;4690;5822;376;2868;5635;3070;5274;NotDone
BestEffort;BestEffort;Off;On;Off;On;H320;Sip;Sip;TCP;TCP;Tls;Host;Host;Rflx;1062;679;883;1254;2126;2729;5822;376;5596;1618;5361;5274;NotDone
BestEffort;BestEffort;Off;Off;On;On;Auto;Sip;Sip;TCP;TCP;Auto;Host;Host;Relay;1050;593;867;1450;2025;1332;5822;376;5094;1338;2432;5273;NotDone
BestEffort;On;Off;Off;Off;On;Sip;Sip;H323;TCP;TCP;TCP;Host;Host;Relay;1050;593;867;1254;2126;2729;5822;376;5596;1618;5361;5274;NotDone
On;On;Off;Off;Off;On;Auto;Sip;H323;TCP;TCP;TCP;Host;Host;Relay;1050;593;1460;1254;1876;5323;5822;402;1595;5603;209;5989;NotDone
On;BestEffort;Off;On;Off;On;Auto;Sip;H320;Tls;TCP;TCP;Host;Rflx;Rflx;1308;644;1006;1254;1876;1509;5822;402;1531;3839;1206;5989;NotDone
On;BestEffort;BestEffort;On;Off;On;Auto;Auto;H323;TCP;TCP;TCP;Host;Host;Rflx;826;589;1460;1254;1876;5323;5822;402;4827;5603;5361;5274;NotDone
BestEffort;BestEffort;Off;Off;Off;On;Auto;Sip;H320;UDP;TCP;Tls;Host;Host;Rflx;826;589;1460;1254;1876;1141;5822;376;2639;5635;5636;5989;NotDone
BestEffort;BestEffort;Off;On;On;On;H320;Sip;Sip;TCP;TCP;Tls;Host;Host;Rflx;826;589;1460;1254;1876;1141;5822;376;2639;5635;5636;5989;NotDone
BestEffort;BestEffort;Off;On;On;On;H320;Sip;Sip;TCP;TCP;UDP;Host;Host;Rflx;796;822;1368;1254;3708;1694;5822;1367;5596;5203;3057;5286;NotDone
BestEffort;BestEffort;Off;On;Off;On;Auto;H323;Sip;TCP;TCP;UDP;Host;Host;Relay;1207;589;1368;1254;1876;5166;5822;4349;5596;5203;5709;5286;NotDone
On;On;On;Off;Off;On;Sip;Sip;H323;TCP;TCP;UDP;Host;Host;Relay;1205;644;1368;1254;1876;2147;5822;2574;5880;5635;327;5989;NotDone
BestEffort;BestEffort;BestEffort;On;On;On;Sip;Sip;H323;TCP;Tls;TCP;Host;Host;Relay;1145;822;1026;1254;1876;1521;5822;1084;5596;4162;3057;5286;NotDone
On;On;BestEffort;On;Off;On;Auto;Sip;Sip;TCP;TCP;UDP;Host;Host;Relay;965;593;1460;1254;1876;5323;5822;402;4690;5603;209;1358;NotDone
On;BestEffort;BestEffort;Off;On;On;Auto;Sip;Auto;TCP;TCP;UDP;Host;Host;Relay;1050;593;867;1254;1876;1694;5739;488;109;1923;5361;3943;NotDone
BestEffort;BestEffort;Off;On;On;On;Sip;Sip;Auto;TCP;TCP;Tls;Host;Host;Host;1374;589;1460;1254;2126;4857;5822;376;4584;5161;3070;5274;NotDone
BestEffort;On;On;On;Off;On;Auto;Sip;Auto;TCP;TCP;UDP;Host;Host;Rflx;664;800;1304;1254;1876;2866;5961;817;109;1923;5361;5274;NotDone
On;BestEffort;BestEffort;Off;Off;On;Sip;Sip;Sip;TCP;TCP;Tls;Host;Host;Rflx;1050;593;867;1254;2126;2729;5822;376;5596;1618;5361;5274;NotDone
On;On;On;Off;On;On;Sip;Sip;Sip;TCP;TCP;Tls;Host;Host;Relay;1062;671;1368;1254;2126;1694;5822;376;5318;2793;3057;5274;NotDone
On;On;Off;On;Off;On;Auto;Sip;Auto;TCP;Tls;TCP;Host;Relay;Rflx;826;589;1460;1254;1876;1694;5822;376;5596;3934;5709;5323;NotDone
BestEffort;BestEffort;BestEffort;Off;On;On;Sip;Sip;Auto;TCP;TCP;Tls;Host;Host;Relay;1207;610;899;1254;1876;1831;5822;376;4827;3083;3070;5274;NotDone
On;On;On;On;On;On;Auto;Sip;H323;TCP;TCP;TCP;Host;Host;Relay;1188;715;1368;1254;4429;1694;5739;488;3445;5635;327;5273;NotDone
On;BestEffort;BestEffort;On;Off;On;H323;Sip;Sip;TCP;TCP;Tls;Host;Host;Host;951;589;1460;1254;1876;1831;5822;376;4827;5203;3057;5274;NotDone
BestEffort;On;On;Off;Off;On;Sip;Sip;Auto;TCP;TCP;UDP;Host;Host;Relay;728;822;1368;1254;2126;1694;5822;644;5318;2793;3057;5274;NotDone
BestEffort;On;Off;Off;Off;On;Auto;Sip;H320;UDP;TCP;UDP;Host;Host;Host;826;589;1460;1254;1876;513;5739;488;2038;3531;3057;5538;NotDone
On;On;BestEffort;On;Off;On;Auto;H323;H323;TCP;TCP;Tls;Host;Host;Relay;619;822;1026;1254;1135;1694;5822;488;2309;5635;327;3194;NotDone
On;BestEffort;On;On;On;On;Auto;Sip;Sip;TCP;TCP;UDP;Host;Host;Host;826;589;1460;1254;1876;1509;5822;402;80;3365;800;5286;NotDone
BestEffort;BestEffort;On;Off;Off;On;Auto;Sip;Auto;TCP;TCP;Tls;Host;Relay;Rflx;826;589;874;1254;1876;513;5822;376;5596;3934;5709;5286;NotDone
On;BestEffort;BestEffort;On;On;On;Sip;Sip;H323;TCP;TCP;Tls;Host;Host;Rflx;664;738;1429;1650;1876;1694;5822;644;5460;1703;2767;5274;NotDone
Off;On;BestEffort;Off;On;On;Sip;Sip;H323;TCP;TCP;Tls;Host;Host;Relay;769;589;1368;4465;2126;1694;5822;376;5596;1618;3057;5274;NotDone
On;On;Off;On;On;On;Auto;Sip;H323;TCP;TCP;TCP;Host;Host;Relay;769;589;1368;4465;2126;1694;5822;164;109;2793;5333;5323;NotDone
On;BestEffort;BestEffort;Off;On;On;H323;Sip;Sip;TCP;TCP;UDP;Relay;Host;Relay;1124;687;1287;1254;2025;1332;5822;376;5094;1338;3093;1742;NotDone
BestEffort;BestEffort;Off;On;Off;On;H320;Sip;Sip;TCP;TCP;UDP;Host;Host;Rflx;796;822;1368;1254;3708;1694;5822;1367;5596;5203;3057;5286;NotDone
On;On;BestEffort;On;On;On;H323;Sip;Sip;TCP;TCP;Auto;Host;Host;Relay;1124;687;1287;1254;2025;1332;5822;376;5094;1338;3093;1742;NotDone
BestEffort;On;On;On;Off;On;Auto;Sip;H320;TCP;TCP;TCP;Host;Relay;Rflx;826;589;1460;4302;1876;4424;5822;376;4690;5603;209;5274;NotDone
BestEffort;BestEffort;Off;On;On;On;H320;Sip;Sip;TCP;TCP;UDP;Host;Host;Rflx;1134;589;1457;4302;4053;1694;5762;376;4690;5603;209;5989;NotDone
On;BestEffort;Off;Off;Off;On;Auto;Sip;Auto;TCP;TCP;Auto;Host;Relay;Rflx;826;589;1460;4302;1876;1694;5739;376;5596;3455;3057;5286;NotDone
On;On;On;Off;On;On;Sip;Sip;Sip;TCP;TCP;Auto;Host;Host;Relay;939;822;919;181;2126;1694;5822;376;5596;3934;5709;5286;NotDone
BestEffort;On;Off;On;Off;On;Sip;Sip;H320;TCP;TCP;Tls;Host;Host;Rflx;1308;578;1492;1254;1876;1473;5822;376;4567;5635;327;5989;NotDone
On;BestEffort;Off;Off;Off;On;Auto;Sip;H320;UDP;TCP;TCP;Host;Host;Rflx;664;800;1304;1254;1876;3975;5822;644;5318;2793;3057;5286;NotDone
BestEffort;On;BestEffort;On;Off;On;Sip;Sip;H323;TCP;TCP;TCP;Host;Host;Relay;1062;822;1368;1254;2126;1694;5822;376;80;3365;888;5286;NotDone
On;On;BestEffort;On;Off;On;H323;Sip;H323;TCP;TCP;Auto;Host;Host;Relay;1124;846;1287;1254;1876;225;5822;376;109;5635;327;5273;NotDone
On;On;Off;On;On;On;Auto;Sip;H323;TCP;TCP;TCP;Host;Host;Relay;769;589;1368;4465;2126;1694;5822;164;109;2793;5333;5323;NotDone
BestEffort;BestEffort;Off;Off;On;On;Sip;Sip;H320;TCP;TCP;Auto;Host;Host;Rflx;619;822;1368;1254;2126;1694;5822;644;5318;2793;3057;5274;NotDone
Off;BestEffort;On;On;On;On;Sip;Sip;Auto;TCP;TCP;Tls;Host;Host;Relay;1207;610;899;1254;1876;1831;5822;376;4827;3083;3070;5274;NotDone
BestEffort;On;Off;Off;Off;On;H320;Sip;Sip;TCP;TCP;Tls;Host;Host;Rflx;1200;805;1023;1254;2126;2729;5822;376;5596;1618;5361;5274;NotDone
On;On;BestEffort;On;Off;On;Sip;Auto;H323;Auto;TCP;Tls;Host;Host;Relay;1062;822;1368;1254;1876;1473;5822;488;3445;5635;327;5273;NotDone
On;On;Off;On;Off;On;Auto;Sip;Auto;TCP;TCP;Tls;Host;Rflx;Relay;1062;589;1457;4092;1876;4641;5822;376;5330;2793;5901;5323;NotDone
On;BestEffort;BestEffort;On;On;On;H323;Sip;Sip;TCP;TCP;Tls;Host;Host;Relay;1212;593;1482;1254;3408;1694;5822;376;80;5956;5361;5323;NotDone
On;BestEffort;BestEffort;Off;On;On;Sip;Sip;H323;TCP;TCP;TCP;Host;Host;Rflx;664;800;1304;1254;1876;2866;5961;817;109;1923;5361;5274;NotDone
On;BestEffort;BestEffort;On;On;On;Auto;Sip;Auto;TCP;TCP;UDP;Host;Host;Relay;1146;679;956;1254;1876;513;5822;376;3167;5956;5361;5989;NotDone
BestEffort;On;BestEffort;Off;Off;On;Sip;Sip;Sip;TCP;TCP;Auto;Host;Host;Rflx;619;822;919;1254;1876;2866;5961;817;4711;1923;5361;5274;NotDone
On;BestEffort;On;On;On;On;Sip;Sip;H323;TCP;TCP;TCP;Host;Host;Relay;1050;593;867;1450;2025;1332;5822;376;5094;1338;2432;5273;NotDone
On;On;BestEffort;On;Off;On;H323;Sip;Auto;Auto;TCP;UDP;Host;Host;Relay;1050;593;867;3414;1876;678;5822;376;4827;5603;3070;5274;NotDone
On;BestEffort;BestEffort;Off;On;On;Sip;Sip;H323;TCP;TCP;TCP;Host;Host;Relay;1207;703;1344;1254;1876;4641;5822;5250;5330;2793;5901;5323;NotDone
On;On;BestEffort;On;On;On;H323;Sip;Sip;TCP;TCP;Auto;Host;Host;Relay;1124;687;1287;1254;2025;1332;5822;376;5094;1338;3093;1742;NotDone
BestEffort;BestEffort;Off;On;Off;On;H320;Sip;Sip;TCP;TCP;UDP;Host;Host;Rflx;796;822;969;1254;2137;1694;5822;239;80;1490;5361;5584;NotDone
On;BestEffort;Off;Off;On;On;Sip;Sip;Auto;TCP;TCP;Tls;Host;Host;Relay;619;697;1013;3421;2126;1493;5822;376;5596;5131;2771;5294;NotDone
BestEffort;BestEffort;Off;On;On;On;Sip;Sip;H320;TCP;TCP;Tls;Host;Host;Rflx;926;805;1023;1254;3099;4831;5822;2907;4923;4577;916;5989;NotDone
BestEffort;On;Off;Off;Off;On;H320;Sip;Sip;TCP;TCP;UDP;Host;Host;Rflx;826;589;1368;1254;1876;1473;5822;376;4567;5635;327;5989;NotDone
Off;On;BestEffort;Off;On;On;Sip;Sip;Auto;TCP;TCP;Tls;Host;Host;Relay;769;589;1368;4465;2126;1694;5822;1848;5596;3526;916;5274;NotDone
On;BestEffort;BestEffort;On;Off;On;H323;Sip;Sip;TCP;TCP;Tls;Host;Host;Relay;1161;822;1443;1450;1017;1521;5869;376;109;2793;1869;5323;NotDone
BestEffort;BestEffort;Off;On;Off;On;Sip;Sip;H320;TCP;TCP;TCP;Host;Host;Relay;1146;679;956;1254;2126;2729;5822;376;4885;1618;5361;5323;NotDone
On;On;On;Off;On;On;H323;Sip;Auto;TCP;TCP;UDP;Host;Host;Relay;1050;593;1304;1254;2126;1694;5822;376;5596;3934;5361;5989;NotDone
BestEffort;BestEffort;Off;On;Off;On;H320;H320;H320;TCP;Tls;Tls;Host;Relay;Rflx;1308;578;1492;1254;1876;1694;5822;376;2038;3531;3057;5286;NotDone
On;BestEffort;BestEffort;Off;Off;On;Sip;Auto;H323;TCP;TCP;Auto;Host;Host;Relay;1124;633;1381;1254;2126;1694;5822;376;5596;3934;5693;5286;NotDone
On;BestEffort;On;On;On;On;Auto;Sip;Sip;TCP;TCP;UDP;Host;Host;Host;826;589;1460;1254;1876;1509;5869;376;109;2793;1869;5323;NotDone
BestEffort;BestEffort;BestEffort;Off;On;On;Auto;Sip;H323;Tls;TCP;Auto;Host;Host;Rflx;1171;633;1287;1254;2482;1694;5822;376;109;1923;5709;5286;NotDone
On;On;On;Off;On;On;H323;Auto;Auto;TCP;TCP;UDP;Host;Host;Relay;1050;593;867;3414;1876;1694;5739;488;3445;5635;659;5274;NotDone
On;BestEffort;BestEffort;Off;On;On;Sip;Sip;H323;UDP;TCP;Auto;Host;Host;Rflx;826;589;1460;1254;1876;5323;5822;402;4827;5603;5361;5274;NotDone
On;BestEffort;BestEffort;Off;On;On;Auto;Sip;Auto;TCP;TCP;UDP;Host;Host;Rflx;1308;578;1492;4432;1876;1694;5822;4466;296;3934;5361;5964;NotDone
BestEffort;BestEffort;Off;Off;Off;On;Auto;Sip;H320;UDP;TCP;TCP;Host;Host;Rflx;826;589;1460;1254;1876;4296;5822;5487;5753;5750;916;5989;NotDone
BestEffort;BestEffort;Off;Off;Off;On;Auto;Sip;Sip;TCP;TCP;Tls;Host;Host;Relay;1062;822;1368;1254;1876;1473;5822;1124;4567;5344;5636;5989;NotDone
BestEffort;BestEffort;Off;On;Off;On;H320;Sip;Sip;TCP;TCP;Tls;Host;Host;Rflx;1118;644;1417;3904;5864;426;5822;376;80;5603;209;5989;NotDone
BestEffort;BestEffort;Off;On;Off;On;Auto;H323;Sip;TCP;TCP;Auto;Host;Host;Rflx;1143;738;1046;1254;1876;1694;5822;273;5795;3455;5361;5286;NotDone
On;BestEffort;BestEffort;On;Off;On;Auto;Sip;Sip;Auto;Tls;Tls;Host;Host;Relay;1146;846;1435;1254;1876;1694;5822;376;4827;5603;3070;3451;NotDone
On;BestEffort;Off;On;Off;On;Auto;Sip;Auto;TCP;TCP;Tls;Host;Host;Relay;619;822;919;181;2126;1694;5822;376;5596;4009;5361;5989;NotDone
On;BestEffort;BestEffort;Off;On;On;H323;Sip;Auto;TCP;TCP;Auto;Host;Host;Relay;1050;593;867;1254;5518;4577;5822;376;5596;1618;5361;5274;NotDone
