Encryption; Encryption_s2; Encryption_s3;ListenPort;ListenPort_s2;ListenPort_s3;DefaultCall_Protocol;DefaultCall_Protocol_s2;DefaultCall_Protocol_s3;DefaultTransport;DefaultTransport_s2;DefaultTransport_s3;Ice_DefaultCandidate;Ice_DefaultCandidate_s2;Ice_DefaultCandidate_S3;MTU;MTU_s2;MTU_s3;DefaultCall_Rate;DefaultCall_Rate_s2;DefaultCall_Rate_s3;MaxTransmitCallRate;MaxTransmitCallRate_s2;MaxTransmitCallRate_s3;MaxReceiveCallRate;MaxReceiveCallRate_s2;MaxReceiveCallRate_s3;Done
On;BestEffort;BestEffort;Off;Off;Off;H320;H323;Auto;TCP;Auto;Auto;Relay;Host;Host;603;988;1207;3071;3271;4637;2045;2025;5837;2541;5525;1888;ConnectedConnected
BestEffort;On;BestEffort;On;Off;On;H323;H320;Sip;Auto;UDP;Tls;Host;Relay;Rflx;1276;629;997;2172;4645;5417;4143;126;695;1266;1802;4713;FailedConnected
BestEffort;Off;Off;On;On;Off;Sip;Auto;Auto;Tls;Tls;UDP;Relay;Rflx;Relay;666;643;942;4492;2652;5146;5254;3604;5832;1479;2317;358;FailedFailed
On;Off;Off;Off;On;On;H323;H323;Sip;TCP;Tls;Auto;Host;Relay;Host;1058;952;986;4779;1148;2079;131;1122;3084;5035;1940;1427;FailedConnected
Off;On;BestEffort;On;On;Off;Auto;H323;Auto;TCP;UDP;Tls;Relay;Host;Host;691;1148;1037;235;4733;2833;4840;2123;2636;3267;2339;5001;ConnectedConnected
On;On;Off;On;On;On;H320;Sip;Sip;Tls;Tls;TCP;Host;Relay;Rflx;1463;1267;1466;5603;1007;2127;3084;5642;3352;165;4010;2229;ConnectedConnected
On;Off;BestEffort;Off;Off;On;Auto;H323;Sip;UDP;Tls;Auto;Relay;Host;Host;1200;836;720;4508;3462;3956;3843;2569;1814;1636;2193;4341;ConnectedConnected
BestEffort;On;Off;On;On;On;Auto;H323;Sip;Auto;UDP;Tls;Host;Relay;Relay;1281;1500;1313;1167;4803;2281;4197;5875;1263;5992;1845;1742;ConnectedConnected
BestEffort;Off;On;On;On;On;H323;H323;Sip;UDP;Auto;TCP;Host;Rflx;Rflx;1294;588;1064;4257;5094;3128;1242;4809;3763;4841;2449;4316;FailedFailed
BestEffort;Off;On;On;Off;Off;Auto;Auto;Auto;TCP;TCP;Auto;Rflx;Host;Rflx;1468;1330;583;5432;3287;3542;3377;4430;3779;280;2146;181;FailedFailed
