Encryption; Encryption_s2; Encryption_s3;ListenPort;ListenPort_s2;ListenPort_s3;DefaultCall_Protocol;DefaultCall_Protocol_s2;DefaultCall_Protocol_s3;DefaultTransport;DefaultTransport_s2;DefaultTransport_s3;Ice_DefaultCandidate;Ice_DefaultCandidate_s2;Ice_DefaultCandidate_S3;MTU;MTU_s2;MTU_s3;DefaultCall_Rate;DefaultCall_Rate_s2;DefaultCall_Rate_s3;MaxTransmitCallRate;MaxTransmitCallRate_s2;MaxTransmitCallRate_s3;MaxReceiveCallRate;MaxReceiveCallRate_s2;MaxReceiveCallRate_s3;Done
Off;On;Off;Off;Off;Off;H320;H320;Auto;Tls;Tls;Tls;Host;Host;Host;1130;906;749;3814;4313;1898;5921;2692;2154;84;3702;2235;FailedConnected
On;On;On;Off;On;On;H320;Sip;H323;Tls;Auto;Tls;Host;Host;Host;1165;906;1065;1640;3312;1896;4106;2652;2154;84;3702;2235;ConnectedConnected
On;BestEffort;BestEffort;On;On;On;H323;H323;Auto;TCP;Auto;Tls;Host;Host;Host;882;983;1239;5908;4384;1901;5589;5371;2154;84;3702;2235;FailedFailed
On;BestEffort;BestEffort;Off;On;On;H323;H323;H323;TCP;Auto;Tls;Host;Host;Host;1204;906;1098;2117;4384;1901;4106;3281;2154;350;3702;2235;ConnectedConnected
Off;On;Off;Off;Off;On;H320;H323;H323;Tls;Auto;Tls;Host;Host;Host;1112;906;1078;958;4384;2622;5794;4208;2154;84;3702;2235;FailedFailed
Off;BestEffort;BestEffort;On;On;Off;Auto;H323;Sip;TCP;Auto;Tls;Host;Host;Host;828;983;1239;5908;4384;1901;5794;5655;2154;84;3702;2235;ConnectedFailed
On;BestEffort;BestEffort;Off;On;On;H323;H323;H323;TCP;Auto;Tls;Host;Host;Host;1165;906;1065;1640;3312;1896;4106;2652;2154;84;3702;2235;FailedFailed
On;BestEffort;BestEffort;Off;On;On;H323;H323;H323;TCP;Auto;Tls;Host;Host;Host;1204;906;1098;2117;4384;1901;4106;3281;2154;350;3702;2235;FailedConnected
On;BestEffort;BestEffort;Off;On;Off;H323;H323;Auto;TCP;Auto;Tls;Host;Host;Host;1111;906;1075;1914;4313;1901;5794;5635;2154;230;3682;2235;FailedFailed
On;BestEffort;BestEffort;Off;On;Off;H323;H323;Auto;TCP;Auto;Tls;Host;Host;Host;1136;906;1065;1640;3312;1896;4106;2652;2154;84;3702;2235;ConnectedConnected
On;BestEffort;BestEffort;On;On;On;H323;H323;Auto;TCP;Auto;Tls;Host;Host;Host;1204;901;1199;2117;4384;1901;4106;5655;2154;84;3702;2235;ConnectedFailed
On;BestEffort;BestEffort;On;On;On;H323;H323;Auto;TCP;Auto;Tls;Host;Host;Host;1204;901;1023;5908;4384;1901;5948;5655;2154;84;3702;2235;ConnectedFailed
On;BestEffort;BestEffort;Off;On;Off;H323;H323;Auto;TCP;Auto;Tls;Host;Host;Host;1136;906;1065;1640;3312;1896;4106;2652;2154;84;3702;2235;ConnectedFailed
On;BestEffort;BestEffort;Off;On;On;H323;H323;Auto;TCP;Auto;Tls;Host;Host;Relay;1180;906;1065;2872;4538;1901;5794;5349;2350;95;3702;2235;FailedConnected
Off;BestEffort;Off;Off;Off;Off;H320;H320;Auto;TCP;Auto;Tls;Host;Host;Host;609;929;1029;2117;3517;1901;5948;5655;2768;84;4605;2235;ConnectedConnected
On;BestEffort;BestEffort;Off;On;On;H323;H323;Auto;Tls;Auto;Tls;Host;Host;Relay;1122;906;1023;5908;4384;1901;5794;5349;2154;84;3702;2235;FailedConnected
Off;BestEffort;BestEffort;On;Off;On;H323;H323;Sip;TCP;Auto;Tls;Host;Host;Host;1122;906;1023;5908;4384;1735;5804;5655;2172;84;3702;2235;FailedConnected
Off;On;On;Off;On;On;H320;Sip;Auto;Tls;Auto;Tls;Host;Host;Host;1204;906;1078;958;4384;2622;5794;2652;2600;84;3682;2235;ConnectedFailed
On;BestEffort;BestEffort;Off;On;On;Sip;H323;Auto;Tls;Auto;Tls;Host;Host;Host;1204;906;669;2192;4313;1898;4065;5655;2154;84;3702;2235;ConnectedFailed
On;BestEffort;BestEffort;Off;On;Off;Sip;H323;Auto;TCP;Auto;Tls;Host;Host;Host;1204;906;669;5908;4384;1901;5794;5655;2154;84;3702;2235;FailedFailed
On;BestEffort;BestEffort;Off;On;On;H320;H323;Auto;Tls;Auto;Tls;Host;Host;Host;1204;906;1098;2117;4384;1901;4106;3281;2154;350;3702;2235;ConnectedFailed
Off;BestEffort;Off;Off;Off;Off;H320;H323;H323;TCP;Auto;Tls;Host;Host;Host;1204;901;1235;2694;4384;1898;5921;5655;2768;84;3702;2235;FailedConnected
On;BestEffort;BestEffort;On;On;On;H320;H323;Sip;Tls;Auto;Tls;Host;Host;Host;1165;906;1065;1640;3312;1896;4106;2652;2154;248;3702;2235;ConnectedConnected
On;On;BestEffort;Off;On;On;H320;Sip;H320;Tls;Auto;Tls;Host;Host;Host;1204;906;1098;2694;4384;1901;5794;4208;2154;84;3702;2235;ConnectedConnected
Off;On;Off;On;Off;Off;H320;H320;Sip;TCP;Auto;Tls;Host;Host;Host;1165;906;1065;2694;4384;1901;5589;5371;2350;95;3702;2235;ConnectedFailed
On;On;On;Off;On;On;H320;H323;Sip;TCP;Auto;Tls;Host;Host;Host;1165;906;1065;1640;3312;1896;4307;2652;2154;84;3702;2235;FailedConnected
Off;On;Off;Off;Off;Off;H320;H323;H323;Tls;Auto;Tls;Host;Host;Host;1204;931;1071;2117;4384;1901;5589;5329;2529;248;3765;2235;ConnectedFailed
On;BestEffort;BestEffort;Off;On;On;H323;H323;H323;TCP;Auto;Tls;Host;Host;Host;1108;924;1029;2117;3517;1901;5794;5608;2154;230;3702;2235;FailedConnected
Off;BestEffort;BestEffort;Off;On;Off;H320;H320;H323;Tls;Auto;Tls;Host;Host;Host;1081;923;1072;2842;4384;1901;5794;4208;2154;84;3702;2235;ConnectedFailed
On;BestEffort;BestEffort;On;Off;Off;H323;H323;Auto;TCP;Auto;Tls;Host;Host;Host;1204;983;1239;5908;4384;1901;5794;5655;2154;84;3682;2235;FailedFailed
On;On;BestEffort;Off;Off;Off;H320;H320;H320;TCP;Auto;Tls;Host;Host;Host;1130;906;1065;2872;4384;1901;5794;5349;2350;95;3702;2235;ConnectedFailed
On;BestEffort;BestEffort;Off;On;On;H320;H323;Sip;TCP;Auto;Tls;Host;Host;Relay;1122;906;1023;5908;4384;1901;5794;5349;2154;156;3702;2235;ConnectedConnected
Off;On;Off;Off;On;On;H320;Sip;H323;Tls;Auto;Tls;Host;Host;Host;1165;906;1065;1640;3312;1896;4238;2652;2154;84;3702;2235;ConnectedFailed
On;BestEffort;BestEffort;Off;Off;On;H320;H323;Sip;Tls;Auto;Tls;Host;Host;Host;1204;906;1089;2192;4384;1901;4106;3281;2154;84;3702;2235;FailedFailed
On;On;BestEffort;Off;On;On;H320;H323;Sip;Tls;Auto;Tls;Host;Host;Host;1165;906;1065;1640;3312;1896;4106;2652;2350;95;3702;2235;FailedConnected
On;BestEffort;BestEffort;Off;On;On;H320;H320;H320;Tls;Auto;Tls;Host;Host;Host;1204;906;669;2117;4384;1898;5813;5270;2154;84;3702;2235;ConnectedConnected
Off;BestEffort;On;Off;Off;Off;H320;H323;H323;Tls;Auto;Tls;Host;Host;Relay;1122;906;1023;5908;4384;1901;5794;5349;2350;95;3682;2235;FailedConnected
On;On;BestEffort;Off;On;On;H320;H320;Sip;Tls;Auto;Tls;Host;Host;Host;1204;906;1108;2192;3406;1901;5794;5349;2154;156;3702;2235;ConnectedFailed
Off;BestEffort;Off;Off;On;On;H320;H320;Sip;Tls;Auto;Tls;Host;Host;Host;1204;906;1108;2192;3406;1901;5794;5349;2154;156;3702;2235;FailedConnected
On;BestEffort;BestEffort;Off;On;On;H320;Sip;Sip;Tls;Auto;Tls;Host;Host;Host;1130;906;749;3814;4313;1898;5921;2692;2154;84;3702;2235;FailedFailed
Off;On;On;Off;On;On;H320;Sip;H320;Tls;Auto;Tls;Host;Host;Host;1204;906;1089;2192;4384;1901;4106;3281;2154;84;3702;2235;FailedConnected
Off;On;BestEffort;Off;Off;Off;H320;H320;Sip;TCP;Auto;Tls;Host;Host;Host;1204;906;1230;2694;4384;1901;5794;4208;2154;84;3702;2235;FailedConnected
Off;BestEffort;BestEffort;Off;Off;Off;Auto;H323;Auto;TCP;Auto;Tls;Host;Host;Host;1137;983;1023;5908;4384;1901;5948;5655;2768;84;3702;2235;ConnectedFailed
Off;On;On;Off;Off;Off;H320;H320;H320;Tls;Auto;Tls;Host;Host;Host;1204;906;1071;2117;4384;1901;5589;5329;2529;248;3765;2235;FailedConnected
Off;On;On;Off;Off;On;H320;H323;H323;Tls;Auto;Tls;Host;Host;Host;1112;906;1078;958;4384;2622;5794;3346;3160;95;3702;2235;ConnectedConnected
On;BestEffort;BestEffort;Off;On;On;H320;H323;Auto;TCP;Auto;Tls;Host;Host;Host;1137;983;1023;5908;4384;1901;5948;5655;2768;84;5155;2235;ConnectedConnected
Off;BestEffort;BestEffort;Off;Off;Off;H320;H320;Auto;TCP;Auto;Tls;Host;Host;Relay;1122;906;1023;5908;4384;1901;5794;5349;2154;84;3702;2235;FailedConnected
On;On;BestEffort;Off;On;On;H320;Sip;Auto;Tls;Auto;Tls;Host;Host;Host;1204;906;1089;2192;4384;1901;4106;3281;2154;84;3702;2235;FailedFailed
On;BestEffort;BestEffort;On;On;Off;Auto;H323;Sip;TCP;Auto;Tls;Host;Host;Host;1232;983;1239;5908;4384;1901;5794;5655;2154;84;3702;2235;ConnectedFailed
On;BestEffort;BestEffort;Off;Off;Off;Auto;H323;H320;TCP;Auto;Tls;Host;Host;Host;1204;906;1156;5908;4384;1901;5794;5655;2154;84;3702;2361;FailedFailed
Off;BestEffort;BestEffort;On;Off;On;H320;H323;Auto;TCP;Auto;Tls;Host;Host;Host;1137;983;1023;5908;4384;1901;5948;5655;2154;84;3702;2235;FailedConnected
Off;BestEffort;On;Off;Off;On;H320;H323;Auto;Tls;Auto;Tls;Host;Host;Host;1111;918;1023;5908;2215;1901;5948;5655;2154;84;3702;2235;ConnectedFailed
On;BestEffort;BestEffort;On;Off;Off;H323;H323;Auto;TCP;Auto;Tls;Host;Host;Host;1204;901;1235;5908;4384;1901;5948;5655;2768;84;3702;2235;FailedFailed
On;BestEffort;BestEffort;On;Off;On;Auto;H323;Auto;TCP;Auto;Tls;Host;Host;Host;1137;983;1023;5908;4384;1901;5948;5655;2154;84;3702;2235;FailedFailed
Off;BestEffort;Off;Off;Off;On;H320;H323;H323;TCP;Auto;Tls;Host;Host;Host;1204;906;669;2117;2149;1901;5804;4096;2154;84;3702;2235;FailedFailed
On;BestEffort;BestEffort;On;Off;Off;Sip;H323;H320;Tls;Auto;Tls;Host;Host;Host;1204;901;1004;5926;4384;1901;5794;5655;2766;84;3702;2235;ConnectedConnected
On;On;On;Off;On;On;H320;Sip;Auto;Tls;Auto;Tls;Host;Host;Host;1204;906;1089;2192;4384;1901;4106;3281;2154;84;3702;2235;FailedFailed
Off;BestEffort;On;Off;On;On;H320;H323;Sip;Tls;Auto;Tls;Host;Host;Host;1205;906;1068;2192;4384;1901;5794;5349;2154;156;3702;2235;ConnectedConnected
On;BestEffort;BestEffort;Off;Off;Off;Sip;H323;Auto;Tls;Auto;Tls;Host;Host;Host;1204;906;1138;5908;4384;1901;5794;5655;2154;84;3702;2235;ConnectedConnected
On;BestEffort;BestEffort;On;Off;On;H320;H323;Auto;TCP;Auto;Tls;Host;Host;Host;1137;983;1023;5908;4384;1901;5948;5655;2154;84;3702;2235;ConnectedFailed
Off;On;On;Off;Off;Off;H320;H320;Sip;TCP;Auto;Tls;Host;Host;Relay;1122;906;1023;1894;4384;1901;5921;5655;2154;84;3702;2235;ConnectedFailed
On;BestEffort;BestEffort;Off;On;Off;H323;H323;Sip;TCP;Auto;Tls;Host;Host;Host;1204;906;669;5908;4384;1901;5794;5655;2154;84;3702;2361;ConnectedFailed
On;BestEffort;BestEffort;On;On;On;Auto;H323;Auto;TCP;Auto;Tls;Host;Host;Host;1137;983;1023;5908;4384;1901;5948;5655;2768;84;3702;2235;FailedFailed
Off;BestEffort;Off;Off;Off;Off;H320;H320;Auto;Tls;Auto;Tls;Host;Host;Host;1204;901;1235;5908;4384;1901;5794;5655;2154;230;3702;2235;FailedFailed
On;BestEffort;BestEffort;Off;Off;Off;Auto;H320;H320;TCP;Auto;Tls;Host;Host;Host;1204;901;1235;5908;4384;1901;5589;5655;2154;84;3702;2235;ConnectedConnected
Off;On;BestEffort;Off;On;Off;H320;H320;H320;Tls;Auto;Tls;Host;Host;Host;1204;906;669;3520;4313;1898;5794;5349;2154;156;3702;2235;FailedFailed
On;On;Off;Off;On;On;H320;H323;Auto;Tls;Auto;Tls;Host;Host;Host;1204;906;1065;1640;3312;1896;4106;2652;2154;84;3702;2235;FailedFailed
Off;On;Off;Off;Off;Off;H320;H320;H320;TCP;Auto;Tls;Host;Host;Host;1165;906;1107;2192;4313;1898;5921;4499;2154;84;3702;2235;ConnectedFailed
On;BestEffort;BestEffort;Off;On;On;H320;H323;Auto;Tls;Auto;Tls;Host;Host;Host;1204;906;1098;2117;4384;1901;4106;3281;2154;350;3702;2235;ConnectedFailed
Off;On;On;Off;On;On;H320;H323;Sip;Tls;Auto;Tls;Host;Host;Host;1134;924;1068;2192;4313;1898;5921;4499;2154;84;3702;2235;FailedConnected
Off;On;Off;Off;On;On;H320;Sip;H323;Tls;Auto;Tls;Host;Host;Host;1165;906;1065;1640;3312;1898;5921;3308;2154;84;3702;2235;FailedFailed
On;On;BestEffort;Off;On;On;H320;H323;Sip;TCP;Auto;Tls;Host;Host;Host;1204;906;1111;2694;4384;1901;5794;5655;2768;84;3702;2235;FailedConnected
Off;BestEffort;BestEffort;On;Off;Off;Sip;H323;H323;TCP;Auto;Tls;Host;Host;Host;1102;906;669;5908;3368;1901;5921;5655;2154;84;3702;2235;ConnectedConnected
Off;BestEffort;On;Off;On;Off;H320;H323;Sip;TCP;Auto;Tls;Host;Host;Host;1111;934;682;5926;4384;1901;5794;5655;2154;84;3702;2235;ConnectedFailed
On;BestEffort;BestEffort;Off;Off;Off;Sip;H323;H323;TCP;Auto;Tls;Host;Host;Host;1204;906;669;5908;4384;1901;5589;5371;2350;95;3702;2235;ConnectedConnected
Off;BestEffort;On;Off;Off;Off;H320;H320;Sip;TCP;Auto;Tls;Host;Host;Relay;1061;901;1071;2117;4384;1901;5921;5655;2154;84;3702;2235;ConnectedFailed
On;BestEffort;BestEffort;Off;On;On;Sip;H323;Auto;TCP;Auto;Tls;Host;Host;Host;1111;918;1023;5908;2215;1901;5948;5655;2154;84;3702;2235;ConnectedConnected
On;BestEffort;BestEffort;Off;On;Off;H323;H323;Auto;Tls;Auto;Tls;Host;Host;Host;1204;901;1004;5926;3421;1901;5794;5655;2154;84;3702;2235;ConnectedFailed
On;BestEffort;BestEffort;On;Off;Off;Auto;H323;H320;TCP;Auto;Tls;Host;Host;Host;832;983;1239;5908;4384;1901;5794;5349;2350;95;3702;2235;ConnectedFailed
On;BestEffort;BestEffort;On;Off;On;H323;H323;Auto;TCP;Auto;Tls;Host;Host;Host;1204;901;1235;5249;4384;1901;5921;5655;2154;84;3702;2235;FailedFailed
On;BestEffort;BestEffort;Off;Off;On;H323;H323;Sip;TCP;Auto;Tls;Host;Host;Host;1204;901;1023;5908;4384;1901;5948;5655;2768;84;3702;2235;FailedFailed
On;BestEffort;BestEffort;On;Off;Off;Auto;H320;Sip;TCP;Auto;Tls;Host;Host;Host;1111;918;1023;5908;2215;1901;5948;5655;2154;84;3702;2235;FailedFailed
On;BestEffort;BestEffort;On;Off;Off;Auto;H323;H320;TCP;Auto;Tls;Host;Host;Host;1204;901;1235;2694;4384;1834;5728;5655;2350;95;3682;2235;ConnectedFailed
On;On;BestEffort;Off;On;Off;H320;H320;H320;Tls;Auto;Tls;Host;Host;Host;1205;906;1029;2117;3517;1901;5794;3501;2154;230;3702;2235;FailedFailed
On;BestEffort;BestEffort;On;Off;Off;H323;H323;Auto;TCP;Auto;Tls;Host;Host;Host;1204;901;1235;5908;4384;1901;5948;5655;2768;84;3702;2235;FailedConnected
On;BestEffort;BestEffort;On;Off;Off;Sip;H323;H323;TCP;Auto;Tls;Host;Host;Host;1102;906;669;5908;3368;1901;5921;5655;2808;84;3702;2235;FailedConnected
Off;On;Off;Off;Off;Off;H320;H323;Sip;TCP;Auto;Tls;Host;Host;Host;1108;906;669;2192;4313;1901;5948;5655;2768;84;5155;2235;FailedConnected
Off;BestEffort;On;On;Off;Off;H320;H323;Sip;TCP;Auto;Tls;Host;Host;Host;1204;901;1235;5908;4384;1901;5589;5655;2154;84;3702;2361;FailedFailed
Off;BestEffort;BestEffort;On;Off;Off;H323;H323;Auto;TCP;Auto;Tls;Host;Host;Host;1204;901;1239;5908;4384;1901;5794;5655;2154;84;3682;2235;FailedConnected
Off;On;On;Off;On;On;H320;H320;Sip;Tls;Auto;Tls;Host;Host;Host;1204;906;1108;2192;3406;1901;5794;5349;2154;156;3702;2235;FailedFailed
Off;On;On;Off;On;On;H320;H320;H320;Tls;Auto;Tls;Host;Host;Host;1204;906;1108;958;4384;1898;5921;4208;2768;95;3702;2235;ConnectedFailed
On;On;Off;Off;Off;Off;H320;H323;Sip;TCP;Auto;Tls;Host;Host;Host;1204;906;1075;2694;2167;1901;5794;5349;2154;156;3702;2235;FailedConnected
On;BestEffort;BestEffort;Off;Off;Off;H323;H320;Auto;TCP;Auto;Tls;Host;Host;Host;1052;983;1023;5908;4384;1901;5847;5655;2154;84;3702;2235;ConnectedFailed
Off;BestEffort;BestEffort;On;On;Off;H323;H323;Auto;TCP;Auto;Tls;Host;Host;Host;1204;1198;1235;5908;4384;1901;5921;5655;2154;84;3702;2235;ConnectedFailed
Off;On;On;Off;Off;On;H320;H320;H320;TCP;Auto;Tls;Host;Host;Host;1180;906;1065;2872;4384;1901;5794;5349;2172;84;3702;2235;ConnectedFailed
On;BestEffort;BestEffort;Off;Off;Off;H323;H320;Auto;TCP;Auto;Tls;Host;Host;Host;828;983;1239;5908;4384;1901;5589;5371;2154;84;3702;2235;ConnectedFailed
Off;On;On;Off;Off;Off;H320;H323;Sip;Tls;Auto;Tls;Host;Host;Host;1204;906;1068;2192;4313;1898;5589;4599;2529;248;3765;2235;ConnectedConnected
On;On;On;Off;Off;On;H320;H323;Auto;Tls;Auto;Tls;Host;Host;Host;1204;906;1075;2694;4384;1901;5794;5655;2154;84;3702;2235;FailedFailed
On;BestEffort;BestEffort;Off;Off;Off;H320;H323;Sip;TCP;Auto;Tls;Host;Host;Host;1108;906;669;2192;4313;1901;5948;5655;2768;84;3168;2235;FailedFailed
On;BestEffort;BestEffort;Off;On;Off;H323;H323;Auto;TCP;Auto;Tls;Host;Host;Host;1156;983;1193;5926;4313;1898;5921;5655;2768;84;3702;2235;ConnectedConnected
Off;BestEffort;BestEffort;On;On;Off;H323;H323;Auto;TCP;Auto;Tls;Host;Host;Host;1042;983;1239;5908;4384;1901;5794;5655;2976;95;3702;2235;ConnectedFailed
On;On;Off;Off;On;On;H320;Sip;Auto;Tls;Auto;Tls;Host;Host;Host;1136;906;1065;1640;3312;1896;4106;2652;2154;84;3702;2235;FailedConnected
Off;BestEffort;BestEffort;Off;On;On;H320;H320;Sip;Tls;Auto;Tls;Host;Host;Host;1204;906;1108;2192;3406;1901;5794;5349;2154;84;3702;2235;ConnectedFailed
Off;BestEffort;BestEffort;Off;On;On;H320;H323;Sip;Tls;Auto;Tls;Host;Host;Host;1108;924;1068;2192;4313;1898;5921;4499;2154;84;3702;2235;FailedConnected
On;On;Off;Off;Off;Off;H320;H323;Sip;TCP;Auto;Tls;Host;Host;Host;1204;906;1075;2694;4384;1901;5794;5655;2154;84;3702;2235;ConnectedFailed
Off;BestEffort;BestEffort;On;On;Off;Auto;H323;Sip;TCP;Auto;Tls;Host;Host;Host;828;983;1239;5908;4384;1901;5794;5655;2154;84;3702;2235;ConnectedFailed
Off;BestEffort;On;Off;On;Off;H320;H320;H323;Tls;Auto;Tls;Host;Host;Host;1111;924;1068;2192;3119;1898;5921;5655;2154;84;3702;2235;ConnectedConnected
Off;On;On;Off;On;On;H320;H323;Sip;TCP;Auto;Tls;Host;Host;Host;1204;906;1112;2117;4384;1901;5794;4208;2768;84;3702;2235;ConnectedConnected
Off;On;Off;Off;On;On;H320;H320;Sip;Tls;Auto;Tls;Host;Host;Host;1204;906;1108;2192;3406;1901;5794;5349;2154;156;3702;2235;FailedConnected
Off;On;On;Off;On;On;H320;H323;Auto;Tls;Auto;Tls;Host;Host;Host;1204;906;1065;2872;4384;1901;5794;5349;2350;95;3702;2235;ConnectedConnected
Off;BestEffort;BestEffort;Off;Off;Off;H320;H323;H323;Tls;Auto;Tls;Rflx;Host;Host;1204;906;669;2192;4313;1898;5921;5655;2154;84;3702;2235;FailedFailed
Off;On;Off;Off;On;On;H320;Sip;H323;Tls;Auto;Tls;Host;Host;Host;1165;906;1065;1640;3312;1896;4238;2652;2154;84;3702;2235;ConnectedConnected
Off;On;BestEffort;Off;On;On;H320;H323;Sip;Tls;Auto;Tls;Host;Host;Host;1204;906;669;2192;4313;1898;5921;5096;2154;84;3702;2235;ConnectedConnected
On;On;On;Off;On;Off;H320;H323;H320;Tls;Auto;Tls;Host;Host;Host;1204;906;1112;2117;4384;1901;5794;4208;2154;84;3702;2235;ConnectedConnected
On;BestEffort;BestEffort;Off;On;Off;Auto;H323;H320;TCP;Auto;Tls;Host;Host;Host;1204;906;669;2192;4313;1898;5921;5655;2154;84;3702;2235;ConnectedConnected
Off;On;Off;Off;On;Off;H320;H320;Sip;Tls;Auto;Tls;Host;Host;Host;1204;906;1108;958;4596;1898;5921;4208;2768;95;3702;2235;ConnectedConnected
Off;On;On;Off;On;On;H320;Sip;H320;Tls;Auto;Tls;Host;Host;Host;1204;906;1089;2192;4384;1901;4106;3281;2154;84;3702;2235;FailedFailed
Off;BestEffort;On;Off;Off;Off;H320;H320;H323;TCP;Auto;Tls;Host;Host;Host;1042;983;1239;5908;4384;1901;5794;5655;2154;84;3702;2235;ConnectedFailed
Off;On;Off;Off;Off;Off;H320;H323;Auto;Tls;Auto;Tls;Host;Host;Host;1204;906;669;958;4384;1901;5589;5371;2350;95;3702;2235;ConnectedConnected
Off;On;On;Off;Off;Off;H320;H320;H320;Tls;Auto;Tls;Host;Host;Host;1204;901;1235;5249;4384;1901;5794;5349;2154;156;3702;2235;FailedFailed
Off;BestEffort;BestEffort;Off;Off;Off;H320;H323;H323;Tls;Auto;Tls;Host;Host;Host;1204;906;669;2192;4313;1898;5921;5096;2154;84;3702;2235;ConnectedFailed
On;BestEffort;BestEffort;Off;Off;Off;H323;H320;Auto;TCP;Auto;Tls;Host;Host;Host;828;983;1239;5908;4384;1901;5589;5371;2154;84;3702;2235;ConnectedConnected
Off;On;On;Off;Off;Off;H320;H323;Sip;Tls;Auto;Tls;Host;Host;Host;1204;931;669;2192;4313;1898;5921;5655;2154;84;3702;2235;FailedConnected
On;BestEffort;BestEffort;Off;Off;Off;H320;H320;H320;TCP;Auto;Tls;Host;Host;Host;1204;901;1235;5908;4384;1901;5589;5655;2154;84;3702;2235;FailedFailed
Off;BestEffort;On;On;On;Off;H320;H323;H320;TCP;Auto;Tls;Host;Host;Host;1204;906;1078;3602;3023;1901;5794;5655;2768;84;3702;2235;FailedConnected
On;BestEffort;BestEffort;On;Off;Off;Auto;H320;Sip;TCP;Auto;Tls;Host;Host;Host;1111;901;1235;5908;4384;1901;5948;5655;2768;84;3702;2235;ConnectedFailed
Off;BestEffort;BestEffort;On;Off;Off;Sip;H323;H320;Tls;Auto;Tls;Host;Host;Host;1204;901;1004;5926;4384;1901;5794;5655;2766;84;3702;2235;FailedFailed
Off;BestEffort;BestEffort;On;On;Off;H323;H323;Auto;TCP;Auto;Tls;Host;Host;Host;1204;901;1235;5908;4384;1901;5794;5655;2154;230;3702;2235;ConnectedFailed
Off;BestEffort;Off;Off;Off;Off;H320;H323;Sip;Tls;Auto;Tls;Host;Host;Host;1181;906;1029;2117;3517;1901;5794;3501;2154;95;3702;2235;FailedConnected
Off;On;On;Off;Off;Off;H320;H320;Auto;Tls;Auto;Tls;Host;Host;Host;1204;906;669;2117;2149;1901;5804;5371;2350;95;4392;2235;ConnectedFailed
Off;BestEffort;BestEffort;Off;Off;Off;H320;H320;Auto;Tls;Auto;Tls;Host;Host;Host;1204;906;1065;2872;4384;1901;5794;5349;2350;95;3702;2235;FailedConnected
Off;On;On;Off;On;On;H320;H323;Sip;Tls;Auto;Tls;Host;Host;Host;1134;924;669;3520;4313;1943;5921;3035;2154;84;3702;2235;FailedFailed
Off;BestEffort;BestEffort;On;Off;Off;Auto;H323;Sip;TCP;Auto;Tls;Host;Host;Host;1047;983;1239;5908;4384;1898;5921;5655;2808;84;3702;2235;ConnectedFailed
Off;BestEffort;BestEffort;On;On;Off;H320;H320;H320;TCP;Auto;Tls;Host;Host;Host;1180;906;1065;2872;4384;1901;5794;5349;2350;95;3702;2235;ConnectedFailed
Off;BestEffort;BestEffort;On;Off;Off;H320;H323;H323;Tls;Auto;Tls;Host;Host;Host;1108;906;749;2694;3688;1901;5948;5655;2768;84;3702;2235;ConnectedFailed
On;BestEffort;BestEffort;On;On;Off;Auto;H323;Sip;TCP;Auto;Tls;Host;Host;Host;1108;906;669;4833;3867;1898;5921;5655;2154;95;3702;2235;FailedConnected
On;BestEffort;BestEffort;On;Off;On;H320;H323;Auto;TCP;Auto;Tls;Host;Host;Host;828;983;1239;5908;4384;1901;5794;5655;2154;84;3682;2235;ConnectedFailed
On;BestEffort;BestEffort;On;On;Off;H323;H323;H320;TCP;Auto;Tls;Host;Host;Host;1204;901;1004;5926;4384;1901;5728;5655;2768;95;3702;2235;ConnectedConnected
On;On;Off;Off;On;On;H320;Sip;H320;Tls;Auto;Tls;Host;Host;Host;1204;931;1071;2117;4384;2718;5794;4208;2154;84;3702;2235;FailedConnected
On;BestEffort;BestEffort;On;On;Off;H323;H323;Auto;TCP;Auto;Tls;Host;Host;Host;1204;906;1069;5908;4384;1901;5804;5412;184;84;3702;2235;ConnectedFailed
Off;BestEffort;On;Off;Off;Off;H320;H320;Sip;TCP;Auto;Tls;Host;Host;Relay;1122;906;1023;5908;4384;1901;5794;5349;2154;84;3702;2235;ConnectedConnected
On;On;BestEffort;Off;Off;On;H320;H323;Sip;Tls;Auto;Tls;Host;Host;Host;1180;906;1065;2872;4384;1901;5794;5349;2172;84;3702;2235;FailedConnected
On;BestEffort;BestEffort;Off;On;Off;Auto;H323;Sip;TCP;Auto;Tls;Host;Host;Host;1204;906;1023;5908;3517;1898;5589;5655;2154;84;3702;2235;FailedConnected
Off;On;On;Off;Off;On;H320;H323;H323;Tls;Auto;Tls;Host;Host;Host;1204;906;669;2117;4384;1901;5804;4096;2154;84;3702;2235;ConnectedFailed
Off;On;Off;Off;On;On;H320;H323;Sip;Tls;Auto;Tls;Host;Host;Host;1205;906;1029;2117;3517;1901;5794;3501;2768;84;3702;2235;ConnectedConnected
Off;On;Off;Off;On;On;H320;H320;H320;Tls;Auto;Tls;Host;Host;Host;1204;906;1108;2192;3406;3054;5813;2704;2768;95;3682;2235;FailedConnected
On;On;On;Off;On;On;H320;H323;Sip;TCP;Auto;Tls;Host;Host;Host;1165;906;1065;2694;4384;1901;5589;5371;2350;95;3702;2235;FailedFailed
Off;BestEffort;BestEffort;Off;Off;Off;Auto;H323;H320;TCP;Auto;Tls;Host;Host;Host;1204;901;1235;5908;4384;1901;5589;5655;2154;84;3702;2235;ConnectedFailed
On;BestEffort;BestEffort;On;On;On;H323;H323;Auto;TCP;Auto;Tls;Host;Host;Host;1204;901;1235;2566;4384;1901;5921;5655;2154;84;3702;2235;ConnectedConnected
Off;BestEffort;On;Off;Off;Off;H320;H320;H320;TCP;Auto;Tls;Host;Host;Host;1204;906;669;2192;4313;1898;5921;5655;2154;84;3702;2235;ConnectedConnected
Off;BestEffort;BestEffort;On;On;Off;H320;H323;H323;TCP;Auto;Tls;Host;Host;Host;1204;901;1235;5249;4384;1901;5794;5349;2154;156;3702;2235;FailedConnected
On;On;Off;Off;Off;On;H320;H323;H323;Tls;Auto;Tls;Host;Host;Host;1204;906;1071;851;4384;1901;5794;4208;2768;95;3702;2235;FailedFailed
On;BestEffort;BestEffort;On;Off;Off;Auto;H323;H320;TCP;Auto;Tls;Host;Host;Host;1042;983;1239;5908;4384;1901;5794;5655;2154;84;3702;2235;FailedConnected
On;On;Off;Off;On;On;H320;Sip;Auto;Tls;Auto;Tls;Host;Host;Host;1204;906;1078;958;4384;2622;5794;2652;2600;84;3682;2235;ConnectedFailed
On;BestEffort;BestEffort;Off;On;Off;H323;H323;H320;Tls;Auto;Tls;Host;Host;Host;1204;901;669;2694;4384;1901;5589;5371;2350;95;3702;2235;FailedFailed
On;BestEffort;BestEffort;Off;Off;On;H320;H320;H320;TCP;Auto;Tls;Host;Host;Host;1180;906;1065;2872;3529;1901;5794;5349;2350;95;3702;2235;FailedConnected
Off;BestEffort;On;Off;Off;On;H320;H323;H323;Tls;Auto;Tls;Host;Host;Host;1204;906;1078;958;4384;2622;5794;3346;2768;95;4102;2235;ConnectedFailed
On;BestEffort;On;Off;On;Off;H320;H323;Sip;TCP;Auto;Tls;Host;Host;Host;1204;906;1075;2694;4384;1901;5794;5655;2154;84;3702;2235;ConnectedConnected
On;BestEffort;BestEffort;Off;Off;On;H323;H323;Sip;TCP;Auto;Tls;Host;Host;Host;1204;901;1020;5908;4384;1901;5794;5655;2154;84;3702;2235;FailedConnected
Off;On;Off;Off;On;On;H320;H320;H320;Tls;Auto;Tls;Host;Host;Host;1204;906;1108;2192;4313;1901;5921;3346;2154;84;3702;2235;ConnectedFailed
Off;BestEffort;BestEffort;On;Off;Off;H320;H320;Sip;TCP;Auto;Tls;Host;Host;Host;1176;906;669;5908;4384;1901;5794;5655;2154;84;3682;2235;FailedConnected
Off;BestEffort;On;Off;On;Off;H320;H320;H320;TCP;Auto;Tls;Host;Host;Host;1204;906;669;2192;4313;1898;5921;5655;2154;84;3702;2235;ConnectedConnected
On;On;On;Off;On;On;H320;H323;Auto;Tls;Auto;Tls;Host;Host;Host;1204;906;1108;958;4596;1901;5936;3011;2154;84;3702;2235;FailedConnected
Off;On;Off;Off;Off;On;H320;H323;H323;Tls;Auto;Tls;Host;Host;Host;1112;906;1108;958;4596;1901;5936;3011;2154;84;3702;2235;FailedFailed
On;BestEffort;BestEffort;Off;Off;Off;Sip;H323;H320;TCP;Auto;Tls;Host;Host;Host;1204;906;1075;2694;4313;1901;5794;5655;2154;230;3702;2235;FailedFailed
On;BestEffort;BestEffort;Off;Off;On;H323;H323;Auto;Tls;Auto;Tls;Host;Host;Host;1204;901;1004;5926;4384;1901;5794;5655;2768;84;3702;2235;ConnectedConnected
Off;On;On;Off;Off;Off;H320;H320;Sip;TCP;Auto;Tls;Host;Host;Relay;1122;906;1023;1894;4384;1901;5921;5655;2154;84;3702;2235;FailedFailed
Off;On;Off;On;Off;Off;H320;H320;H320;TCP;Auto;Tls;Host;Host;Host;1047;983;1239;4662;4384;1901;5728;5655;2154;84;3702;2235;ConnectedFailed
Off;BestEffort;BestEffort;On;On;Off;H320;H323;H320;TCP;Auto;Tls;Host;Host;Host;1204;906;669;5908;4384;1901;5921;5655;2154;84;3702;2235;FailedFailed
On;BestEffort;BestEffort;Off;On;Off;H320;H323;H320;TCP;Auto;Tls;Host;Host;Host;1108;901;1235;2694;4384;1898;5921;5655;2768;84;3702;2235;ConnectedFailed
Off;On;Off;Off;Off;On;H320;H323;H323;Tls;Auto;Tls;Host;Host;Host;1111;924;1068;2192;3119;1898;5921;5655;2154;84;3702;2235;ConnectedConnected
Off;On;Off;Off;Off;Off;H320;H320;H323;Tls;Auto;Tls;Host;Host;Host;1081;923;1072;2694;4384;1901;5794;4208;2154;84;3702;2361;FailedConnected
Off;BestEffort;BestEffort;Off;Off;Off;H320;H320;Auto;Tls;Auto;Tls;Host;Host;Host;1204;906;1156;5908;3488;1901;5589;5371;2154;84;3702;2235;ConnectedFailed
On;BestEffort;BestEffort;Off;On;Off;Auto;H323;Sip;TCP;Auto;Tls;Host;Host;Host;1204;901;1235;5908;4384;1901;5794;5655;2154;84;3702;2235;FailedFailed
On;BestEffort;BestEffort;On;On;Off;Auto;H323;Sip;TCP;Auto;Tls;Host;Host;Host;1232;983;1239;5908;4384;1901;5589;5371;2808;84;3702;2235;ConnectedConnected
On;BestEffort;BestEffort;On;Off;On;Auto;H323;H320;TCP;Auto;Tls;Host;Host;Host;1204;901;1235;5647;4384;1901;5728;5655;2154;84;3702;2235;ConnectedFailed
On;BestEffort;BestEffort;On;Off;Off;H323;H320;Auto;TCP;Auto;Tls;Host;Host;Host;828;983;809;5908;4384;1901;5794;5655;2768;84;3702;2235;FailedFailed
Off;On;Off;Off;Off;Off;H320;H323;H323;TCP;Auto;Tls;Host;Host;Host;1204;901;1235;2694;4384;1901;5589;5371;2154;84;3702;2235;ConnectedConnected
On;BestEffort;BestEffort;On;On;On;Auto;H323;Sip;TCP;Auto;Tls;Host;Host;Host;1204;901;1235;5908;4384;1901;5589;5655;2154;84;3702;2235;ConnectedFailed
On;BestEffort;BestEffort;Off;On;Off;Auto;H323;Sip;TCP;Auto;Tls;Host;Host;Host;1204;901;1235;4322;4384;1901;5921;5655;2154;84;3702;2235;FailedConnected
On;BestEffort;BestEffort;Off;On;Off;H323;H323;Auto;TCP;Auto;Tls;Host;Host;Host;1204;901;669;2694;4313;1898;5921;5655;2154;84;3702;2235;FailedConnected
Off;BestEffort;Off;Off;Off;Off;H320;H320;H320;Tls;Auto;Tls;Host;Host;Host;1204;906;669;2117;3421;1901;5921;5655;2768;84;3702;2235;ConnectedFailed
On;BestEffort;BestEffort;On;Off;Off;H320;H323;Sip;TCP;Auto;Tls;Host;Host;Host;1108;906;1064;2192;4313;1898;5921;5655;2808;84;3702;2235;FailedConnected
On;BestEffort;BestEffort;On;On;On;H320;H323;Sip;Tls;Auto;Tls;Host;Host;Host;1111;918;1023;5908;2215;1901;5948;5655;2154;84;3702;2235;FailedConnected
Off;On;On;Off;On;On;H320;H323;Sip;Tls;Auto;Tls;Host;Host;Host;1204;906;1108;958;4384;1898;5921;4208;2768;95;3702;2235;ConnectedConnected
Off;On;On;Off;Off;Off;H320;H320;H320;Tls;Auto;Tls;Host;Host;Host;1204;906;1071;2117;4384;1901;5589;5329;2529;248;3765;2235;FailedConnected
Off;On;On;On;Off;Off;H320;H323;Sip;TCP;Auto;Tls;Host;Host;Host;1204;906;669;2192;4313;1901;5794;5655;2154;230;3702;2235;FailedConnected
Off;On;Off;Off;Off;On;H320;H323;H323;Tls;Auto;Tls;Host;Host;Host;1204;906;669;2117;2149;1901;5804;4096;2154;84;3702;2235;ConnectedConnected
On;BestEffort;BestEffort;On;Off;On;H323;H323;H320;TCP;Auto;Tls;Host;Host;Host;1204;906;1155;2211;4384;1901;5794;5655;2154;84;3702;2235;FailedFailed
On;On;On;Off;On;Off;H320;H323;H323;Tls;Auto;Tls;Host;Host;Host;1108;906;669;1462;4313;1898;5921;5655;2154;84;3702;2235;ConnectedConnected
On;On;BestEffort;Off;Off;On;H320;H323;H320;TCP;Auto;Tls;Host;Host;Host;1204;931;669;2192;4313;1898;5921;5229;2154;84;3702;2235;ConnectedConnected
On;BestEffort;On;Off;On;On;H320;H323;H320;TCP;Auto;Tls;Host;Host;Host;1204;906;1075;2694;4313;1901;5794;4208;2172;84;3702;2235;ConnectedFailed
On;On;On;Off;On;On;H320;Sip;Auto;Tls;Auto;Tls;Host;Host;Host;1204;906;669;2117;4384;1901;5804;4096;2154;84;3702;1071;FailedConnected
Off;BestEffort;BestEffort;On;On;On;H320;H323;Sip;Tls;Auto;Tls;Host;Host;Host;1165;906;1065;1640;3312;1896;4106;2652;2154;248;3702;2235;FailedFailed
On;BestEffort;BestEffort;On;Off;On;H323;H323;H320;TCP;Auto;Tls;Host;Host;Host;1204;906;1155;2211;4384;1901;5589;5371;2350;95;3702;2235;ConnectedConnected
Off;BestEffort;Off;On;Off;Off;H320;H320;H320;TCP;Auto;Tls;Host;Host;Host;1111;983;1193;5908;4384;1901;5589;5371;2350;95;3702;2235;FailedFailed
Off;BestEffort;BestEffort;On;Off;Off;Sip;H320;H320;TCP;Auto;Tls;Host;Host;Host;1204;906;1155;5908;4384;1901;5794;5655;2154;84;3702;2235;FailedFailed
On;BestEffort;On;Off;Off;Off;H320;H323;H323;TCP;Auto;Tls;Host;Host;Host;1111;924;1068;2192;4313;1898;5589;4599;2768;84;3702;2235;ConnectedFailed
Off;BestEffort;BestEffort;On;On;Off;Auto;H323;Auto;TCP;Auto;Tls;Host;Host;Host;1204;906;1023;5908;3517;1898;5589;5655;2154;84;3702;2235;ConnectedFailed
Off;BestEffort;BestEffort;On;Off;On;H323;H323;Sip;TCP;Auto;Tls;Host;Host;Host;1122;906;1023;5908;4384;1901;5589;5371;2350;95;3702;2235;FailedFailed
On;BestEffort;BestEffort;Off;On;On;H320;H323;Sip;TCP;Auto;Tls;Host;Host;Host;1204;906;669;5908;4384;1901;5170;5371;2154;95;3702;2235;ConnectedConnected
Off;BestEffort;BestEffort;On;Off;Off;H320;H323;H323;TCP;Auto;Tls;Host;Host;Host;1204;906;1078;3602;3023;1901;5794;5655;2768;84;3702;2235;ConnectedFailed
Off;BestEffort;On;Off;Off;On;H320;H323;Sip;TCP;Auto;Tls;Host;Host;Host;1204;906;669;2192;4313;1901;5794;5655;2154;230;3702;2235;ConnectedConnected
On;BestEffort;BestEffort;Off;On;On;H320;Sip;Sip;Tls;Auto;Tls;Host;Host;Host;1130;906;749;3814;4313;1898;5921;2692;2154;84;3702;2235;FailedFailed
Off;On;On;Off;On;Off;H320;H320;H320;Tls;Auto;Tls;Host;Host;Host;1204;906;1071;2117;3421;1901;5794;4208;2768;95;3702;2235;FailedFailed
Off;On;Off;Off;On;On;H320;H323;Sip;Tls;Auto;Tls;Host;Host;Host;1165;906;1065;1640;3312;1896;4106;2652;2154;248;3702;2235;FailedFailed
Off;On;Off;Off;Off;Off;H320;H323;H323;Tls;Auto;Tls;Host;Host;Host;1204;931;1071;2117;4384;1901;5589;5329;2529;248;3765;2235;FailedConnected
Off;BestEffort;BestEffort;On;Off;Off;H320;H320;H323;TCP;Auto;Tls;Host;Host;Host;1204;901;1235;2694;3537;1901;5589;5655;2154;84;3702;2235;FailedConnected
Off;BestEffort;BestEffort;Off;Off;Off;H320;H320;Auto;TCP;Auto;Tls;Host;Host;Host;1204;906;1004;5926;4384;1901;5794;5655;2768;84;3702;2235;FailedFailed
Off;BestEffort;Off;Off;Off;Off;H320;H320;H320;TCP;Auto;Tls;Host;Host;Host;1102;906;669;5908;3368;1901;5921;5655;2154;84;3702;2235;FailedConnected
Off;BestEffort;BestEffort;On;Off;Off;H320;H323;H323;TCP;Auto;Tls;Host;Host;Host;828;983;1239;5908;4384;1901;5794;5655;2154;84;3682;2235;ConnectedConnected
On;On;Off;Off;Off;Off;H320;H323;Sip;Tls;Auto;Tls;Host;Host;Host;1204;931;669;2192;4313;1898;5921;5655;2154;84;3702;2235;FailedConnected
Off;On;On;Off;On;On;H320;H323;Sip;Tls;Auto;Tls;Host;Host;Host;1165;906;1065;1640;3312;1896;4106;2652;2154;248;3702;2235;ConnectedFailed
Off;BestEffort;BestEffort;Off;On;Off;H323;H323;Auto;TCP;Auto;Tls;Host;Host;Host;1204;906;711;5908;4384;1901;5589;5371;2154;84;3702;2235;FailedFailed
Off;BestEffort;On;Off;On;Off;H320;H323;H320;Tls;Auto;Tls;Host;Host;Host;1204;906;669;2192;4313;1901;5794;3346;2154;84;3702;2235;FailedFailed
On;On;On;Off;On;On;H320;H323;Auto;Tls;Auto;Tls;Host;Host;Host;1204;906;1108;958;4596;1901;5936;3011;2154;84;3702;2235;ConnectedFailed
On;BestEffort;BestEffort;Off;On;On;H323;H323;H323;Tls;Auto;Tls;Host;Host;Host;1136;906;1065;1640;3312;1896;4106;2652;2154;84;3702;2235;ConnectedFailed
On;On;On;Off;Off;Off;H320;H323;Sip;Tls;Auto;Tls;Host;Host;Host;1204;906;1068;2192;4313;1898;5589;4599;2529;248;3765;2235;FailedConnected
Off;On;BestEffort;Off;On;Off;H320;H323;Sip;TCP;Auto;Tls;Host;Host;Host;1130;906;749;3814;4313;1898;5921;2692;2154;84;3702;2235;ConnectedConnected
On;BestEffort;BestEffort;On;Off;Off;Sip;H323;H323;TCP;Auto;Tls;Host;Host;Host;1204;906;1111;2694;4384;1901;5794;5655;2154;230;3702;2235;FailedConnected
On;BestEffort;BestEffort;On;On;Off;H323;H323;H320;TCP;Auto;Tls;Host;Host;Host;1204;906;1065;2092;4384;1901;5794;5655;2154;156;3702;2235;ConnectedFailed
On;BestEffort;BestEffort;On;On;Off;H323;H323;Auto;TCP;Auto;Tls;Host;Host;Host;699;983;1239;5908;4384;1901;5794;5655;2976;95;3702;2235;FailedFailed
On;BestEffort;BestEffort;Off;On;On;H320;H323;Auto;Tls;Auto;Tls;Host;Host;Host;1204;906;669;5908;4384;1901;5589;5371;2350;95;3702;2235;ConnectedFailed
Off;On;On;Off;Off;On;H320;H323;H323;Tls;Auto;Tls;Host;Host;Host;1204;906;1078;3602;3023;1901;5794;5655;2768;84;3702;2235;FailedConnected
Off;On;Off;Off;Off;Off;H320;H320;Auto;Tls;Tls;Tls;Host;Host;Host;1130;906;749;1547;4313;1898;5921;2692;2154;84;3702;2235;ConnectedFailed
On;BestEffort;BestEffort;Off;On;Off;H320;H320;H323;Tls;Auto;Tls;Host;Host;Host;1081;923;1072;2842;4384;1901;5794;4208;2154;84;3702;2235;ConnectedConnected
Off;On;Off;Off;Off;Off;H320;H320;H320;Tls;Auto;Tls;Host;Host;Host;1204;906;1071;2117;3421;1901;5921;5655;2768;84;3702;2235;FailedConnected
Off;On;Off;Off;On;On;H320;H323;Sip;Tls;Auto;Tls;Host;Host;Host;1204;906;1108;958;4384;1898;5921;4208;2768;95;3702;2235;ConnectedFailed
Off;BestEffort;On;Off;Off;Off;H320;H323;Auto;TCP;Auto;Tls;Host;Host;Host;1137;844;1164;5908;4384;1901;5948;5655;2154;84;3702;2235;ConnectedConnected
Off;BestEffort;BestEffort;Off;Off;On;H320;H323;H320;TCP;Auto;Tls;Host;Host;Host;1204;901;1235;5249;4384;1901;5728;5655;2154;84;3702;2235;FailedFailed
On;BestEffort;BestEffort;On;Off;Off;H323;H323;Auto;TCP;Auto;Tls;Host;Host;Host;1204;906;669;5908;4384;1901;5921;5655;2808;84;3702;2235;ConnectedConnected
On;BestEffort;BestEffort;Off;Off;Off;H323;H320;Auto;TCP;Auto;Tls;Host;Host;Host;828;983;1239;5908;4384;1901;5794;5655;2768;84;3702;2235;ConnectedFailed
On;BestEffort;BestEffort;On;Off;Off;H323;H323;Auto;TCP;Auto;Tls;Host;Host;Host;1204;906;669;2566;4384;1901;5921;5655;2154;84;216;2235;FailedConnected
On;BestEffort;BestEffort;On;Off;On;Auto;H323;Sip;TCP;Auto;Tls;Host;Host;Host;1122;906;1023;5908;4384;1735;5804;5655;2172;84;3702;2235;FailedFailed
Off;BestEffort;BestEffort;On;Off;Off;Sip;H320;Auto;TCP;Auto;Tls;Host;Host;Host;1204;901;1235;5908;4384;1901;5794;5655;2154;84;3702;1548;FailedFailed
On;On;On;Off;On;On;H320;Sip;H320;Tls;Auto;Tls;Host;Host;Host;1204;906;1098;2694;4384;1901;5794;4208;2154;84;3702;2235;FailedConnected
Off;On;BestEffort;Off;On;Off;H320;H323;Auto;Tls;Auto;Tls;Host;Host;Host;1204;906;1071;2117;2301;1901;5921;5655;2154;84;3702;2235;FailedConnected
Off;BestEffort;BestEffort;Off;Off;On;H320;H323;Sip;Tls;Auto;Tls;Host;Host;Host;1204;906;669;5908;4384;1901;5589;5371;2350;95;3702;2235;ConnectedConnected
Off;BestEffort;BestEffort;On;Off;Off;Sip;H320;Sip;TCP;Auto;Tls;Host;Host;Host;1032;983;1157;5926;4384;73;5804;5412;184;84;3702;2235;FailedConnected
On;BestEffort;BestEffort;Off;Off;On;H320;H323;Auto;TCP;Auto;Tls;Host;Host;Host;1204;901;1239;5908;4384;1901;5794;5655;2154;84;3682;2235;FailedFailed
On;BestEffort;BestEffort;On;Off;Off;H320;H320;H323;TCP;Auto;Tls;Host;Host;Host;1204;901;1235;5908;5478;1901;5589;5655;2154;141;2908;2235;ConnectedConnected
On;BestEffort;Off;Off;Off;Off;H320;H323;Sip;TCP;Auto;Tls;Host;Host;Host;1108;906;1029;2117;3517;1901;5948;5655;2768;84;5155;2235;FailedConnected
Off;BestEffort;On;Off;On;Off;H320;H320;H323;Tls;Auto;Tls;Host;Host;Host;1204;906;669;2117;4384;1901;5804;4096;2154;84;3702;2235;FailedFailed
On;BestEffort;BestEffort;On;On;On;Auto;H323;Auto;TCP;Auto;Tls;Host;Host;Host;1204;901;1004;5926;4384;1898;5921;5655;2154;84;3702;2235;ConnectedFailed
On;BestEffort;BestEffort;Off;Off;Off;H320;H320;H320;Tls;Auto;Tls;Host;Host;Host;1130;906;749;3814;4313;1898;5921;2692;2154;84;3702;2235;FailedConnected
Off;BestEffort;On;On;Off;Off;H320;H323;Sip;TCP;Auto;Tls;Host;Host;Host;1159;906;1071;2117;3262;1901;5794;5655;2154;84;3702;2235;FailedConnected
Off;On;Off;Off;On;On;H320;Sip;Sip;Tls;Auto;Tls;Host;Host;Host;1204;906;1098;2117;4384;1901;4106;3281;2154;84;3702;2235;FailedConnected
On;BestEffort;BestEffort;Off;Off;On;H320;H323;H323;TCP;Auto;Tls;Host;Host;Host;1102;906;669;5908;3558;1901;5921;5655;2154;84;3702;2361;FailedConnected
On;BestEffort;BestEffort;Off;Off;Off;H323;H323;H320;TCP;Auto;Tls;Host;Host;Host;1204;901;1193;3122;4313;1898;5921;5655;2154;84;3702;2235;ConnectedFailed
On;BestEffort;BestEffort;On;Off;Off;Sip;H320;Sip;TCP;Auto;Tls;Rflx;Host;Host;1032;1008;986;5908;4384;1901;5589;5371;2154;84;3702;2235;FailedConnected
Off;BestEffort;On;Off;Off;Off;H320;H320;H320;Tls;Auto;Tls;Host;Host;Host;1158;906;1233;3532;4313;1901;5794;5655;2154;84;3702;2235;ConnectedConnected
On;On;Off;Off;On;On;H320;Sip;Auto;Tls;Auto;Tls;Host;Host;Host;1136;906;1065;1640;3312;1896;4106;2652;2154;84;3702;2235;FailedFailed
Off;BestEffort;BestEffort;On;On;Off;H320;H323;H323;TCP;Auto;Tls;Host;Host;Host;1204;901;1235;5908;4384;1901;5589;5655;2154;84;3702;2361;FailedConnected
On;BestEffort;BestEffort;Off;On;On;Sip;H323;H320;TCP;Auto;Tls;Host;Host;Host;1204;906;1155;5908;4384;1901;5794;5655;2154;476;3702;2235;ConnectedConnected
Off;BestEffort;BestEffort;On;On;Off;H320;H323;Sip;TCP;Auto;Tls;Host;Host;Host;1108;906;1064;2192;4313;1898;5921;5655;2808;84;3702;2235;FailedConnected
On;BestEffort;BestEffort;On;On;Off;Auto;H323;Sip;TCP;Auto;Tls;Host;Host;Host;1204;901;1235;4322;4384;1901;5921;5655;2154;84;3702;2235;ConnectedConnected
On;On;BestEffort;Off;On;On;H320;H323;Sip;Tls;Auto;Tls;Host;Host;Host;1204;906;1108;958;3406;1896;5813;5270;2154;84;3702;2235;ConnectedConnected
On;BestEffort;Off;Off;Off;Off;H320;H323;Sip;TCP;Auto;Tls;Host;Host;Host;1108;906;1029;2117;3517;1901;5948;5655;2768;84;5155;2235;FailedConnected
On;On;BestEffort;Off;Off;On;H320;H320;H320;TCP;Auto;Tls;Host;Host;Host;1180;906;1065;2872;4384;1901;5794;5349;2172;84;3702;2235;ConnectedConnected
Off;On;On;Off;On;Off;H320;H320;H320;Tls;Auto;Tls;Host;Host;Host;1204;906;669;2117;4384;1901;5804;4096;2154;84;3702;2235;ConnectedConnected
On;BestEffort;BestEffort;Off;Off;Off;H320;H320;Sip;TCP;Auto;Tls;Host;Host;Relay;1122;906;1023;5908;4384;1901;5794;5349;2154;156;3702;2235;FailedConnected
Off;On;Off;Off;Off;Off;H320;H323;H323;TCP;Auto;Tls;Host;Host;Host;1204;901;1235;2694;4384;1901;5589;2672;2154;84;3702;2235;FailedFailed
On;On;On;Off;On;On;H320;Sip;H320;Tls;Auto;Tls;Host;Host;Host;1204;931;1071;2117;4384;2718;5794;4208;2154;84;3702;1978;FailedFailed
On;On;On;Off;Off;Off;H320;H323;Sip;Tls;Auto;Tls;Host;Host;Host;1204;931;1071;2834;4384;1901;5589;4599;2529;84;3702;2235;FailedConnected
On;On;Off;Off;On;On;H320;H323;Auto;Tls;Auto;Tls;Host;Host;Host;1204;906;1078;958;4384;2622;5794;3346;2154;84;3702;2235;FailedFailed
On;BestEffort;BestEffort;On;Off;On;Sip;H323;H323;TCP;Auto;Tls;Host;Host;Host;1204;901;1235;2694;4384;1898;5921;5655;2768;84;3702;2235;FailedFailed
Off;BestEffort;BestEffort;Off;On;Off;H323;H323;Auto;TCP;Auto;Tls;Host;Host;Host;1204;906;711;5908;4384;1901;5589;5371;2154;84;3702;2235;ConnectedConnected
On;BestEffort;BestEffort;Off;Off;Off;H320;H320;Auto;TCP;Auto;Tls;Host;Host;Host;1204;906;669;5908;3262;1901;5794;5655;2154;84;1577;1848;ConnectedConnected
On;BestEffort;BestEffort;On;Off;On;H323;H323;Auto;TCP;Auto;Tls;Host;Host;Host;1204;1241;1065;2872;3118;1901;5794;5349;2350;95;3702;2235;FailedConnected
On;BestEffort;BestEffort;Off;On;Off;Sip;H323;Auto;Tls;Auto;Tls;Host;Host;Host;1137;983;1023;5908;4384;1901;5948;5655;2154;84;3702;2235;FailedConnected
Off;BestEffort;On;Off;Off;On;H320;H323;Auto;Tls;Auto;Tls;Host;Host;Host;1204;901;782;2192;4384;1901;5794;5349;2154;156;3702;2235;FailedConnected
Off;BestEffort;On;On;On;Off;H320;H323;H320;TCP;Auto;Tls;Host;Host;Host;1195;906;669;5908;4384;1901;5921;5655;2154;84;3702;1857;ConnectedConnected
Off;BestEffort;BestEffort;On;Off;Off;Auto;H323;Auto;TCP;Auto;Tls;Host;Host;Host;1137;983;1023;5891;4384;1901;5948;5655;2768;84;3702;2235;FailedConnected
On;BestEffort;BestEffort;Off;Off;Off;H320;H320;H320;TCP;Auto;Tls;Host;Host;Host;1204;901;1235;3733;4384;1901;5589;5655;2154;230;3702;2235;ConnectedFailed
On;BestEffort;BestEffort;Off;On;Off;H320;H323;H320;TCP;Auto;Tls;Host;Host;Host;1204;901;1004;5926;4384;1898;5921;5655;2154;84;3702;2235;FailedFailed
Off;BestEffort;Off;Off;Off;Off;H320;H323;H323;Tls;Auto;Tls;Host;Host;Host;1111;924;1068;2192;3119;1898;5921;5655;2154;84;3702;2235;ConnectedConnected
On;BestEffort;BestEffort;On;On;On;H320;H323;Auto;TCP;Auto;Tls;Host;Host;Host;1204;901;1004;5926;4384;1901;5794;5655;2768;84;3702;2235;ConnectedFailed
Off;On;On;Off;Off;Off;H320;H320;Auto;Tls;Auto;Tls;Host;Host;Host;1204;906;669;2117;2149;1901;5804;4096;2154;84;3702;2235;ConnectedFailed
Off;BestEffort;On;Off;Off;Off;H320;H323;H320;Tls;Auto;Tls;Host;Host;Host;1130;906;749;3814;4313;1898;5921;2692;2154;84;3702;2235;FailedConnected
Off;BestEffort;BestEffort;Off;Off;On;H320;H323;Sip;TCP;Auto;Tls;Host;Host;Host;1204;906;669;5908;4384;1901;5589;5371;2154;95;3702;2235;ConnectedConnected
On;BestEffort;BestEffort;Off;Off;On;Auto;H323;Sip;TCP;Auto;Tls;Host;Host;Host;1204;901;1235;5908;4384;1901;5948;5655;2768;84;3702;2235;ConnectedConnected
On;BestEffort;BestEffort;On;On;Off;H320;H323;Sip;TCP;Auto;Tls;Host;Host;Host;1204;906;1075;2694;2167;1901;5794;5655;2154;230;3702;2235;ConnectedConnected
On;BestEffort;BestEffort;Off;Off;On;H323;H323;Sip;TCP;Auto;Tls;Host;Host;Host;1204;901;1235;5908;4384;1901;5794;5655;2154;84;3702;2235;ConnectedFailed
On;BestEffort;BestEffort;On;Off;On;Sip;H323;H320;TCP;Auto;Tls;Host;Host;Host;1204;906;1156;5908;4384;1901;5794;5655;2154;230;3702;2235;FailedConnected
On;BestEffort;BestEffort;Off;Off;Off;Auto;H323;Sip;TCP;Auto;Tls;Host;Host;Host;1204;906;1230;2694;4276;1901;5794;5655;2768;84;3702;2235;FailedFailed
On;On;BestEffort;Off;On;On;H320;H323;Sip;TCP;Auto;Tls;Host;Host;Host;1204;906;1111;2694;3993;1901;5794;2652;2154;84;3702;2235;FailedFailed
On;BestEffort;BestEffort;Off;On;On;Sip;H323;Auto;Tls;Auto;Tls;Host;Host;Host;1204;901;1235;5908;4384;1901;5589;5371;2350;95;3702;2235;ConnectedFailed
On;BestEffort;BestEffort;On;Off;Off;Sip;H320;Sip;TCP;Auto;Tls;Host;Host;Host;1032;1008;1156;5908;5478;1901;5589;5655;3059;95;3702;2235;ConnectedConnected
Off;BestEffort;BestEffort;Off;On;Off;H323;H323;H320;TCP;Auto;Tls;Host;Host;Host;1204;901;1235;5908;4384;1901;5794;5655;2154;84;3702;2235;FailedConnected
On;On;On;Off;Off;On;H320;H323;H320;TCP;Auto;Tls;Host;Host;Host;1204;931;669;2192;4313;1898;5921;5229;2154;234;3702;2235;FailedConnected
On;BestEffort;BestEffort;On;Off;On;H323;H323;Auto;TCP;Auto;Tls;Host;Host;Host;1204;901;1235;5908;4791;1901;5589;5934;2529;248;3702;2235;ConnectedConnected
Off;BestEffort;On;Off;Off;Off;H320;H320;H320;Tls;Auto;Tls;Host;Host;Host;1205;906;1068;2192;4384;1901;5794;5349;2154;156;3702;2235;ConnectedFailed
On;BestEffort;Off;Off;Off;Off;H320;H323;Sip;TCP;Auto;Tls;Host;Host;Host;1108;906;669;2192;3099;1901;5794;4208;2768;95;3702;2235;ConnectedConnected
On;On;On;Off;On;On;H320;H323;Sip;TCP;Auto;Tls;Host;Host;Host;1204;906;1068;2192;4313;1898;5589;4599;2529;248;3765;2235;FailedFailed
Off;BestEffort;On;On;On;Off;H320;H323;H320;TCP;Auto;Tls;Host;Host;Host;1111;983;1239;5908;4384;1901;5794;5655;2154;84;3682;2235;ConnectedConnected
Off;On;BestEffort;Off;On;On;H320;H323;Sip;Tls;Auto;Tls;Host;Host;Host;1204;906;1108;958;4596;1898;5813;5270;2154;84;3702;2235;ConnectedConnected
On;BestEffort;BestEffort;On;Off;Off;Sip;H320;Sip;TCP;Auto;Tls;Rflx;Host;Host;1032;1008;986;5908;4384;1901;5589;5371;2154;84;3702;2235;ConnectedConnected
Off;BestEffort;BestEffort;Off;On;On;H320;H323;Sip;Tls;Auto;Tls;Host;Host;Host;1108;906;1112;2117;4384;1901;5794;4208;2768;95;3702;2235;FailedConnected
Off;On;BestEffort;Off;On;Off;H320;H323;Sip;TCP;Auto;Tls;Host;Host;Host;1159;906;1071;2117;3262;1901;5794;3767;2154;230;3702;2235;FailedFailed
On;BestEffort;BestEffort;On;Off;On;Auto;H323;H320;TCP;Auto;Tls;Host;Host;Host;1204;901;1235;5249;4384;1901;5728;5655;2154;84;3702;2235;ConnectedConnected
Off;BestEffort;On;On;Off;Off;H320;H323;H323;TCP;Auto;Tls;Host;Host;Host;1204;901;1193;3122;891;1834;5728;5655;2350;95;3702;2235;FailedConnected
On;BestEffort;BestEffort;On;On;Off;H320;H320;H320;TCP;Auto;Tls;Host;Host;Host;1180;906;1065;2872;4384;1901;5794;5349;2350;95;3702;2235;ConnectedConnected
Off;BestEffort;On;On;Off;Off;H320;H323;Sip;TCP;Auto;Tls;Host;Host;Host;1204;906;669;5908;4384;1901;5589;5371;2350;95;3702;2235;ConnectedConnected
On;BestEffort;BestEffort;Off;On;Off;H320;H323;Auto;TCP;Auto;Tls;Host;Host;Host;1204;906;1071;2117;4384;1901;5921;4681;2154;84;3702;2235;ConnectedFailed
On;BestEffort;BestEffort;On;On;Off;Auto;H323;Sip;TCP;Auto;Tls;Host;Host;Host;1204;901;1235;5249;4384;1901;5921;5655;2154;84;3702;2235;ConnectedConnected
Off;On;BestEffort;Off;Off;On;H320;H323;H320;TCP;Auto;Tls;Host;Host;Host;1204;901;669;2694;4384;1901;5589;5371;2350;95;3702;2235;FailedFailed
Off;On;On;Off;On;On;H320;Sip;Auto;Tls;Auto;Tls;Host;Host;Host;1204;906;669;2117;4384;1901;5921;4208;2768;95;4192;2235;ConnectedFailed
Off;On;On;Off;On;Off;H320;H323;Sip;TCP;Auto;Tls;Host;Host;Host;1180;906;1065;2872;4384;1901;5794;5349;2350;95;3702;2235;ConnectedFailed
Off;BestEffort;On;Off;Off;Off;H320;H320;Sip;Tls;Auto;Tls;Host;Host;Host;1204;906;1156;5908;3488;1901;5589;5922;2154;84;3702;2235;FailedFailed
Off;BestEffort;Off;Off;Off;Off;H320;H320;H320;Tls;Auto;Tls;Host;Host;Host;1204;901;1235;2694;4384;1901;5589;5371;2154;84;3682;2235;FailedFailed
On;On;Off;Off;On;On;H320;Sip;Auto;Tls;Auto;Tls;Host;Host;Host;1204;906;1078;958;4384;2622;5794;3346;2768;95;3702;2235;ConnectedFailed
Off;On;Off;On;Off;Off;H320;H323;H320;TCP;Auto;Tls;Host;Host;Host;1204;901;1193;3122;4313;1898;5921;5655;2154;84;3702;2235;FailedFailed
Off;On;Off;Off;On;Off;H320;H320;Sip;Tls;Auto;Tls;Host;Host;Host;1204;906;1071;851;4384;1901;5794;4208;2768;95;3702;2235;ConnectedConnected
On;BestEffort;BestEffort;On;Off;On;Auto;H323;H320;TCP;Auto;Tls;Host;Host;Host;1052;983;1023;5908;4384;1901;5847;5655;2154;84;3702;2235;ConnectedConnected
Off;BestEffort;On;On;Off;Off;H320;H323;Sip;TCP;Auto;Tls;Host;Host;Host;1204;901;1235;1542;4384;1901;5589;5655;2154;84;3702;2235;ConnectedFailed
Off;On;Off;On;Off;Off;H320;H323;Sip;TCP;Auto;Tls;Host;Host;Host;1204;901;669;2694;4384;1901;5589;5371;2350;95;3702;2235;ConnectedFailed
Off;BestEffort;On;Off;Off;Off;H320;H320;Sip;TCP;Auto;Tls;Host;Host;Host;1102;906;669;5908;3368;1901;5921;5655;2154;84;3702;2235;FailedConnected
On;BestEffort;BestEffort;On;On;On;H320;H320;Sip;Tls;Auto;Tls;Host;Host;Host;1204;906;1108;2192;3406;1901;5794;5349;2154;84;3702;2235;FailedFailed
On;BestEffort;BestEffort;Off;On;On;Sip;H323;H320;TCP;Auto;Tls;Host;Host;Host;1204;906;1155;5908;4384;1901;5794;5655;2154;476;3702;2235;FailedConnected
Off;On;On;Off;Off;On;H320;H323;H323;Tls;Auto;Tls;Host;Host;Host;1204;901;1004;5926;3918;1901;5728;5655;2768;95;3702;2235;ConnectedConnected
On;BestEffort;BestEffort;Off;On;On;Sip;H323;Auto;Tls;Auto;Tls;Host;Host;Host;1204;901;1235;5908;4384;1901;5589;5371;2350;95;3702;2235;ConnectedFailed
On;BestEffort;BestEffort;Off;Off;Off;Auto;H323;H320;TCP;Auto;Tls;Host;Host;Host;1204;906;1023;5908;3517;1898;5589;5655;2154;84;3702;2235;FailedConnected
Off;On;On;Off;Off;Off;H320;H323;Sip;TCP;Auto;Tls;Host;Host;Host;1108;906;669;2192;4313;1898;5921;5655;2768;84;3702;2235;ConnectedConnected
Off;BestEffort;Off;Off;Off;Off;H320;H323;H323;TCP;Auto;Tls;Host;Host;Host;1204;901;1235;2694;4384;1898;5804;5655;2172;84;3702;2235;ConnectedFailed
Off;On;BestEffort;Off;Off;Off;H320;H323;Sip;Tls;Auto;Tls;Host;Host;Host;1205;906;749;3814;4313;1898;5921;4749;2154;84;3702;2235;ConnectedFailed
Off;On;On;Off;On;Off;H320;H323;H323;Tls;Auto;Tls;Host;Host;Host;1111;924;1068;2192;3119;1898;5921;5655;2154;84;3702;2235;FailedFailed
On;BestEffort;BestEffort;Off;On;On;H323;H323;Auto;Tls;Auto;Tls;Host;Host;Host;1159;906;1071;2117;3262;1898;5921;5655;2154;84;3702;2235;ConnectedConnected
Off;On;On;Off;Off;Off;H320;H320;Sip;TCP;Auto;Tls;Host;Host;Host;1108;906;669;2192;3099;1901;5794;4208;2768;95;3702;2235;FailedConnected
Off;On;Off;Off;Off;Off;H320;H320;H323;Tls;Auto;Tls;Host;Host;Host;1081;923;1072;2694;4384;1901;5589;5371;2154;84;3702;2235;FailedConnected
On;BestEffort;On;Off;On;On;H320;H323;Sip;TCP;Auto;Tls;Host;Host;Host;1165;906;1065;1640;3312;1896;4307;2652;2154;84;3702;2235;ConnectedConnected
Off;BestEffort;Off;Off;Off;Off;H320;H320;H320;Tls;Auto;Tls;Host;Host;Host;1204;906;1072;2694;4384;1901;5794;4208;2768;95;3702;2235;ConnectedConnected
Off;BestEffort;On;Off;On;On;H320;H323;Sip;Tls;Auto;Tls;Host;Host;Host;1134;924;1068;2192;4313;1898;5921;4499;2154;84;3702;2235;ConnectedConnected
On;BestEffort;BestEffort;On;Off;Off;H320;H323;Sip;TCP;Auto;Tls;Host;Host;Host;1204;901;1004;5926;3421;1901;5794;5655;2154;84;3702;2235;ConnectedConnected
Off;BestEffort;Off;Off;Off;On;H320;H323;Sip;TCP;Auto;Tls;Host;Host;Host;1204;906;1078;3602;3023;1901;5794;2542;2768;84;3702;2235;ConnectedConnected
Off;BestEffort;On;On;On;Off;H320;H323;H320;TCP;Auto;Tls;Host;Host;Host;1111;1034;682;5926;4384;1901;5589;5371;2154;84;3702;2235;FailedFailed
On;BestEffort;BestEffort;On;Off;Off;Auto;H323;H320;TCP;Auto;Tls;Host;Host;Host;1204;906;1072;2694;4384;1100;5921;5655;2154;84;3702;2235;FailedConnected
Off;On;On;Off;Off;Off;H320;H323;H320;Tls;Tls;Tls;Host;Host;Host;1081;923;1072;2694;4384;1901;5794;4208;2154;84;3702;2235;ConnectedFailed
On;BestEffort;BestEffort;Off;Off;On;H323;H323;Auto;Tls;Auto;Tls;Host;Host;Host;1204;901;1004;5926;4384;1901;5794;5655;2768;84;3702;2235;FailedFailed
On;On;On;Off;Off;On;H320;H323;H320;Tls;Tls;Tls;Host;Host;Host;1130;906;1065;2872;4384;1901;5794;5349;2350;84;3702;2235;ConnectedConnected
Off;On;Off;Off;Off;Off;H320;H320;Sip;TCP;Auto;Tls;Host;Host;Host;1204;901;1235;2694;4384;1898;5921;5655;2768;84;356;2235;FailedFailed
Off;BestEffort;Off;Off;Off;Off;H320;H320;Auto;TCP;Auto;Tls;Host;Host;Host;1108;906;669;1462;4313;1898;5921;5655;2154;84;3702;2235;ConnectedFailed
On;On;BestEffort;Off;On;On;H320;H323;Auto;Tls;Auto;Tls;Host;Host;Host;1204;906;1098;2117;4384;1901;5794;4208;2154;84;3702;2235;FailedConnected
On;BestEffort;BestEffort;On;Off;Off;H323;H323;Auto;TCP;Auto;Tls;Host;Host;Host;1204;906;669;5908;4384;1834;5728;5655;2350;95;3682;2235;FailedConnected
Off;On;BestEffort;Off;Off;On;H320;H323;Sip;Tls;Auto;Tls;Host;Host;Host;1108;924;1068;2192;4313;1898;5921;4499;2154;84;3702;2235;ConnectedFailed
On;BestEffort;On;Off;On;Off;H320;H323;H320;Tls;Auto;Tls;Host;Host;Host;1204;906;1037;2694;3671;1898;5794;3501;2154;230;3551;2235;FailedConnected
On;BestEffort;Off;Off;Off;Off;H320;H323;Auto;Tls;Auto;Tls;Host;Host;Host;1204;901;782;2192;4384;1901;5794;5349;2154;156;3702;2235;ConnectedFailed
Off;BestEffort;BestEffort;On;On;Off;H320;H323;H323;TCP;Auto;Tls;Host;Host;Host;1204;901;1235;5908;4384;1901;5589;5655;2154;84;3702;2361;ConnectedConnected
On;On;BestEffort;Off;On;Off;H320;H320;H323;Tls;Auto;Tls;Host;Host;Host;1081;923;1072;2694;4384;1901;5818;4208;2154;84;3702;2235;ConnectedFailed
On;BestEffort;BestEffort;Off;Off;On;H320;H323;H320;Tls;Tls;Tls;Host;Host;Host;1130;906;1065;2872;4384;1901;5794;5349;2350;84;3702;2235;ConnectedFailed
Off;BestEffort;BestEffort;On;Off;Off;H320;H323;H323;TCP;Auto;Tls;Host;Host;Host;828;983;1239;5908;4384;1901;5794;5655;2154;84;3682;2235;ConnectedConnected
On;BestEffort;BestEffort;Off;On;On;H320;H323;Sip;TCP;Tls;Tls;Host;Host;Host;1204;906;669;2117;4384;1901;5804;4096;2154;84;3702;2235;ConnectedConnected
Off;On;On;On;On;Off;H320;H323;H323;TCP;Auto;Tls;Host;Host;Host;1204;901;1235;5249;4384;1901;5794;5349;2154;156;3702;2235;FailedFailed
On;BestEffort;BestEffort;Off;Off;Off;H320;H323;Sip;Tls;Auto;Tls;Host;Host;Host;1204;906;1068;2192;4313;1898;5589;4599;2529;248;3765;2235;ConnectedFailed
Off;BestEffort;On;Off;Off;Off;H320;H320;H320;Tls;Auto;Tls;Host;Host;Host;1130;906;749;3814;4313;1898;5921;2692;2154;84;3702;2235;FailedFailed
Off;BestEffort;BestEffort;Off;Off;Off;H320;H323;Sip;Tls;Auto;Tls;Host;Host;Host;1204;906;1075;2694;4313;1901;5921;3346;2154;84;3702;2235;FailedConnected
On;BestEffort;BestEffort;Off;On;On;H320;H323;Auto;Tls;Auto;Tls;Host;Host;Host;1204;906;669;5908;4384;1901;5589;5371;2350;95;3702;2235;FailedFailed
Off;BestEffort;BestEffort;Off;On;Off;H320;H323;H320;TCP;Auto;Tls;Host;Host;Host;1108;901;1235;2694;4384;1898;5921;5655;2768;84;3702;2235;FailedConnected
Off;BestEffort;On;Off;Off;On;H320;H323;Sip;TCP;Auto;Tls;Host;Host;Host;1204;906;1108;958;4596;1898;5921;4208;2768;95;3702;2235;FailedFailed
Off;BestEffort;BestEffort;On;Off;Off;Auto;H323;Sip;TCP;Auto;Tls;Host;Host;Host;1047;983;1239;5908;4384;1898;5921;5655;2808;84;3702;2235;ConnectedFailed
On;BestEffort;BestEffort;Off;Off;On;H320;H323;Sip;Tls;Auto;Tls;Host;Host;Host;1204;906;669;5908;4384;1901;5589;5371;2350;95;3702;2235;FailedConnected
On;BestEffort;BestEffort;Off;Off;Off;H323;H323;H320;TCP;Auto;Tls;Host;Host;Host;1204;901;809;3122;4313;1898;5921;5655;2154;84;3702;2235;ConnectedConnected
On;BestEffort;BestEffort;On;On;On;Auto;H323;Auto;TCP;Auto;Tls;Host;Host;Host;1042;983;1239;5908;4384;1901;5794;5655;2154;230;3702;2235;ConnectedFailed
On;On;Off;Off;Off;Off;H320;H323;Sip;Tls;Auto;Tls;Host;Host;Host;1204;931;669;2192;4313;1898;5921;5655;2154;84;3702;2235;FailedFailed
On;BestEffort;BestEffort;Off;On;Off;Auto;H323;H320;TCP;Auto;Tls;Host;Host;Host;1204;906;1072;2694;4384;1901;5794;5655;2768;84;3702;2235;ConnectedFailed
On;BestEffort;BestEffort;Off;Off;On;H323;H323;Auto;TCP;Auto;Tls;Host;Host;Host;1204;901;782;2192;4313;1898;5921;5655;2154;84;3702;2235;FailedFailed
On;BestEffort;BestEffort;On;Off;Off;H320;H323;Sip;TCP;Auto;Tls;Host;Host;Host;1204;901;1235;5249;4384;1901;5921;5655;2154;84;3702;2235;ConnectedFailed
Off;BestEffort;BestEffort;Off;Off;Off;H320;H320;Auto;TCP;Auto;Tls;Host;Host;Host;1204;901;1235;5908;4384;1901;5794;5655;2154;84;3702;2235;FailedFailed
Off;On;On;Off;On;Off;H320;H320;H320;Tls;Auto;Tls;Host;Host;Host;1204;906;669;2117;4384;1898;5813;5270;2154;84;3702;2235;FailedConnected
On;BestEffort;BestEffort;Off;Off;Off;Sip;H323;H323;TCP;Auto;Tls;Host;Host;Host;1204;906;1023;5908;3517;1898;5589;5655;2154;84;3702;2235;ConnectedConnected
On;BestEffort;BestEffort;On;Off;Off;Auto;H323;Auto;TCP;Auto;Tls;Host;Host;Host;1137;983;1023;5908;4384;1901;5948;5655;2768;84;3702;2235;ConnectedFailed
Off;BestEffort;BestEffort;On;Off;Off;H320;H323;H323;Tls;Auto;Tls;Host;Host;Host;1108;906;749;2694;3688;1901;5948;5655;2768;84;3702;2235;FailedFailed
On;On;BestEffort;On;Off;Off;H320;H323;Sip;Tls;Auto;Tls;Host;Host;Host;1165;918;706;2868;4384;1901;5794;5349;2154;156;3702;2235;FailedConnected
Off;BestEffort;Off;Off;Off;Off;H320;H320;H320;Tls;Auto;Tls;Host;Host;Host;1204;906;1078;958;4384;2622;5794;3346;3160;95;3702;2235;FailedConnected
Off;BestEffort;BestEffort;On;Off;Off;H323;H323;H320;TCP;Auto;Tls;Host;Host;Host;1122;906;1023;5908;3867;1898;5921;5655;2154;95;3702;2235;ConnectedFailed
On;BestEffort;BestEffort;Off;On;Off;H323;H323;H320;Tls;Auto;Tls;Host;Host;Host;1204;901;669;2694;4384;1901;5589;5371;2350;95;3702;2235;FailedFailed
Off;BestEffort;On;Off;Off;On;H320;H323;Sip;Tls;Auto;Tls;Host;Host;Host;1108;924;1029;2117;3517;1901;5794;5608;2154;230;3702;2235;ConnectedConnected
Off;On;Off;Off;Off;Off;H320;H323;H323;Tls;Auto;Tls;Host;Host;Host;1204;901;1193;3122;4384;1901;5780;5655;2154;84;3702;2235;ConnectedFailed
Off;On;BestEffort;Off;On;Off;H320;H320;H320;Tls;Auto;Tls;Host;Host;Host;1204;906;669;3520;4313;1898;5921;5655;2154;84;3702;2235;ConnectedFailed
On;BestEffort;BestEffort;On;Off;On;Auto;H323;H320;TCP;Auto;Tls;Host;Host;Host;1204;901;1235;5249;4384;1901;5728;5655;2154;84;3702;2235;ConnectedConnected
On;BestEffort;BestEffort;On;Off;On;Auto;H323;Auto;TCP;Auto;Tls;Host;Host;Host;1137;983;1075;2694;2167;1901;5794;5655;2154;230;3702;2235;FailedFailed
Off;BestEffort;On;Off;On;Off;H320;H323;Sip;TCP;Auto;Tls;Host;Host;Host;1204;901;1235;5908;4384;1898;5921;5655;2154;84;3702;2235;FailedFailed
Off;BestEffort;BestEffort;Off;On;Off;H320;H323;H320;TCP;Auto;Tls;Host;Host;Host;1204;906;669;5908;4384;1901;5921;5655;2154;84;3702;2235;ConnectedConnected
Off;BestEffort;Off;Off;On;Off;H320;H320;H323;Tls;Auto;Tls;Host;Host;Host;1081;923;1072;2694;4384;1901;5818;4208;2154;84;3702;2235;FailedFailed
On;BestEffort;BestEffort;Off;Off;On;H320;H323;Auto;Tls;Auto;Tls;Host;Host;Host;1103;901;1235;5908;4384;1901;5921;5655;2154;84;3702;2235;FailedConnected
Off;On;On;Off;Off;Off;H320;H320;Sip;TCP;Auto;Tls;Host;Host;Host;1204;906;1230;2694;4384;1901;5794;4208;2154;84;3702;2235;ConnectedConnected
Off;On;Off;Off;Off;On;H320;H323;H323;Tls;Auto;Tls;Host;Host;Host;1204;906;1071;851;4384;1901;5794;4208;2768;95;3702;2235;ConnectedFailed
On;BestEffort;BestEffort;Off;On;On;Sip;H323;Auto;Tls;Auto;Tls;Host;Host;Host;1204;906;669;2192;4313;1898;4065;5655;2154;84;3702;2235;ConnectedFailed
Off;On;Off;Off;Off;Off;H320;H320;H320;Tls;Auto;Tls;Host;Host;Host;1108;924;1068;2192;4313;1898;5921;4499;2154;84;3702;2235;ConnectedConnected
On;On;On;Off;On;On;H320;Sip;H323;Tls;Auto;Tls;Host;Host;Host;1204;906;1098;2117;4384;1901;4106;3281;2154;350;3702;2235;ConnectedConnected
On;BestEffort;BestEffort;Off;Off;Off;Auto;H323;H320;TCP;Auto;Tls;Host;Host;Host;1111;906;1075;1914;4313;1901;5794;5635;2154;230;3702;2235;ConnectedConnected
On;BestEffort;BestEffort;On;Off;Off;Auto;H323;H320;TCP;Auto;Tls;Host;Host;Host;1204;906;1072;2694;4384;1100;5921;5655;2154;84;3702;2235;ConnectedFailed
On;BestEffort;On;Off;Off;Off;H320;H323;H323;TCP;Auto;Tls;Host;Host;Host;1205;918;706;2868;4384;1901;5948;5655;2768;84;3702;2235;ConnectedConnected
Off;BestEffort;BestEffort;On;Off;Off;H320;H323;H323;TCP;Auto;Tls;Host;Host;Host;1137;983;1023;5908;4384;1901;5948;5655;2768;84;3702;2235;FailedConnected
On;BestEffort;BestEffort;Off;Off;Off;H320;H320;H320;Tls;Auto;Tls;Host;Host;Host;1204;906;1071;2117;4384;1901;5589;5329;2529;248;3765;2235;FailedFailed
On;BestEffort;BestEffort;Off;Off;On;H323;H323;H323;TCP;Auto;Tls;Host;Host;Host;1204;901;1235;5908;4384;1901;5794;5655;2154;84;3702;2235;FailedConnected
On;BestEffort;BestEffort;Off;On;On;H323;H323;Auto;TCP;Auto;Tls;Host;Host;Host;1137;983;1023;5908;4384;1901;5847;5655;2154;84;3702;2235;FailedFailed
On;BestEffort;BestEffort;On;On;Off;Auto;H323;Sip;TCP;Auto;Tls;Host;Host;Host;1159;906;1071;2117;4246;1901;5794;5655;2154;84;3702;2235;ConnectedFailed
Off;BestEffort;On;Off;Off;Off;H320;H323;H323;TCP;Auto;Tls;Host;Host;Host;1204;901;1235;2694;4384;1898;5921;5655;2768;84;3702;2235;ConnectedConnected
On;BestEffort;BestEffort;Off;On;On;H320;H320;H320;TCP;Auto;Tls;Host;Host;Host;1130;906;1065;2872;4384;1901;5794;5349;2350;95;3702;2235;ConnectedFailed
Off;BestEffort;On;Off;Off;On;H320;H323;Sip;TCP;Auto;Tls;Host;Host;Host;1204;901;1068;2311;4384;2622;5794;2652;2600;84;3682;2235;FailedConnected
On;On;Off;Off;On;On;H320;H323;Auto;Tls;Auto;Tls;Host;Host;Host;1204;906;1078;958;4384;2622;5794;3346;2154;84;3702;2235;FailedConnected
On;BestEffort;BestEffort;Off;On;On;H320;H323;Auto;Tls;Auto;Tls;Host;Host;Host;1204;906;1098;3796;4384;1901;4106;3281;2154;95;3702;2275;ConnectedConnected
On;BestEffort;BestEffort;Off;Off;On;H320;H323;Sip;Tls;Auto;Tls;Host;Host;Host;1204;906;1023;5908;3517;1898;5589;5655;2154;84;3702;2235;FailedFailed
Off;BestEffort;On;On;On;Off;H320;H323;H320;TCP;Auto;Tls;Host;Host;Host;1204;906;1078;3602;3023;1901;5794;5655;2768;84;3702;2235;ConnectedConnected
On;BestEffort;BestEffort;On;Off;Off;Auto;H320;Sip;TCP;Auto;Tls;Host;Host;Host;1111;983;1239;5908;4384;1901;5794;5655;2154;84;3682;2235;ConnectedConnected
Off;BestEffort;BestEffort;On;On;Off;H320;H323;H323;TCP;Auto;Tls;Host;Host;Host;1204;1198;1235;5908;4384;1901;5921;5655;2154;84;3702;2235;ConnectedConnected
On;On;BestEffort;Off;Off;On;H320;H323;H320;TCP;Auto;Tls;Host;Host;Host;1204;931;1071;3198;3421;1901;5794;5655;2154;84;3702;2235;ConnectedFailed
On;BestEffort;BestEffort;Off;On;On;H323;H323;Auto;Tls;Auto;Tls;Host;Host;Host;1204;901;1004;5926;4384;1901;5794;5655;2768;84;3702;2235;ConnectedFailed
Off;On;On;Off;Off;Off;H320;H323;Sip;TCP;Auto;Tls;Host;Host;Host;1204;906;1075;2694;2167;1901;5794;5655;2154;230;3702;2235;FailedFailed
On;BestEffort;BestEffort;Off;Off;Off;H323;H323;H320;TCP;Auto;Tls;Host;Host;Host;1122;906;1023;5908;3517;1898;5921;5655;2154;95;3702;2235;ConnectedConnected
On;BestEffort;BestEffort;On;On;Off;Auto;H323;Sip;TCP;Auto;Tls;Host;Host;Host;1108;906;669;4833;3867;1898;5921;5655;2154;95;3702;2235;ConnectedConnected
Off;BestEffort;BestEffort;Off;Off;On;H320;H323;H320;TCP;Auto;Tls;Host;Host;Host;1204;901;669;2694;4384;1901;5589;5371;2768;84;3702;2235;FailedConnected
On;BestEffort;BestEffort;Off;Off;On;Auto;H323;Sip;TCP;Auto;Tls;Host;Host;Host;1204;901;1235;5908;4384;1901;5948;5655;2768;84;3702;2235;ConnectedFailed
On;BestEffort;BestEffort;Off;Off;Off;Auto;H320;Auto;TCP;Auto;Tls;Host;Host;Host;1137;983;1023;5908;4384;1901;5847;5655;2154;84;3702;2235;ConnectedConnected
Off;BestEffort;BestEffort;On;Off;On;H323;H323;H320;TCP;Auto;Tls;Host;Host;Host;1204;906;1155;5908;4384;1901;5794;5655;2154;84;3702;2235;ConnectedConnected
Off;BestEffort;Off;Off;Off;Off;H320;H323;H323;Tls;Auto;Tls;Host;Host;Host;1204;906;1068;2192;4313;1898;5589;4599;2529;248;3765;2235;ConnectedConnected
On;BestEffort;BestEffort;Off;Off;Off;H320;H323;Sip;TCP;Auto;Tls;Host;Host;Host;1204;901;1193;3122;4313;1898;5921;5655;2154;84;3702;2235;FailedConnected
Off;On;BestEffort;Off;Off;On;H320;H323;H320;TCP;Auto;Tls;Host;Host;Host;1204;901;669;2694;4384;1901;5589;5371;2350;95;3702;2235;FailedConnected
On;BestEffort;BestEffort;On;On;On;H320;H323;Auto;TCP;Auto;Tls;Host;Host;Host;1204;906;1108;2192;3406;1901;5794;5349;2154;156;3702;2235;FailedConnected
On;BestEffort;BestEffort;On;Off;Off;Auto;H323;H320;TCP;Auto;Tls;Host;Host;Host;1204;906;1072;2694;4384;1901;5794;5655;2768;84;3702;2235;ConnectedConnected
Off;On;Off;Off;On;Off;H320;H320;Sip;Tls;Auto;Tls;Host;Host;Host;1134;924;1068;2192;4313;1898;5921;4208;2154;84;4756;2235;ConnectedFailed
Off;On;BestEffort;Off;Off;Off;H320;H320;Sip;TCP;Auto;Tls;Host;Host;Host;1204;906;1230;2694;4384;1901;5794;4208;2154;84;3702;2235;ConnectedFailed
Off;BestEffort;BestEffort;Off;Off;Off;H320;H320;Auto;TCP;Auto;Tls;Host;Host;Host;1204;901;1235;3067;4384;1901;5794;5655;2154;84;3702;2235;ConnectedFailed
On;BestEffort;BestEffort;On;Off;Off;Auto;H323;H320;TCP;Auto;Tls;Host;Host;Host;1204;906;1072;2694;4384;1901;5728;5655;2768;95;3702;2235;FailedFailed
On;BestEffort;BestEffort;Off;On;Off;Auto;H323;Auto;Tls;Auto;Tls;Host;Host;Host;1204;901;1004;5926;4384;1901;5794;5655;2768;84;3702;2235;FailedConnected
Off;BestEffort;BestEffort;Off;Off;Off;H323;H323;Auto;TCP;Auto;Tls;Host;Host;Host;1204;906;669;5908;4384;1901;5589;5371;2154;95;3702;2235;ConnectedFailed
Off;BestEffort;BestEffort;Off;Off;Off;H320;H320;H320;TCP;Auto;Tls;Host;Host;Host;1204;906;1156;5908;4384;1901;5794;5655;2154;230;3702;2235;FailedConnected
On;BestEffort;BestEffort;Off;Off;Off;H320;H320;H320;Tls;Auto;Tls;Host;Host;Host;1204;906;1071;2117;4384;1901;5589;5329;2529;248;3765;2235;ConnectedFailed
On;BestEffort;BestEffort;On;Off;Off;H320;H320;H323;TCP;Auto;Tls;Host;Host;Host;1204;901;1235;5908;5478;1901;5589;5655;2154;141;2908;2235;ConnectedFailed
Off;BestEffort;BestEffort;On;Off;Off;H320;H320;Sip;TCP;Auto;Tls;Host;Host;Host;1108;906;669;2192;3099;1898;5921;5655;2154;84;3702;2235;FailedFailed
On;On;On;Off;On;On;H320;Sip;H323;Tls;Auto;Tls;Host;Host;Host;1165;906;1065;1640;3312;1896;4106;2652;2154;84;3702;2235;ConnectedFailed
On;BestEffort;BestEffort;Off;Off;Off;H323;H323;Auto;TCP;Auto;Tls;Host;Host;Host;1111;918;706;2868;4384;1901;5589;5371;2350;84;3702;2235;FailedFailed
On;On;BestEffort;Off;Off;On;H320;H323;Sip;Tls;Auto;Tls;Host;Host;Host;1180;906;1065;2872;4384;1901;5794;5349;2172;84;3702;2235;ConnectedFailed
On;BestEffort;BestEffort;On;Off;On;Auto;H323;H320;TCP;Auto;Tls;Host;Host;Host;1204;906;1072;2694;4384;1901;5794;5655;2154;230;3702;2235;FailedConnected
Off;On;Off;Off;On;On;H320;H320;H320;Tls;Auto;Tls;Host;Host;Host;1204;906;1108;2192;3406;3054;5813;2704;2768;95;3682;2235;ConnectedFailed
Off;BestEffort;On;Off;Off;Off;H320;H320;Sip;Tls;Auto;Tls;Host;Host;Host;1204;906;1156;5908;3488;1901;5589;5922;2154;84;3702;2235;FailedFailed
Off;On;Off;On;Off;Off;H320;H320;H320;TCP;Auto;Tls;Host;Host;Host;1204;901;1004;5926;4384;1898;5921;5655;2154;84;3702;2235;FailedFailed
On;BestEffort;BestEffort;Off;Off;On;Auto;H323;Sip;TCP;Auto;Tls;Host;Host;Host;1204;901;1235;5908;4384;1901;5589;5371;2350;95;3702;2235;FailedFailed
Off;BestEffort;Off;Off;Off;Off;H320;H320;Auto;TCP;Auto;Tls;Host;Host;Host;1165;906;1065;2694;3406;1896;5921;4208;2768;95;3702;2235;ConnectedConnected
Off;BestEffort;On;Off;On;Off;H320;H323;Sip;TCP;Auto;Tls;Host;Host;Host;1102;906;669;5654;3368;1901;5921;5655;2154;84;3702;2235;ConnectedConnected
On;On;On;Off;Off;Off;H320;H323;H320;Tls;Tls;Tls;Host;Host;Host;1081;923;1072;2694;4384;1901;5794;4208;2154;84;3702;2235;ConnectedConnected
Off;On;BestEffort;Off;Off;Off;H320;H323;H323;Tls;Auto;Tls;Host;Host;Host;1204;931;1071;2117;4384;1901;5589;5329;2529;248;3765;2235;FailedFailed
Off;BestEffort;BestEffort;Off;On;Off;H320;H323;H320;TCP;Auto;Tls;Host;Host;Host;1108;906;669;2192;4313;1898;5921;5655;2154;95;3702;2235;FailedConnected
Off;BestEffort;BestEffort;Off;On;On;H320;H320;Sip;Tls;Auto;Tls;Host;Host;Host;1204;906;1108;2192;3406;1901;5794;5349;2154;84;3702;2235;ConnectedFailed
On;BestEffort;BestEffort;On;On;On;Sip;H323;Auto;TCP;Auto;Tls;Host;Host;Host;1137;983;1023;5908;4384;1901;5948;5655;2768;84;5155;2235;ConnectedConnected
Off;On;Off;Off;Off;Off;H320;H320;H320;TCP;Auto;Tls;Host;Host;Host;1165;906;1065;2694;3406;1896;5921;4208;2768;95;3702;2235;FailedFailed
Off;On;Off;Off;On;On;H320;H323;Sip;Tls;Auto;Tls;Host;Host;Host;1204;906;1108;958;4384;1898;5921;4208;2768;95;3702;2235;FailedConnected
Off;BestEffort;BestEffort;Off;Off;Off;H320;H320;Auto;Tls;Auto;Tls;Host;Host;Host;1204;906;1065;2872;4384;1901;5794;5349;2350;95;3702;2235;FailedConnected
On;On;BestEffort;Off;Off;Off;H320;H323;H323;Tls;Auto;Tls;Host;Host;Host;1204;906;669;2192;4313;1898;5921;5096;2154;84;3702;2235;FailedConnected
On;BestEffort;BestEffort;Off;On;Off;H323;H323;Sip;TCP;Auto;Tls;Host;Host;Host;1204;931;1071;2834;4384;1901;5589;4599;2154;84;3702;2235;FailedFailed
On;BestEffort;BestEffort;On;Off;On;H323;H323;H320;TCP;Auto;Tls;Host;Host;Host;1204;906;1155;5908;4384;1901;5794;5655;2154;84;3702;2235;ConnectedFailed
Off;BestEffort;On;Off;On;On;H320;H323;H320;TCP;Auto;Tls;Host;Host;Host;1204;906;1071;2117;3421;1901;5794;4208;2154;84;3702;1978;FailedFailed
On;BestEffort;BestEffort;On;On;Off;Auto;H323;Sip;TCP;Auto;Tls;Host;Host;Host;1137;983;1023;5908;2879;1901;5948;5655;2768;84;3702;2235;FailedConnected
On;BestEffort;On;Off;Off;Off;H320;H323;H323;TCP;Auto;Tls;Host;Host;Host;1205;918;706;2868;4384;1901;5589;5371;2350;95;3702;2235;FailedConnected
On;BestEffort;BestEffort;On;Off;Off;Auto;H323;H320;TCP;Auto;Tls;Host;Host;Host;1042;983;1239;5908;4384;1901;5794;5655;2172;84;3702;2235;FailedFailed
Off;BestEffort;BestEffort;On;Off;On;H323;H323;H320;TCP;Auto;Tls;Host;Host;Host;1204;906;1155;5908;4384;1901;5794;5655;2154;84;3702;2235;FailedFailed
Off;BestEffort;BestEffort;On;On;Off;H323;H323;Auto;TCP;Auto;Tls;Host;Host;Host;1204;901;1235;5908;4384;1901;5589;5655;2154;84;3702;2361;ConnectedFailed
Off;BestEffort;On;Off;On;On;H320;H323;H320;TCP;Auto;Tls;Host;Host;Host;1204;906;1071;2117;3421;1901;5794;4208;2154;84;3702;1978;FailedFailed
Off;BestEffort;On;Off;Off;On;H320;H323;Sip;TCP;Auto;Tls;Host;Host;Host;1204;901;1068;2192;4313;1898;5921;4499;2154;84;3702;2235;FailedConnected
Off;BestEffort;BestEffort;On;Off;Off;Sip;H323;Auto;TCP;Auto;Tls;Host;Host;Host;1137;983;1023;5908;4384;1901;5948;5655;2768;84;5155;2235;FailedConnected
On;BestEffort;BestEffort;On;On;On;Sip;H323;Auto;TCP;Auto;Tls;Host;Host;Host;1137;983;1023;2996;3867;1898;5921;5655;2154;95;3702;2235;ConnectedFailed
Off;On;BestEffort;Off;On;Off;H320;H323;Sip;TCP;Auto;Tls;Host;Host;Host;1159;906;1071;2117;3262;1901;5794;5349;2350;95;3702;2235;FailedConnected
Off;BestEffort;On;Off;Off;Off;H320;H323;Sip;TCP;Auto;Tls;Host;Host;Host;1108;906;1064;2192;4313;1898;5921;5655;2808;84;3702;2235;ConnectedFailed
Off;On;BestEffort;Off;On;Off;H320;H320;H320;Tls;Auto;Tls;Host;Host;Host;1204;906;669;3520;4313;1898;5921;5655;2154;84;3702;2235;FailedConnected
Off;BestEffort;BestEffort;Off;Off;Off;H320;H320;Sip;Tls;Auto;Tls;Host;Host;Host;1204;906;1075;2694;4313;1901;5921;3346;2154;84;3702;2235;FailedConnected
On;BestEffort;BestEffort;On;On;Off;Auto;H323;Sip;TCP;Auto;Tls;Host;Host;Host;1108;906;669;5908;4384;1901;5794;5349;2154;156;3702;2235;ConnectedFailed
Off;On;Off;Off;Off;Off;H320;H323;Sip;Tls;Auto;Tls;Host;Host;Host;1204;931;1071;2834;4384;1901;5589;4599;2154;84;3702;2235;FailedFailed
Off;BestEffort;BestEffort;Off;Off;Off;H320;H320;Auto;TCP;Auto;Tls;Host;Host;Host;1204;901;1235;3067;4384;1901;5794;5655;2154;84;3702;2235;ConnectedFailed
On;On;Off;Off;On;On;H320;Sip;H320;Tls;Auto;Tls;Host;Host;Host;1204;931;1071;2117;4384;2718;5794;4208;2154;84;3702;2235;ConnectedConnected
On;BestEffort;BestEffort;On;Off;On;Auto;H323;H320;TCP;Auto;Tls;Host;Host;Host;1204;906;1072;2694;4384;1901;5794;5655;2154;230;3702;2235;FailedConnected
On;BestEffort;On;Off;On;Off;H320;H323;H320;Tls;Auto;Tls;Host;Host;Host;1204;906;1037;2694;3671;1898;5794;3501;2154;230;3551;2235;ConnectedConnected
Off;BestEffort;BestEffort;On;Off;Off;H323;H323;Auto;TCP;Auto;Tls;Host;Host;Host;1204;901;1239;5908;4384;1901;5794;5655;2154;84;3682;2235;ConnectedFailed
On;BestEffort;BestEffort;On;Off;Off;H323;H323;Auto;TCP;Auto;Tls;Host;Host;Host;1204;906;1065;2872;4384;1901;5794;5349;2350;84;3702;2235;FailedFailed
On;BestEffort;BestEffort;On;On;Off;Auto;H323;Sip;TCP;Auto;Tls;Host;Host;Host;1159;906;1071;2117;3262;1901;5794;5655;2154;230;3702;2235;ConnectedFailed
Off;On;On;Off;Off;Off;H320;H320;H320;TCP;Auto;Tls;Host;Host;Host;1180;906;1065;2872;4384;1901;5794;5349;2172;84;3702;3729;FailedConnected
On;BestEffort;BestEffort;Off;On;Off;H320;H323;H320;TCP;Auto;Tls;Host;Host;Host;1204;906;1108;2192;3406;1901;5794;5349;2865;156;3702;2235;ConnectedConnected
Off;BestEffort;BestEffort;Off;On;Off;H320;H323;H320;Tls;Auto;Tls;Host;Host;Host;1145;906;669;2192;4313;1901;5794;3346;2154;84;3702;2235;FailedFailed
Off;BestEffort;Off;Off;Off;Off;H320;H320;Auto;TCP;Auto;Tls;Host;Host;Host;1204;901;1235;5908;4384;1901;5794;5655;2154;230;3702;2235;ConnectedConnected
On;BestEffort;BestEffort;Off;On;On;H320;Sip;Auto;Tls;Auto;Tls;Host;Host;Host;1136;906;1065;1640;3312;1896;4106;2652;2154;84;3702;2235;FailedFailed
On;BestEffort;BestEffort;On;On;Off;Auto;H323;Sip;TCP;Auto;Tls;Host;Host;Host;1137;983;1023;5908;2879;1901;5948;5655;2768;84;3702;2235;ConnectedConnected
On;BestEffort;BestEffort;Off;Off;Off;H323;H323;H320;TCP;Auto;Tls;Host;Host;Host;1204;901;1193;5908;4384;1901;5794;5655;2154;84;3702;2235;FailedConnected
On;BestEffort;BestEffort;On;Off;Off;Auto;H320;Sip;TCP;Auto;Tls;Host;Host;Host;1111;918;1023;5908;2215;1901;5948;5655;2154;84;3702;2235;FailedFailed
On;On;BestEffort;Off;Off;On;H320;H323;H323;Tls;Auto;Tls;Host;Host;Host;1204;862;669;2117;2149;1901;5804;4096;2154;84;3702;2235;FailedConnected
Off;On;BestEffort;Off;On;On;H320;H323;Sip;Tls;Auto;Tls;Host;Host;Host;1204;906;1108;958;4596;1901;5804;4096;2154;84;3702;2235;FailedConnected
On;BestEffort;BestEffort;Off;On;On;H320;Sip;Auto;Tls;Auto;Tls;Host;Host;Host;1204;906;1098;2117;4384;1901;4106;3281;2154;84;3702;2235;FailedConnected
Off;BestEffort;BestEffort;On;Off;Off;H320;H320;Sip;TCP;Auto;Tls;Host;Host;Host;1108;906;669;2192;3099;1898;5921;5655;2154;84;3702;2235;FailedConnected
Off;On;On;Off;Off;Off;H320;H320;H320;Tls;Auto;Tls;Host;Host;Host;1158;906;1233;3443;4313;1901;5794;3893;2154;230;3702;2235;FailedConnected
On;BestEffort;On;Off;Off;Off;H320;H323;H320;Tls;Auto;Tls;Host;Host;Host;1130;906;749;3814;4313;1898;5921;2692;2154;84;3702;2235;ConnectedConnected
Off;On;On;Off;On;Off;H320;H323;Sip;TCP;Auto;Tls;Host;Host;Host;1204;906;1155;2211;4384;1901;5794;5655;2154;84;3702;2235;ConnectedFailed
On;On;BestEffort;Off;On;On;H320;H323;Sip;Tls;Auto;Tls;Host;Host;Host;1204;924;1068;2192;4313;1898;5921;4499;2154;84;3702;2235;FailedConnected
On;BestEffort;BestEffort;Off;On;Off;H323;H323;Auto;TCP;Auto;Tls;Host;Host;Host;1204;906;1156;5908;4384;1901;5794;5655;2154;84;3702;2235;FailedConnected
On;BestEffort;BestEffort;Off;On;Off;Auto;H323;Auto;Tls;Auto;Tls;Host;Host;Host;1204;901;1004;5926;3918;1901;5728;5655;2768;95;3702;2235;FailedConnected
Off;BestEffort;BestEffort;Off;On;Off;H320;H323;H320;TCP;Auto;Tls;Host;Host;Host;1204;1008;986;5908;4384;1901;5589;5371;2154;84;3702;2235;ConnectedConnected
Off;On;Off;On;Off;Off;H320;H320;H320;TCP;Auto;Tls;Host;Host;Host;1111;983;1235;2694;1161;1898;5921;5655;2768;84;3702;2235;FailedFailed
On;BestEffort;BestEffort;Off;Off;Off;H320;H323;H323;Tls;Auto;Tls;Host;Host;Host;1204;931;1071;2117;2183;1901;5589;5371;2350;95;3682;2235;FailedConnected
Off;On;Off;On;Off;Off;H320;H320;H320;TCP;Auto;Tls;Host;Host;Host;1047;983;1239;5908;4384;1901;5794;5655;2154;84;5382;2235;FailedFailed
Off;BestEffort;BestEffort;Off;Off;Off;H320;H320;H320;TCP;Auto;Tls;Host;Host;Host;1204;906;1156;5908;4384;1901;5794;5655;2154;230;3702;2235;ConnectedConnected
On;On;On;Off;Off;Off;H320;H323;Sip;Tls;Auto;Tls;Host;Host;Host;1204;906;1068;1547;2345;1898;5921;2692;2154;84;3702;2235;ConnectedConnected
On;BestEffort;BestEffort;On;On;On;Auto;H323;Auto;TCP;Auto;Tls;Host;Host;Host;1042;983;1239;5908;4384;1901;5794;5655;2154;230;3702;2235;FailedFailed
On;BestEffort;BestEffort;On;Off;Off;Auto;H323;H320;TCP;Auto;Tls;Host;Host;Host;1204;901;1235;5908;4384;1898;5921;5655;2154;84;3702;2235;FailedConnected
