Encryption; Encryption_s2; Encryption_s3;ListenPort;ListenPort_s2;ListenPort_s3;DefaultCall_Protocol;DefaultCall_Protocol_s2;DefaultCall_Protocol_s3;DefaultTransport;DefaultTransport_s2;DefaultTransport_s3;Ice_DefaultCandidate;Ice_DefaultCandidate_s2;Ice_DefaultCandidate_S3;MTU;MTU_s2;MTU_s3;DefaultCall_Rate;DefaultCall_Rate_s2;DefaultCall_Rate_s3;MaxTransmitCallRate;MaxTransmitCallRate_s2;MaxTransmitCallRate_s3;MaxReceiveCallRate;MaxReceiveCallRate_s2;MaxReceiveCallRate_s3;Done
Off;On;Off;Off;Off;Off;H320;H320;Sip;TCP;Auto;Tls;Host;Host;Host;1175;924;734;1584;2258;1879;5992;2881;2164;75;4376;1932;NotDone
On;On;On;Off;On;On;H320;Sip;Sip;Tls;Auto;Tls;Host;Host;Host;1081;938;1045;1517;3666;1821;3938;3781;2164;75;3843;2217;NotDone
On;BestEffort;BestEffort;On;On;On;H323;H323;H320;TCP;Auto;Tls;Host;Host;Host;1120;924;1240;5940;2216;1993;4176;5354;2164;271;3843;2217;NotDone
Off;On;Off;Off;On;On;H320;Sip;Sip;Tls;Auto;Tls;Host;Host;Host;1100;938;1062;140;3638;1876;4176;3346;2164;75;3843;2214;NotDone
Off;BestEffort;BestEffort;On;Off;Off;Auto;H323;Sip;TCP;Auto;Tls;Host;Host;Host;1092;924;1229;5852;5002;1879;5992;5797;2164;75;3843;2115;NotDone
On;BestEffort;BestEffort;On;On;On;H323;H323;H320;TCP;Auto;Tls;Host;Host;Host;1120;924;1240;5940;2216;1993;4176;5354;2164;271;3843;2217;NotDone
On;BestEffort;BestEffort;Off;On;On;H323;H323;Sip;TCP;Auto;Tls;Host;Host;Host;1059;938;1232;3382;4138;1876;5550;5797;2914;265;3646;1932;NotDone
On;BestEffort;BestEffort;Off;On;Off;H323;H323;Sip;TCP;Auto;Tls;Host;Host;Host;1175;941;1050;5940;3666;1879;4402;5797;2164;75;3843;2027;NotDone
On;BestEffort;BestEffort;On;On;On;H323;H323;H320;TCP;Auto;Tls;Host;Host;Host;1196;938;1003;2973;3638;1879;5992;5797;2164;75;4376;1932;NotDone
On;BestEffort;BestEffort;On;On;Off;H323;H323;Auto;TCP;Auto;Tls;Host;Host;Host;1175;924;1090;2402;2216;1993;4176;5354;2164;271;3843;2217;NotDone
On;BestEffort;BestEffort;Off;On;On;H323;H323;Sip;TCP;Auto;Tls;Host;Host;Host;1175;941;1050;5940;3666;1879;4402;5797;2164;75;4376;2214;NotDone
On;BestEffort;BestEffort;Off;On;Off;H323;H323;Sip;TCP;Auto;Tls;Host;Host;Host;1128;924;1061;1979;3666;1879;5946;5797;2164;271;3843;2217;NotDone
On;BestEffort;BestEffort;Off;On;On;Sip;H323;Sip;TCP;Auto;Tls;Host;Host;Host;1175;924;1222;2952;3666;1879;3972;5797;2914;265;3646;2214;NotDone
On;BestEffort;BestEffort;Off;Off;On;H323;H323;H320;TCP;Auto;Tls;Host;Host;Host;1081;938;1045;3382;3666;1879;5992;5797;2914;75;3906;2214;NotDone
Off;On;Off;Off;Off;Off;H320;H323;Sip;Tls;Auto;Tls;Host;Host;Host;1081;938;1102;3382;3386;1993;5550;4157;2164;271;4376;2377;NotDone
Off;On;Off;Off;On;On;H320;Sip;Sip;Tls;Auto;Tls;Host;Host;Host;1175;938;1045;3561;3482;2876;5739;3891;2164;75;3843;2027;NotDone
Off;BestEffort;BestEffort;Off;Off;On;H323;H323;H320;TCP;Auto;Tls;Host;Host;Host;1175;924;1229;5852;5002;1879;5992;5797;2914;75;4318;2214;NotDone
On;BestEffort;BestEffort;Off;Off;Off;H323;H320;Auto;TCP;Auto;Tls;Host;Host;Host;1164;1165;1229;5852;5002;1879;5992;5417;2164;75;4272;2217;NotDone
On;BestEffort;BestEffort;Off;On;On;H320;H323;Sip;Tls;Auto;Tls;Host;Host;Host;1128;924;1045;894;3638;1993;4176;5319;2471;271;3843;2217;NotDone
Off;BestEffort;Off;On;Off;Off;H320;H320;Sip;TCP;Auto;Tls;Host;Host;Host;1195;938;1045;2585;4138;1876;5768;2845;2164;271;4690;2217;NotDone
Off;On;Off;Off;Off;On;H320;H320;H320;Tls;Auto;Tls;Host;Host;Host;1100;938;1102;140;3638;1876;5739;4025;2164;75;3843;2214;NotDone
On;On;Off;Off;Off;Off;H320;H323;H323;Tls;Auto;Tls;Host;Host;Host;1059;938;1048;2585;4138;1876;5550;5417;2164;109;3674;2377;NotDone
Off;On;Off;Off;Off;Off;H320;H320;Sip;TCP;Auto;Tls;Host;Host;Host;1175;924;1061;2268;3666;1879;5946;5797;2164;271;3843;2217;NotDone
On;BestEffort;BestEffort;Off;On;On;H320;H323;H320;Tls;Auto;Tls;Host;Host;Host;1100;938;1171;4023;3666;1879;5992;5797;2914;75;4376;1932;NotDone
Off;BestEffort;BestEffort;On;Off;Off;H323;H323;Sip;TCP;Auto;Tls;Host;Host;Host;1092;924;1229;5852;5002;1879;5992;5797;2914;75;4318;2214;NotDone
On;BestEffort;BestEffort;On;On;On;H323;H323;Auto;TCP;Auto;Tls;Host;Host;Host;1173;924;1045;3283;2216;1993;4176;5354;2164;178;3843;1774;NotDone
On;On;Off;Off;Off;Off;H320;H323;H323;TCP;Auto;Tls;Host;Host;Host;1175;924;1061;1979;3666;1879;5946;5797;2164;271;3843;2217;NotDone
On;BestEffort;BestEffort;On;On;On;Sip;H323;H320;TCP;Auto;Tls;Host;Host;Host;1175;924;1229;5852;5002;1879;5992;5797;2914;75;3776;2217;NotDone
Off;BestEffort;BestEffort;Off;On;On;H320;H323;H320;Tls;Auto;Tls;Host;Host;Host;1059;1058;1045;1584;3666;1879;5946;5417;2164;75;3843;2214;NotDone
On;On;On;Off;On;On;H320;H323;Sip;Tls;Auto;Tls;Host;Host;Host;1128;924;1045;4023;3666;1876;5768;2845;2164;271;4318;2214;NotDone
On;BestEffort;BestEffort;Off;Off;Off;Sip;H323;H323;TCP;Auto;Tls;Host;Host;Host;1120;924;1061;2268;3666;1879;5946;5797;2164;271;3843;2217;NotDone
Off;On;Off;Off;On;On;H320;H320;Sip;Tls;Auto;Tls;Host;Host;Host;1100;938;1045;140;3638;1876;5739;4025;2164;75;3843;2214;NotDone
On;BestEffort;BestEffort;On;On;Off;H323;H323;Sip;TCP;Auto;Tls;Host;Host;Host;1175;924;1240;2402;2216;1993;4176;5354;2164;271;3843;2217;NotDone
Off;On;Off;Off;On;On;H320;H320;Sip;Tls;Auto;Tls;Host;Host;Host;1100;938;1045;140;3638;1876;5739;4025;2164;271;3776;2217;NotDone
On;BestEffort;BestEffort;On;Off;Off;Auto;H320;H323;TCP;Auto;Tls;Host;Host;Host;1175;924;1240;5940;3666;1876;5946;5797;2164;72;4272;2214;NotDone
Off;On;Off;Off;Off;Off;H320;H320;H320;TCP;Auto;Tls;Host;Host;Host;1175;938;1045;3561;3482;2876;5739;3891;2164;75;3843;2217;NotDone
On;BestEffort;BestEffort;On;Off;Off;H323;H323;H320;TCP;Auto;Tls;Host;Host;Host;1175;924;1045;3277;3666;1993;5550;5417;2164;109;4926;2377;NotDone
Off;BestEffort;Off;Off;Off;On;H320;H320;H320;Tls;Auto;Tls;Host;Host;Host;1100;938;1062;732;3638;1876;5946;3891;2164;75;3776;2214;NotDone
On;BestEffort;BestEffort;Off;Off;On;H320;H323;H320;TCP;Auto;Tls;Host;Host;Host;1175;924;1229;5852;5002;1879;5992;5797;2164;75;4272;2217;NotDone
On;BestEffort;BestEffort;On;Off;On;Auto;H323;H323;TCP;Auto;Tls;Host;Host;Host;1175;924;1240;5091;2136;1879;5946;5595;2164;75;4257;2377;NotDone
On;BestEffort;BestEffort;On;Off;Off;Auto;H323;H323;TCP;Auto;Tls;Host;Host;Host;1087;924;1045;1549;4138;1876;5768;5797;2164;271;3843;2217;NotDone
On;BestEffort;BestEffort;On;Off;Off;H323;H323;H320;TCP;Auto;Tls;Host;Host;Host;1175;924;1240;5940;3666;1879;5550;5417;2256;75;4272;2377;NotDone
Off;On;Off;Off;On;On;H320;H323;Sip;Tls;Auto;Tls;Host;Host;Host;1175;938;1045;3561;3482;2011;5739;3891;2164;75;3843;2214;NotDone
On;BestEffort;BestEffort;On;Off;On;Auto;H323;H323;TCP;Auto;Tls;Host;Host;Host;1175;924;1045;3277;3666;1993;5550;5417;2256;75;4272;2377;NotDone
Off;On;On;Off;Off;Off;H320;H323;Auto;TCP;Auto;Tls;Host;Host;Host;1100;938;1102;3382;3386;1993;5550;4157;2164;271;4376;2377;NotDone
On;On;On;Off;On;On;H320;H323;Sip;Tls;Auto;Tls;Host;Host;Host;1128;924;1045;894;3638;1993;4176;3781;2471;271;4272;2217;NotDone
On;BestEffort;BestEffort;Off;On;Off;H323;H323;Sip;TCP;Auto;Tls;Host;Host;Host;1120;924;1042;5940;3666;1876;5946;5797;2164;72;4272;2214;NotDone
On;On;On;Off;Off;On;H320;H323;H320;Tls;Auto;Tls;Host;Host;Host;1100;938;1062;732;3638;1876;5810;3179;2164;271;4272;2217;NotDone
On;On;On;Off;Off;Off;H320;H323;Auto;TCP;Auto;Tls;Host;Host;Host;1100;938;1102;3382;3386;1993;5992;5797;2914;75;4318;2214;NotDone
Off;BestEffort;On;Off;Off;On;H320;H323;H320;Tls;Auto;Tls;Host;Host;Host;1081;938;1134;3277;3666;1993;5550;5417;2164;75;3843;2217;NotDone
Off;On;Off;Off;Off;On;H320;H323;Sip;Tls;Auto;Tls;Host;Host;Host;1175;938;1045;3561;3482;2876;5739;3891;2164;75;3843;2217;NotDone
Off;BestEffort;Off;Off;Off;On;H320;H323;H323;Tls;Auto;Tls;Host;Host;Host;1059;938;1045;3382;4138;1879;5992;3999;2914;75;3906;2214;NotDone
On;BestEffort;BestEffort;On;Off;Off;H320;H320;Sip;TCP;Auto;Tls;Host;Host;Host;1175;924;1045;1549;4138;1876;5768;5797;2164;271;3843;2217;NotDone
On;On;On;Off;On;Off;H320;H323;H320;TCP;Auto;Tls;Host;Host;Host;1100;938;1102;3382;3386;1993;5550;4157;2164;271;4376;2377;NotDone
Off;On;BestEffort;Off;Off;Off;H320;H320;H320;Tls;Auto;Tls;Host;Host;Host;1175;924;1045;3382;4138;1876;5946;5435;2164;271;3776;2217;NotDone
Off;BestEffort;BestEffort;Off;Off;Off;Sip;H323;Sip;TCP;Auto;Tls;Host;Host;Host;1175;924;1045;5940;3666;1993;5550;5417;2164;109;3843;2377;NotDone
On;BestEffort;BestEffort;Off;On;Off;H320;H323;Sip;TCP;Auto;Tls;Host;Host;Host;1175;924;1007;5940;3666;1879;5946;5595;2164;75;4272;2217;NotDone
On;On;On;Off;Off;Off;H320;H323;Auto;TCP;Auto;Tls;Host;Host;Host;1100;938;1102;3382;3386;1993;5550;4157;2164;271;4376;2377;NotDone
Off;BestEffort;BestEffort;On;Off;Off;H320;H323;Sip;Tls;Auto;Tls;Host;Host;Host;1100;938;1045;3277;3666;1993;5550;5417;2164;75;3674;1976;NotDone
Off;BestEffort;Off;Off;Off;Off;H320;H320;H320;TCP;Auto;Tls;Host;Host;Host;1175;924;1229;5852;5002;1879;5992;5797;2164;75;4272;2217;NotDone
On;BestEffort;BestEffort;On;On;On;Auto;H323;Sip;TCP;Auto;Tls;Host;Host;Host;1175;924;1229;5940;3666;1879;5739;5797;2914;109;4926;2377;NotDone
Off;On;On;Off;On;On;H320;H323;H323;Tls;Auto;Tls;Host;Host;Host;1081;938;1045;2973;3638;1993;5946;5270;2164;75;4926;2377;NotDone
On;BestEffort;BestEffort;On;On;Off;H323;H323;H320;TCP;Auto;Tls;Host;Host;Host;1175;924;997;5940;3666;1879;5946;5595;2164;265;4257;2377;NotDone
On;BestEffort;BestEffort;Off;Off;Off;H323;H323;H320;TCP;Auto;Tls;Host;Host;Host;1120;924;1042;5940;3666;1876;5946;5797;2164;72;3843;2217;NotDone
On;BestEffort;BestEffort;Off;Off;Off;Sip;H323;H323;TCP;Auto;Tls;Host;Host;Host;1120;924;1042;5940;3666;1876;5946;5797;2164;72;4272;2214;NotDone
Off;BestEffort;BestEffort;On;Off;Off;Auto;H323;Sip;TCP;Auto;Tls;Host;Host;Host;1092;924;1240;5936;3666;1879;5946;5595;2164;265;3776;2214;NotDone
Off;BestEffort;BestEffort;On;Off;Off;Auto;H323;Sip;TCP;Auto;Tls;Host;Host;Host;1175;924;1229;5940;3666;1879;5739;5797;2914;109;4926;2377;NotDone
On;BestEffort;BestEffort;On;Off;On;H323;H323;H320;TCP;Auto;Tls;Host;Host;Host;1059;938;1045;4590;3638;1876;5946;5435;2164;75;4272;2217;NotDone
Off;On;Off;Off;Off;Off;H320;H323;H320;Tls;Auto;Tls;Host;Host;Host;1100;938;1062;732;3638;1876;5946;3891;2164;75;3776;2214;NotDone
Off;On;Off;Off;Off;Off;H320;H320;Sip;Tls;Auto;Tls;Host;Host;Host;1175;924;1045;3277;3482;2011;5739;4293;2806;75;3843;2214;NotDone
Off;BestEffort;BestEffort;On;On;Off;Auto;H323;H320;TCP;Auto;Tls;Host;Host;Host;1175;924;1240;5852;3854;1879;5550;5417;2256;75;4272;2377;NotDone
On;On;Off;Off;Off;Off;H320;H323;Sip;Tls;Auto;Tls;Host;Host;Host;1081;938;1102;3382;3386;1993;5550;4157;2164;271;4376;2377;NotDone
On;BestEffort;BestEffort;On;Off;Off;H323;H323;Sip;TCP;Auto;Tls;Host;Host;Host;1092;924;1229;5852;5002;1879;5992;5797;2914;75;4318;2214;NotDone
Off;On;Off;Off;On;On;H320;H323;H320;Tls;Auto;Tls;Host;Host;Host;1195;938;1045;2585;4138;1876;5768;2845;2164;271;4690;2217;NotDone
Off;On;Off;Off;On;On;H320;Sip;Sip;Tls;Auto;Tls;Host;Host;Host;1100;938;1062;732;4138;1876;5946;3891;2164;75;4272;2217;NotDone
On;BestEffort;BestEffort;Off;Off;Off;Sip;H323;H320;Tls;Auto;Tls;Host;Host;Host;1175;924;1047;5940;3490;1876;5946;5797;2164;75;3843;2217;NotDone
Off;BestEffort;BestEffort;Off;On;Off;H320;H323;Sip;TCP;Auto;Tls;Host;Host;Host;1175;924;1007;5852;5002;1879;5992;5797;2914;75;4318;2217;NotDone
Off;BestEffort;BestEffort;Off;On;Off;H323;H323;Sip;TCP;Auto;Tls;Host;Host;Host;1175;924;1045;5940;3666;1993;5550;5417;2164;109;3843;2377;NotDone
On;BestEffort;BestEffort;Off;On;On;H323;H323;H320;Tls;Auto;Tls;Host;Host;Host;1100;938;1045;5940;3666;1879;3820;5595;2164;75;3843;2214;NotDone
Off;On;Off;Off;Off;Off;H320;H320;H320;Tls;Auto;Tls;Host;Host;Host;1059;938;1045;2304;4138;1879;5992;5797;2914;75;3843;2214;NotDone
Off;BestEffort;Off;Off;Off;Off;H320;H323;H320;Tls;Auto;Tls;Host;Host;Host;1081;938;1045;3382;3666;1879;5992;5797;2914;75;4376;1932;NotDone
Off;On;On;Off;Off;Off;H320;H323;H323;TCP;Auto;Tls;Host;Host;Host;1059;938;1232;3382;3490;1879;5946;5797;2164;75;4257;2377;NotDone
On;BestEffort;BestEffort;Off;On;Off;H323;H323;Sip;TCP;Auto;Tls;Host;Host;Host;1175;941;1050;5940;3666;1879;4402;5797;2164;75;3843;2027;NotDone
Off;On;BestEffort;Off;Off;Off;H320;H323;Sip;Tls;Auto;Tls;Host;Host;Host;1175;924;734;1584;3666;1876;5810;2845;3002;271;4376;1932;NotDone
On;On;BestEffort;Off;Off;On;H320;H323;H320;TCP;Auto;Tls;Host;Host;Host;1081;938;1045;3295;3666;1993;5550;5417;2164;271;3776;2217;NotDone
On;BestEffort;BestEffort;Off;On;On;H320;H320;Sip;Tls;Auto;Tls;Host;Host;Host;1081;938;1045;3277;3666;1993;5550;5417;2164;75;4272;2217;NotDone
Off;BestEffort;On;Off;Off;Off;H320;H320;Auto;Tls;Auto;Tls;Host;Host;Host;1059;938;1045;2973;3638;1993;5955;3781;2164;271;4376;1932;NotDone
On;BestEffort;BestEffort;On;On;Off;Sip;H323;H320;TCP;Auto;Tls;Host;Host;Host;1175;924;1240;5936;3666;1879;5946;5595;2164;265;4257;2377;NotDone
Off;On;Off;Off;On;On;H320;H320;Auto;Tls;Auto;Tls;Host;Host;Host;1100;938;1062;732;4138;1876;5946;3891;2164;75;4272;2217;NotDone
On;BestEffort;BestEffort;On;On;On;Auto;H323;Sip;TCP;Auto;Tls;Host;Host;Host;1175;924;1229;5852;3514;1993;5550;5417;2164;75;4272;2217;NotDone
On;BestEffort;Off;Off;Off;Off;H320;H323;Sip;Tls;Auto;Tls;Host;Host;Host;1081;938;1102;3382;3386;1876;5810;3630;3093;178;3843;2217;NotDone
On;BestEffort;BestEffort;On;On;Off;Sip;H323;H320;TCP;Auto;Tls;Host;Host;Host;1175;924;1061;1979;3666;1879;5768;5797;2164;271;3843;2217;NotDone
On;BestEffort;BestEffort;On;On;Off;H320;H323;Sip;TCP;Auto;Tls;Host;Host;Host;1175;924;1045;3382;4138;1876;5946;5435;2164;271;3776;2217;NotDone
Off;On;Off;On;Off;Off;H320;H320;Sip;TCP;Auto;Tls;Host;Host;Host;1175;924;734;2585;4138;1876;5768;5797;2806;178;4318;2217;NotDone
Off;BestEffort;Off;On;Off;Off;H320;H320;Sip;TCP;Auto;Tls;Host;Host;Host;1128;924;1061;1979;3666;1879;5946;5797;2164;240;3843;2217;NotDone
Off;On;Off;Off;Off;Off;H320;H320;Sip;TCP;Auto;Tls;Host;Host;Host;1195;938;1048;2585;4138;1876;5911;5417;2164;75;4376;2214;NotDone
On;On;BestEffort;Off;On;On;H320;Sip;Sip;Tls;Auto;Tls;Host;Host;Host;1081;938;1045;1517;3666;1821;3938;3781;2164;75;3843;2217;NotDone
Off;On;Off;Off;Off;Off;H320;H320;H320;TCP;Auto;Tls;Host;Host;Host;1175;924;1240;5936;3666;1879;5946;5595;2164;265;4257;2377;NotDone
Off;BestEffort;On;Off;On;On;H320;H320;Sip;Tls;Auto;Tls;Host;Host;Host;1081;938;1045;3277;2251;1993;5550;5417;2164;75;3843;2299;NotDone
On;On;BestEffort;Off;On;On;H320;Sip;H323;Tls;Auto;Tls;Host;Host;Host;1175;924;1045;3277;3638;1876;5810;2845;2164;75;3843;2214;NotDone
On;BestEffort;BestEffort;On;Off;Off;H323;H320;Auto;TCP;Auto;Tls;Host;Host;Host;1164;924;1121;5936;3482;1876;5946;5671;3001;109;4376;2377;NotDone
Off;On;On;Off;On;On;H320;Sip;Sip;Tls;Auto;Tls;Host;Host;Host;1196;938;1045;3561;3482;2011;5739;4293;2806;271;3843;2217;NotDone
On;BestEffort;On;Off;On;On;H320;H323;Sip;Tls;Auto;Tls;Host;Host;Host;1175;938;1045;3561;3482;2011;5739;3891;2806;243;3699;2377;NotDone
On;On;BestEffort;Off;On;On;H320;H323;Sip;Tls;Auto;Tls;Host;Host;Host;1128;924;1045;894;3638;1993;4176;3781;2471;271;3843;2027;NotDone
Off;BestEffort;On;Off;On;Off;H320;H323;H320;Tls;Auto;Tls;Host;Host;Host;1175;938;1045;3561;3482;2876;5739;3891;2164;75;3843;2027;NotDone
On;BestEffort;BestEffort;On;On;On;Auto;H323;H323;TCP;Auto;Tls;Host;Host;Host;1175;924;1047;5940;3490;1879;5946;5797;2164;271;3843;2217;NotDone
Off;On;Off;Off;Off;Off;H320;H323;H320;TCP;Auto;Tls;Host;Host;Host;1059;938;1045;2304;4138;1879;5992;3035;2914;75;3843;2027;NotDone
On;BestEffort;BestEffort;Off;On;On;H320;Sip;H323;Tls;Auto;Tls;Host;Host;Host;1081;938;1045;4023;3666;1821;3938;3781;2484;271;3843;2214;NotDone
On;On;On;Off;On;Off;H320;H323;Sip;TCP;Auto;Tls;Host;Host;Host;1059;938;1045;2304;4138;1956;5768;4025;2164;271;3843;1932;NotDone
On;On;BestEffort;Off;On;Off;H320;H323;Sip;Tls;Auto;Tls;Host;Host;Host;1175;888;1050;4023;5002;1879;5992;5797;2914;75;4376;2217;NotDone
On;BestEffort;BestEffort;On;Off;Off;Auto;H323;H323;TCP;Auto;Tls;Host;Host;Host;1175;924;1240;5936;3666;1879;5992;5797;2164;75;3843;2115;NotDone
Off;BestEffort;On;Off;Off;Off;H320;H323;H320;TCP;Auto;Tls;Host;Host;Host;1128;924;1061;2268;3666;1879;5946;5797;2164;271;3843;2217;NotDone
Off;BestEffort;BestEffort;Off;Off;Off;H320;H320;Sip;Tls;Auto;Tls;Host;Host;Host;1175;924;1061;2268;3666;1879;5946;5797;2164;271;3843;2217;NotDone
Off;On;On;Off;Off;Off;H320;H320;H320;Tls;Auto;Tls;Host;Host;Host;1128;924;1222;4023;3666;1876;5768;2845;2164;75;3843;2027;NotDone
On;BestEffort;BestEffort;Off;Off;Off;Auto;H323;H320;TCP;Auto;Tls;Host;Host;Host;1175;924;1240;4909;3666;1879;5992;5797;2164;75;4376;2217;NotDone
Off;BestEffort;BestEffort;On;Off;Off;H323;H323;H323;TCP;Auto;Tls;Host;Host;Host;1097;924;1045;5940;3580;1879;5946;5797;2164;75;4376;1465;NotDone
On;BestEffort;BestEffort;Off;On;Off;Auto;H323;Sip;TCP;Auto;Tls;Host;Host;Host;1175;924;1240;5940;3666;1879;5946;5417;2164;75;4272;1953;NotDone
Off;On;Off;Off;Off;On;H320;H320;H320;Tls;Auto;Tls;Host;Host;Host;1100;938;1062;732;4138;1876;5768;2845;2164;271;4690;2217;NotDone
On;BestEffort;BestEffort;Off;On;On;H320;Sip;H320;Tls;Auto;Tls;Host;Host;Host;1175;924;1045;1767;4138;1876;5946;3891;2806;75;3843;2027;NotDone
Off;BestEffort;BestEffort;Off;Off;Off;H320;H320;H323;TCP;Auto;Tls;Host;Host;Host;1175;938;1045;5940;3666;1879;5946;5595;2164;75;3843;2214;NotDone
On;On;On;Off;On;On;H320;Sip;Sip;Tls;Auto;Tls;Host;Host;Host;1081;938;1045;4023;3666;1821;3938;3781;2484;75;4376;2217;NotDone
Off;On;On;On;Off;Off;H320;H323;Auto;TCP;Auto;Tls;Host;Host;Host;1059;938;1232;3382;4138;1876;5550;5797;2914;265;3646;1932;NotDone
On;BestEffort;BestEffort;Off;Off;On;Auto;H323;H323;TCP;Auto;Tls;Host;Host;Host;1175;924;1047;5940;3490;1876;5946;5417;2164;109;3843;2217;NotDone
Off;BestEffort;On;On;Off;Off;H320;H323;H320;TCP;Auto;Tls;Host;Host;Host;1175;938;1045;5940;3666;1879;5946;5595;2164;75;3843;2214;NotDone
On;BestEffort;BestEffort;Off;On;Off;Auto;H323;H323;TCP;Auto;Tls;Host;Host;Host;1175;924;1045;4023;3666;1879;5992;5797;2164;75;3843;2217;NotDone
Off;BestEffort;BestEffort;Off;Off;On;H320;H323;H323;TCP;Auto;Tls;Host;Host;Host;1175;924;1222;4023;5002;1879;5992;5797;2914;75;4376;2217;NotDone
Off;BestEffort;BestEffort;On;Off;Off;H323;H323;H323;TCP;Auto;Tls;Host;Host;Host;1097;924;1042;5940;3666;1876;5946;5417;2312;75;4272;2377;NotDone
Off;On;On;Off;On;On;H320;Sip;Sip;Tls;Auto;Tls;Host;Host;Host;1175;938;1045;3561;3482;1993;5550;3781;2164;109;4376;2217;NotDone
On;BestEffort;BestEffort;Off;On;On;H320;H323;H320;Tls;Auto;Tls;Host;Host;Host;1100;951;1102;3382;3386;1993;5550;4157;2164;271;4376;2377;NotDone
On;BestEffort;BestEffort;On;On;On;Sip;H323;H320;TCP;Auto;Tls;Host;Host;Host;1175;924;1064;5940;3666;1876;5768;5797;2164;271;3843;2217;NotDone
Off;On;Off;Off;Off;Off;H320;H323;H320;TCP;Auto;Tls;Host;Host;Host;1059;938;1045;2304;4138;1879;5992;5797;2914;75;3843;2214;NotDone
On;BestEffort;BestEffort;On;Off;Off;Auto;H323;H323;TCP;Auto;Tls;Host;Host;Host;1091;924;1229;5852;4138;1993;5550;5417;2164;75;4272;2217;NotDone
Off;BestEffort;BestEffort;On;On;Off;Auto;H323;H320;TCP;Auto;Tls;Host;Host;Host;1175;924;1064;5940;3666;1876;5768;5797;2164;271;3843;2217;NotDone
On;BestEffort;BestEffort;On;Off;Off;Sip;H323;Sip;TCP;Auto;Tls;Host;Host;Host;1091;924;1229;5852;4026;1222;5946;5797;2914;265;4926;2377;NotDone
On;BestEffort;BestEffort;Off;Off;On;H320;H323;H320;TCP;Auto;Tls;Host;Host;Host;1081;938;1045;4023;3666;1821;3938;3781;2484;75;4376;2217;NotDone
On;On;Off;Off;On;On;H320;Sip;H323;Tls;Auto;Tls;Host;Host;Host;1081;938;1045;1517;3666;1821;4176;3346;2164;75;3843;2214;NotDone
On;On;On;Off;Off;On;H320;H323;Auto;Tls;Auto;Tls;Host;Host;Host;1081;938;1045;2585;4138;1993;5550;3781;2164;75;4272;2217;NotDone
Off;On;On;Off;On;On;H320;Sip;Sip;Tls;Auto;Tls;Host;Host;Host;1196;938;1045;3561;3482;2011;5739;4293;2806;75;4376;1932;NotDone
On;BestEffort;BestEffort;Off;On;Off;Sip;H323;H323;TCP;Auto;Tls;Host;Host;Host;1120;924;1042;5940;3666;1876;5946;5797;2164;72;4272;2214;NotDone
Off;BestEffort;BestEffort;Off;Off;Off;H320;H320;H320;TCP;Auto;Tls;Host;Host;Host;1091;924;1229;5852;4138;1993;5550;5417;2256;75;4272;2377;NotDone
Off;On;Off;Off;Off;On;H320;H320;H320;Tls;Auto;Tls;Host;Host;Host;1100;938;1062;732;3638;1876;5946;3891;2164;75;3843;2214;NotDone
On;BestEffort;BestEffort;On;Off;Off;H323;H320;Auto;TCP;Auto;Tls;Host;Host;Host;1164;1165;1229;5852;5002;1879;5992;5417;2164;75;4272;2217;NotDone
On;BestEffort;BestEffort;Off;Off;Off;H323;H323;Sip;TCP;Auto;Tls;Host;Host;Host;1128;924;1061;1979;3666;1879;5946;5797;2164;271;3843;2217;NotDone
On;BestEffort;BestEffort;On;Off;Off;Sip;H323;H323;TCP;Auto;Tls;Host;Host;Host;854;924;1229;5852;4138;1993;5550;5417;2164;75;4376;2214;NotDone
On;BestEffort;BestEffort;Off;Off;On;Auto;H323;H323;TCP;Auto;Tls;Host;Host;Host;1091;924;1229;5852;4138;1993;5550;5417;2164;75;4272;2217;NotDone
Off;On;On;Off;On;On;H320;H323;H323;Tls;Auto;Tls;Host;Host;Host;1175;938;1045;894;3638;1993;4176;3781;2471;271;4272;2217;NotDone
Off;BestEffort;On;Off;On;On;H320;H323;Sip;Tls;Auto;Tls;Host;Host;Host;1175;938;1045;3561;3482;2011;5739;3891;2806;243;3699;2377;NotDone
Off;On;Off;Off;On;On;H320;H323;Sip;Tls;Auto;Tls;Host;Host;Host;1128;924;1045;858;3638;1993;4176;3781;2164;75;4272;2217;NotDone
On;BestEffort;BestEffort;Off;On;On;H320;H323;H323;Tls;Auto;Tls;Host;Host;Host;1175;924;1101;5940;3666;1879;5946;5797;2164;75;3843;2214;NotDone
Off;On;Off;Off;On;On;H320;Sip;Sip;Tls;Auto;Tls;Host;Host;Host;1100;938;1062;140;3638;1876;4176;3891;2806;178;3843;1932;NotDone
On;BestEffort;BestEffort;Off;Off;Off;H323;H323;H320;TCP;Auto;Tls;Host;Host;Host;1175;924;1045;3277;3666;1993;5550;5417;2256;75;4272;2377;NotDone
Off;BestEffort;BestEffort;On;On;Off;H323;H323;Sip;TCP;Auto;Tls;Host;Host;Host;1175;924;1045;5940;3666;1993;5550;5417;2164;109;3843;2377;NotDone
Off;BestEffort;Off;Off;Off;On;H320;H320;H320;Tls;Auto;Tls;Host;Host;Host;1100;938;1102;3382;3386;1876;5810;3630;3093;274;4376;1932;NotDone
Off;BestEffort;On;On;Off;Off;H320;H323;H320;TCP;Auto;Tls;Host;Host;Host;1059;938;1045;3382;3666;1879;5992;5797;2914;75;3906;2214;NotDone
On;On;Off;Off;On;On;H320;Sip;H323;Tls;Auto;Tls;Host;Host;Host;1081;938;1045;1517;3666;1821;4176;3346;2164;75;3843;2214;NotDone
On;BestEffort;BestEffort;On;On;Off;Auto;H323;H320;TCP;Auto;Tls;Host;Host;Host;1175;924;1045;3382;4138;1876;5946;5435;2164;271;3776;2217;NotDone
Off;BestEffort;BestEffort;On;Off;Off;H320;H323;H320;TCP;Auto;Tls;Host;Host;Host;1175;924;1240;5940;3666;1879;5946;5671;3001;109;4376;2168;NotDone
Off;BestEffort;Off;Off;Off;Off;H320;H323;H320;Tls;Auto;Tls;Host;Host;Host;1059;938;1045;1584;2258;1876;5810;2845;2164;109;4376;2069;NotDone
On;BestEffort;BestEffort;Off;On;On;Sip;H323;Sip;TCP;Auto;Tls;Host;Host;Host;1120;924;1045;5940;3666;1993;5550;5417;2164;109;3843;2217;NotDone
On;BestEffort;Off;Off;Off;Off;H320;H323;H320;TCP;Auto;Tls;Host;Host;Host;1059;938;1048;2585;4138;1876;5550;5417;2164;109;3674;2377;NotDone
Off;BestEffort;BestEffort;Off;On;Off;H320;H323;Sip;TCP;Auto;Tls;Host;Host;Host;1175;924;1045;2585;4138;1876;5768;2845;2164;271;4690;2217;NotDone
On;BestEffort;BestEffort;On;On;Off;H320;H323;Sip;TCP;Auto;Tls;Host;Host;Host;1128;924;1045;4590;3638;1993;5550;5417;2164;109;3843;2214;NotDone
On;On;On;Off;On;On;H320;H323;Sip;TCP;Auto;Tls;Host;Host;Host;1196;938;1045;3382;4138;1993;4176;3891;2164;274;4376;1932;NotDone
Off;On;On;Off;On;On;H320;H323;H320;Tls;Auto;Tls;Host;Host;Host;1059;938;1045;1584;3666;1879;5946;5417;2164;75;3843;2217;NotDone
Off;BestEffort;BestEffort;Off;Off;Off;Sip;H323;Sip;TCP;Auto;Tls;Host;Host;Host;1175;924;1240;5940;3666;1879;5946;5671;3001;109;4376;2168;NotDone
On;BestEffort;BestEffort;Off;On;Off;H323;H323;Sip;TCP;Auto;Tls;Host;Host;Host;1175;924;1045;5940;3666;1993;5550;5417;2164;109;3843;2377;NotDone
On;On;Off;Off;On;On;H320;H323;Sip;Tls;Auto;Tls;Host;Host;Host;1128;924;1045;894;3638;1993;4176;3781;2164;265;4257;2377;NotDone
Off;On;On;Off;On;On;H320;H320;Auto;Tls;Auto;Tls;Host;Host;Host;1100;938;1062;732;3638;1876;5810;2845;2164;75;4376;1932;NotDone
On;BestEffort;BestEffort;Off;On;On;Sip;H323;Sip;TCP;Auto;Tls;Host;Host;Host;1059;938;1232;3382;4138;1876;5550;5797;2914;265;3646;1932;NotDone
Off;On;On;Off;Off;On;H320;H323;H323;Tls;Auto;Tls;Host;Host;Host;1081;938;1045;2973;3638;1876;5768;2845;2164;271;4690;2217;NotDone
On;BestEffort;BestEffort;Off;Off;Off;Sip;H323;H323;TCP;Auto;Tls;Host;Host;Host;1120;924;1240;5940;3666;1879;5946;5417;2164;75;4272;2217;NotDone
Off;On;On;Off;Off;On;H320;H323;H323;Tls;Auto;Tls;Host;Host;Host;1081;938;1045;2973;3638;1993;5946;5270;2164;75;4926;2377;NotDone
On;BestEffort;BestEffort;Off;On;Off;H323;H323;Auto;TCP;Auto;Tls;Host;Host;Host;1051;938;1045;2585;4138;1993;5550;5417;2164;75;4272;2217;NotDone
On;On;BestEffort;Off;Off;Off;H320;H323;Auto;TCP;Tls;Tls;Host;Host;Host;1100;938;1102;3382;3386;1993;5550;4157;2164;75;4272;2217;NotDone
On;BestEffort;BestEffort;Off;On;Off;Auto;H323;Sip;TCP;Auto;Tls;Host;Host;Host;1175;924;1045;3277;3666;1993;5550;5417;2256;75;4272;2217;NotDone
On;On;On;Off;On;On;H320;H320;Sip;Tls;Auto;Tls;Host;Host;Host;1081;938;1045;3295;3666;1993;5550;5417;2164;109;4926;2377;NotDone
On;On;Off;Off;On;On;H320;Sip;Sip;Tls;Auto;Tls;Host;Host;Host;1100;938;1062;732;3638;1876;5810;3179;2164;271;3843;2217;NotDone
On;On;On;Off;On;On;H320;H320;Sip;Tls;Auto;Tls;Host;Host;Host;1059;938;1045;1584;3666;1879;5946;5417;2164;109;3843;2214;NotDone
Off;BestEffort;On;On;Off;Off;H320;H323;Auto;TCP;Auto;Tls;Host;Host;Host;1175;924;1240;2359;3666;1879;5946;5595;2240;75;3906;2217;NotDone
On;BestEffort;BestEffort;Off;Off;On;H323;H323;Sip;Tls;Auto;Tls;Host;Host;Host;1120;924;1042;5940;3666;1879;5946;5797;2164;75;3646;2214;NotDone
On;On;On;Off;Off;Off;H320;H320;Sip;Tls;Auto;Tls;Host;Host;Host;1100;938;1102;3382;3386;1993;5550;4157;2164;271;4376;2377;NotDone
On;BestEffort;BestEffort;Off;On;On;H323;H323;H320;TCP;Auto;Tls;Host;Host;Host;1175;924;1045;5940;2284;1993;5550;5417;2164;109;3843;2217;NotDone
Off;On;BestEffort;Off;Off;On;H320;H323;H320;TCP;Auto;Tls;Host;Host;Host;1196;938;1003;2973;3638;1879;5992;5797;2164;75;4376;1932;NotDone
Off;BestEffort;On;Off;On;On;H320;H323;H320;Tls;Auto;Tls;Host;Host;Host;1175;924;1045;1571;3638;1993;5946;5270;2164;265;4257;2377;NotDone
Off;BestEffort;BestEffort;Off;Off;Off;H320;H323;H320;Tls;Auto;Tls;Host;Host;Host;1059;938;1045;1584;2258;1876;5810;2845;2164;109;4376;2377;NotDone
On;BestEffort;BestEffort;Off;On;On;Auto;H323;H323;TCP;Auto;Tls;Host;Host;Host;1091;924;1229;5852;4138;1993;5550;5417;2164;75;4272;2217;NotDone
Off;BestEffort;BestEffort;On;Off;Off;H320;H323;Sip;Tls;Auto;Tls;Host;Host;Host;1175;924;1240;5852;3854;1879;5992;5797;2914;75;4318;2214;NotDone
On;BestEffort;BestEffort;On;Off;Off;H320;H323;H320;TCP;Auto;Tls;Host;Host;Host;1175;924;1240;5940;3666;1879;5946;5671;3001;109;4376;2168;NotDone
On;BestEffort;BestEffort;Off;On;On;H320;H323;H320;TCP;Auto;Tls;Host;Host;Host;1175;924;1240;3573;3666;1879;5946;5797;2164;80;3843;2214;NotDone
On;On;BestEffort;Off;On;Off;H320;H323;Sip;Tls;Auto;Tls;Host;Host;Host;1128;924;1045;894;4138;1993;5550;3781;2164;178;4376;1932;NotDone
On;BestEffort;BestEffort;On;Off;On;Sip;H323;H320;TCP;Auto;Tls;Host;Host;Host;1120;924;1240;5940;3666;1879;5946;5671;3001;109;4376;2168;NotDone
Off;On;BestEffort;Off;Off;On;H320;H323;H320;TCP;Auto;Tls;Host;Host;Host;1151;924;1156;1584;3107;1750;5946;5797;3009;109;3843;2027;NotDone
Off;BestEffort;Off;On;Off;Off;H320;H323;H323;Tls;Auto;Tls;Host;Host;Host;1059;938;1045;3382;4138;1879;5992;3999;2164;75;4272;2217;NotDone
Off;On;Off;On;Off;Off;H320;H320;Sip;Tls;Auto;Tls;Host;Host;Host;1175;938;1045;2226;3666;1879;5946;5797;2164;80;3843;2214;NotDone
On;BestEffort;BestEffort;Off;Off;Off;H320;H320;Sip;Tls;Auto;Tls;Host;Host;Host;1175;924;1045;3277;3666;1993;5550;5417;2312;75;4677;2377;NotDone
Off;BestEffort;On;Off;On;Off;H320;H323;H320;Tls;Auto;Tls;Host;Host;Host;1175;924;1047;5940;3490;1876;5946;5797;2164;75;3776;2214;NotDone
On;BestEffort;BestEffort;Off;On;Off;Sip;H323;H320;TCP;Auto;Tls;Host;Host;Host;1175;924;1240;5940;3666;1879;4524;5671;3001;75;3776;2214;NotDone
On;BestEffort;BestEffort;On;On;Off;Auto;H323;H323;TCP;Auto;Tls;Host;Host;Host;1091;924;1229;5852;4138;1993;5550;5417;2164;75;4272;2217;NotDone
Off;On;Off;Off;On;On;H320;Sip;Sip;Tls;Auto;Tls;Host;Host;Host;1100;938;1062;140;3638;1876;4176;3346;2164;75;3843;2214;NotDone
On;BestEffort;BestEffort;Off;Off;On;H320;H323;H320;Tls;Auto;Tls;Host;Host;Host;1128;924;1045;894;4138;1993;5550;3781;2164;178;4376;1932;NotDone
On;On;On;Off;On;Off;H320;H323;H320;TCP;Auto;Tls;Host;Host;Host;1175;924;1045;3277;3666;1993;5550;5417;2164;109;4926;2377;NotDone
On;On;BestEffort;Off;Off;On;H320;H323;Sip;Tls;Auto;Tls;Host;Host;Host;1081;938;1045;4023;3666;1821;3938;3781;2484;75;4376;2217;NotDone
On;On;On;Off;On;On;H320;H320;Sip;Tls;Auto;Tls;Host;Host;Host;1196;938;1045;3277;3638;1876;3967;2845;2164;75;4376;2226;NotDone
On;BestEffort;BestEffort;Off;Off;On;H323;H323;Sip;Tls;Auto;Tls;Host;Host;Host;1175;924;1229;5852;5002;1879;5946;5417;2164;109;4376;1932;NotDone
Off;BestEffort;BestEffort;On;Off;Off;H320;H323;H320;TCP;Auto;Tls;Host;Host;Host;1175;924;1240;1842;3666;1879;5946;5595;2164;265;4257;2377;NotDone
Off;BestEffort;On;Off;Off;Off;H320;H320;H320;TCP;Auto;Tls;Host;Host;Host;1175;941;1050;5940;3666;1879;5946;5797;2164;75;1938;2217;NotDone
On;BestEffort;BestEffort;Off;On;On;H323;H323;H320;Tls;Auto;Tls;Host;Host;Host;1100;938;1045;3277;3666;1993;5550;5417;2164;75;3843;2217;NotDone
Off;BestEffort;BestEffort;Off;Off;Off;H320;H320;H323;TCP;Auto;Tls;Host;Host;Host;1195;938;1171;2585;4138;1876;5550;5417;2164;109;3843;2214;NotDone
Off;BestEffort;BestEffort;Off;Off;Off;Auto;H323;H323;TCP;Auto;Tls;Host;Host;Host;1091;924;1229;5852;4138;1993;5550;5417;2164;75;4272;2217;NotDone
On;BestEffort;BestEffort;Off;On;Off;H323;H323;H320;TCP;Auto;Tls;Host;Host;Host;1196;938;1045;2973;3638;1993;5550;3781;2164;265;4257;2377;NotDone
Off;On;BestEffort;Off;On;On;H320;H323;H320;Tls;Auto;Tls;Host;Host;Host;1175;924;1045;1571;3638;1964;5810;3891;2164;271;3843;2217;NotDone
On;BestEffort;BestEffort;Off;Off;On;H323;H323;H320;TCP;Auto;Tls;Host;Host;Host;1175;924;1240;2509;4138;1876;5810;5671;3001;75;3646;2214;NotDone
On;BestEffort;BestEffort;On;Off;On;Sip;H323;H320;TCP;Auto;Tls;Host;Host;Host;1120;924;1042;5940;3666;1876;5946;5797;2164;72;4272;2217;NotDone
Off;BestEffort;BestEffort;On;Off;Off;H320;H320;Sip;TCP;Auto;Tls;Host;Host;Host;1175;938;1045;3297;3666;1876;5946;3891;2806;75;3843;2027;NotDone
Off;BestEffort;On;Off;On;Off;H320;H323;H323;TCP;Auto;Tls;Host;Host;Host;1175;924;1061;1979;3666;1879;5946;3274;2164;271;3843;2217;NotDone
Off;BestEffort;Off;Off;Off;Off;H320;H320;Auto;Tls;Auto;Tls;Host;Host;Host;1185;938;1045;2585;4138;2011;5739;4293;2806;178;3906;2214;NotDone
On;BestEffort;BestEffort;Off;On;On;H320;Sip;Sip;Tls;Auto;Tls;Host;Host;Host;1100;938;1102;3382;3386;1993;5550;4157;2164;271;4376;2377;NotDone
Off;On;Off;Off;Off;Off;H320;H323;H320;TCP;Auto;Tls;Host;Host;Host;1128;924;1045;4913;3023;1876;5946;5797;2914;75;3906;2214;NotDone
Off;On;Off;Off;Off;On;H320;H320;Sip;Tls;Auto;Tls;Host;Host;Host;1100;938;1045;3770;3638;1876;5739;3891;2164;109;4376;729;NotDone
Off;BestEffort;BestEffort;Off;On;Off;H323;H323;H320;TCP;Auto;Tls;Host;Host;Host;1175;924;1042;5940;3666;1876;5946;5797;2164;72;4272;2217;NotDone
Off;BestEffort;Off;Off;Off;Off;H320;H323;H320;TCP;Auto;Tls;Host;Host;Host;1175;924;1045;3382;4138;1876;5946;5435;2164;271;3776;2217;NotDone
Off;BestEffort;BestEffort;Off;On;Off;H320;H323;Sip;TCP;Auto;Tls;Host;Host;Host;1128;924;1061;1979;3666;1879;5946;5797;2164;240;3843;2217;NotDone
Off;BestEffort;On;Off;Off;Off;H320;H323;H323;TCP;Auto;Tls;Host;Host;Host;1059;938;1045;1584;3666;1879;5946;5417;2164;109;4376;1932;NotDone
Off;BestEffort;BestEffort;Off;Off;On;H320;H323;Auto;TCP;Auto;Tls;Host;Host;Host;1081;938;1045;2585;4138;1993;5550;3781;2164;178;4376;2377;NotDone
On;On;BestEffort;Off;On;On;H320;H323;H323;TCP;Auto;Tls;Host;Host;Host;1059;938;1045;3382;3638;1876;5946;5435;2164;75;4272;2217;NotDone
Off;On;On;Off;On;On;H320;Sip;Sip;Tls;Auto;Tls;Host;Host;Host;1081;938;1045;4023;3666;1866;3938;3781;2484;75;4401;2214;NotDone
Off;BestEffort;BestEffort;Off;Off;Off;H320;H320;H323;TCP;Auto;Tls;Host;Host;Host;1092;924;1229;5852;5002;1879;5992;5797;2914;75;4318;2214;NotDone
On;On;BestEffort;Off;Off;On;H320;H320;Auto;TCP;Auto;Tls;Host;Host;Host;1081;938;1045;2585;4138;1876;5550;5417;2164;109;4926;2377;NotDone
On;BestEffort;BestEffort;On;Off;Off;H320;H323;H320;TCP;Auto;Tls;Host;Host;Host;1100;938;1045;3277;3666;1993;5550;5417;2164;75;4272;2217;NotDone
On;BestEffort;BestEffort;Off;On;Off;Sip;H323;H320;TCP;Auto;Tls;Host;Host;Host;1079;938;1045;2304;4138;1879;5992;5797;2914;75;3843;2214;NotDone
On;BestEffort;BestEffort;Off;Off;On;H320;H323;Auto;TCP;Auto;Tls;Host;Host;Host;1059;938;1045;2304;4138;1879;5992;5797;2914;75;3843;2214;NotDone
On;BestEffort;BestEffort;On;Off;Off;H323;H320;Auto;TCP;Auto;Tls;Host;Host;Host;1164;924;1121;5936;3482;1876;5946;5671;3001;109;4376;2377;NotDone
Off;BestEffort;BestEffort;Off;Off;Off;Sip;H323;Sip;TCP;Auto;Tls;Host;Host;Host;1175;938;1102;3382;3386;1876;5550;5417;2164;75;3646;2214;NotDone
Off;BestEffort;BestEffort;Off;Off;Off;H320;H323;H320;Tls;Auto;Tls;Host;Host;Host;1175;924;1045;2796;4138;1876;5946;5435;2164;271;3776;2217;NotDone
On;BestEffort;On;Off;On;On;H320;H320;Sip;Tls;Auto;Tls;Host;Host;Host;1081;938;1045;3295;3666;1993;5550;5417;2164;109;4926;2377;NotDone
Off;BestEffort;On;Off;Off;Off;H320;H320;H320;TCP;Auto;Tls;Host;Host;Host;1175;938;1045;5940;3666;1879;5946;5595;2164;75;3843;2214;NotDone
On;BestEffort;BestEffort;On;Off;Off;H323;H323;Sip;TCP;Auto;Tls;Host;Host;Host;1092;924;1229;5852;5002;1879;5992;5797;2914;75;4318;2214;NotDone
On;On;BestEffort;Off;On;On;H320;Sip;H323;Tls;Auto;Tls;Host;Host;Host;1175;924;1045;1994;3638;1876;5810;2845;2164;271;3843;2217;NotDone
Off;BestEffort;On;Off;On;Off;H320;H323;H323;TCP;Auto;Tls;Host;Host;Host;1175;924;1240;5852;3854;1879;5992;5797;2914;75;4318;2214;NotDone
On;BestEffort;BestEffort;Off;Off;Off;H320;H320;H323;TCP;Auto;Tls;Host;Host;Host;1175;924;1229;5852;5002;1879;5992;5797;2914;75;4318;2214;NotDone
Off;BestEffort;Off;Off;Off;Off;H320;H320;H320;TCP;Auto;Tls;Host;Host;Host;1175;924;1229;348;5002;1879;5992;5797;2164;75;3843;2115;NotDone
On;On;On;Off;Off;On;H320;H323;Sip;Tls;Auto;Tls;Host;Host;Host;1081;938;1102;3382;3386;1876;5550;5417;2164;75;3646;2214;NotDone
On;BestEffort;BestEffort;Off;Off;Off;Auto;H323;H323;TCP;Auto;Tls;Host;Host;Host;1081;938;1045;4373;3666;1879;5992;5797;2256;75;4272;2377;NotDone
Off;On;BestEffort;Off;On;On;H320;H323;H320;Tls;Auto;Tls;Host;Host;Host;1059;1058;1045;1584;3666;1879;5946;5417;2164;75;3843;2214;NotDone
On;On;Off;Off;Off;Off;H320;H323;H323;TCP;Auto;Tls;Host;Host;Host;1175;938;1045;2585;4138;1876;5768;2845;2751;271;4690;2217;NotDone
On;BestEffort;BestEffort;On;Off;Off;H323;H320;Sip;TCP;Auto;Tls;Host;Host;Host;1092;924;1240;5936;3666;1879;5946;5595;2164;265;3776;2214;NotDone
Off;BestEffort;Off;Off;Off;Off;H320;H320;H320;TCP;Auto;Tls;Host;Host;Host;1175;924;1229;348;5002;1879;5992;5797;2164;75;3843;2115;NotDone
Off;BestEffort;On;Off;On;Off;H320;H323;Sip;TCP;Auto;Tls;Host;Host;Host;1120;924;1045;5940;3580;1879;5946;5797;2164;75;4376;1465;NotDone
On;On;BestEffort;Off;On;On;H320;H323;Auto;TCP;Auto;Tls;Host;Host;Host;1175;924;1240;4909;3666;1879;5992;5797;2164;75;4376;1932;NotDone
On;BestEffort;BestEffort;Off;Off;Off;H323;H323;H320;TCP;Auto;Tls;Host;Host;Host;1091;924;1068;2474;5002;1876;5768;5797;2164;271;3843;2217;NotDone
On;BestEffort;BestEffort;Off;On;On;H323;H323;H320;TCP;Auto;Tls;Host;Host;Host;1175;924;1240;5940;3666;1879;5946;5671;3001;109;4376;2168;NotDone
On;BestEffort;BestEffort;Off;On;On;H323;H323;H320;TCP;Auto;Tls;Host;Host;Host;1128;924;1061;3295;3666;1993;5550;5417;2164;109;4926;2377;NotDone
On;BestEffort;BestEffort;Off;Off;On;H320;H320;Sip;Tls;Auto;Tls;Host;Host;Host;1196;938;1045;3719;3638;1876;5810;2845;2164;75;4318;2214;NotDone
On;BestEffort;BestEffort;Off;On;Off;Auto;H323;Sip;TCP;Auto;Tls;Host;Host;Host;1175;924;1047;5940;3490;1879;5992;5797;2914;75;4376;2217;NotDone
On;BestEffort;BestEffort;Off;On;Off;Sip;H323;Sip;TCP;Auto;Tls;Host;Host;Host;1175;938;1102;3382;3386;1876;5550;5417;2164;75;3646;2214;NotDone
Off;BestEffort;BestEffort;Off;Off;On;H323;H323;H320;TCP;Auto;Tls;Host;Host;Host;1175;924;1229;5852;5002;1879;5992;5797;2914;75;4318;2214;NotDone
Off;On;BestEffort;Off;On;On;H320;H323;H320;TCP;Auto;Tls;Host;Host;Host;1175;924;1045;2585;4138;1876;5768;2845;2164;271;4690;2217;NotDone
On;BestEffort;BestEffort;Off;Off;Off;H320;H323;Sip;TCP;Auto;Tls;Host;Host;Host;1175;924;1007;5940;3666;1879;5946;5417;2164;75;4272;2217;NotDone
On;BestEffort;BestEffort;On;Off;On;Auto;H323;H323;TCP;Auto;Tls;Host;Host;Host;1175;924;1047;5940;3490;1876;5946;5417;2164;109;3843;2217;NotDone
Off;BestEffort;BestEffort;On;Off;Off;Auto;H323;Sip;TCP;Auto;Tls;Host;Host;Host;1175;924;1045;5880;3666;1993;5550;5417;2164;109;3843;2214;NotDone
On;BestEffort;BestEffort;On;On;Off;H323;H323;Sip;TCP;Auto;Tls;Host;Host;Host;1175;924;1229;5852;5002;1879;5992;5797;2164;75;4272;2217;NotDone
On;On;BestEffort;Off;On;On;H320;H323;Auto;Tls;Auto;Tls;Host;Host;Host;1196;938;1045;3382;4138;1993;4176;3891;2164;265;4257;2377;NotDone
On;On;Off;Off;Off;Off;H320;H323;H323;TCP;Auto;Tls;Host;Host;Host;1059;938;1048;2585;4138;1876;5550;5417;2164;109;3674;2377;NotDone
Off;On;Off;Off;On;On;H320;H320;Auto;Tls;Auto;Tls;Host;Host;Host;1100;938;1062;732;3638;1876;5810;3179;2299;75;4376;2217;NotDone
On;On;Off;Off;On;On;H320;H323;Sip;Tls;Auto;Tls;Host;Host;Host;1100;938;1062;140;3638;1876;4176;3781;2164;109;4401;2214;NotDone
On;BestEffort;BestEffort;On;Off;On;Auto;H323;H320;TCP;Auto;Tls;Host;Host;Host;1175;924;1222;4023;3576;1879;5992;5797;2914;75;3843;2214;NotDone
Off;On;Off;Off;Off;Off;H320;H320;H320;TCP;Auto;Tls;Host;Host;Host;1100;938;1062;732;4138;1876;5946;3891;2164;75;4272;2217;NotDone
On;On;BestEffort;Off;Off;On;H320;H320;H323;TCP;Auto;Tls;Host;Host;Host;1128;924;1061;1979;3666;1879;5992;5797;2914;75;4318;2214;NotDone
On;BestEffort;BestEffort;Off;Off;On;H320;H320;Sip;Tls;Auto;Tls;Host;Host;Host;1196;938;1045;3719;3638;1993;5550;3781;2164;109;3841;2217;NotDone
On;BestEffort;BestEffort;Off;Off;Off;Auto;H323;H323;TCP;Auto;Tls;Host;Host;Host;1081;938;1045;3382;3666;1879;5992;5797;2299;271;4376;2377;NotDone
Off;BestEffort;Off;On;Off;Off;H320;H320;H320;Tls;Auto;Tls;Host;Host;Host;1100;938;1062;732;3638;1876;5810;3781;2164;75;3843;2214;NotDone
On;BestEffort;BestEffort;On;On;Off;H320;H323;Sip;TCP;Auto;Tls;Host;Host;Host;1175;924;1229;5852;3666;1879;5946;5797;2164;75;4272;2217;NotDone
On;BestEffort;BestEffort;On;Off;On;Auto;H323;H320;TCP;Auto;Tls;Host;Host;Host;1128;924;1061;1979;3666;1879;5946;5797;2164;240;3843;2217;NotDone
On;BestEffort;BestEffort;On;Off;On;Auto;H323;Sip;TCP;Auto;Tls;Host;Host;Host;1175;924;1229;5852;3514;1993;5550;5417;2164;75;4272;2217;NotDone
Off;BestEffort;BestEffort;On;Off;Off;Sip;H323;H320;TCP;Auto;Tls;Host;Host;Host;1120;924;1042;5940;3666;1876;5946;5797;2164;72;4272;2214;NotDone
On;BestEffort;BestEffort;Off;Off;On;H323;H323;Sip;Tls;Auto;Tls;Host;Host;Host;1120;924;1045;5940;3666;1993;5550;5417;2164;109;3843;2217;NotDone
On;BestEffort;BestEffort;Off;On;On;H320;H323;Sip;Tls;Auto;Tls;Host;Host;Host;1128;924;1045;894;3638;1993;4176;3781;2471;271;3843;2217;NotDone
On;BestEffort;BestEffort;On;Off;Off;H323;H323;H323;TCP;Auto;Tls;Host;Host;Host;1059;938;1045;3382;3638;1876;5946;5435;2164;75;4272;2217;NotDone
On;BestEffort;BestEffort;On;On;On;H320;H323;Sip;TCP;Auto;Tls;Host;Host;Host;1175;924;1240;5936;3666;1879;5946;5595;2164;265;4257;2377;NotDone
On;BestEffort;BestEffort;Off;Off;Off;H320;H320;H323;TCP;Auto;Tls;Host;Host;Host;1195;938;1171;2585;4138;1876;5550;5417;2164;109;3843;2214;NotDone
On;BestEffort;BestEffort;Off;On;On;H320;H320;Sip;Tls;Auto;Tls;Host;Host;Host;1081;938;1045;3277;3666;1876;5810;3179;2164;109;4376;2217;NotDone
Off;BestEffort;BestEffort;On;Off;Off;H320;H323;H320;TCP;Auto;Tls;Host;Host;Host;1175;924;1240;1842;3666;1879;5946;5595;2164;265;4257;2377;NotDone
On;BestEffort;BestEffort;Off;On;Off;H323;H323;H320;TCP;Auto;Tls;Host;Host;Host;1120;924;1240;5940;3666;1993;5550;5417;2256;75;4272;2217;NotDone
On;BestEffort;BestEffort;Off;On;On;H320;Sip;Sip;Tls;Auto;Tls;Host;Host;Host;1175;938;1045;3561;3482;2011;5739;3891;2164;75;3843;2214;NotDone
On;BestEffort;BestEffort;Off;On;On;H320;Sip;Sip;Tls;Auto;Tls;Host;Host;Host;1175;938;1045;3561;3482;2011;5739;3891;2806;243;3699;2377;NotDone
On;On;On;Off;On;On;H320;H323;Auto;Tls;Auto;Tls;Host;Host;Host;1196;938;1045;3382;4138;1993;4176;3891;2164;265;4257;2377;NotDone
Off;BestEffort;On;On;On;Off;H320;H323;H323;TCP;Auto;Tls;Host;Host;Host;748;924;1045;5940;3666;1993;5992;5797;2914;75;4318;2214;NotDone
Off;On;Off;Off;Off;Off;H320;H320;Sip;Tls;Auto;Tls;Host;Host;Host;1175;924;1045;5852;3854;1879;5992;5797;2914;75;4318;2214;NotDone
On;On;Off;Off;Off;Off;H320;H323;Sip;TCP;Auto;Tls;Host;Host;Host;1175;938;1045;3382;4138;1879;5686;3999;2164;75;4272;2217;NotDone
On;BestEffort;On;Off;On;On;H320;H323;Sip;Tls;Auto;Tls;Host;Host;Host;1100;938;1062;732;3638;1876;5810;3179;2313;265;3646;1932;NotDone
On;BestEffort;BestEffort;On;Off;Off;H320;H320;Sip;TCP;Auto;Tls;Host;Host;Host;1175;924;1240;5936;3666;1879;5946;5595;2164;265;4257;2377;NotDone
Off;On;Off;Off;On;Off;H320;H320;Auto;Tls;Auto;Tls;Host;Host;Host;1196;938;1045;3843;3638;1993;5550;3781;2164;271;3843;2217;NotDone
On;BestEffort;BestEffort;Off;Off;On;Auto;H323;H323;TCP;Auto;Tls;Host;Host;Host;1175;924;1047;5940;3490;1876;5946;5797;2164;75;3843;1785;NotDone
On;BestEffort;BestEffort;Off;On;On;H320;H323;H323;Tls;Auto;Tls;Host;Host;Host;1175;924;1042;5940;3666;1876;5946;5797;2164;72;4272;2536;NotDone
Off;BestEffort;BestEffort;On;Off;Off;H320;H320;Sip;TCP;Auto;Tls;Host;Host;Host;1051;938;1045;2585;4138;1993;5550;5417;2164;75;4272;2217;NotDone
On;BestEffort;BestEffort;Off;On;On;H320;H323;Sip;Tls;Auto;Tls;Host;Host;Host;1128;924;1045;894;3638;1993;4176;5319;2471;271;3843;2217;NotDone
Off;BestEffort;On;Off;Off;Off;H320;H320;Sip;Tls;Auto;Tls;Host;Host;Host;1100;938;1045;3327;3666;1993;5550;5417;2164;75;4272;2377;NotDone
Off;On;BestEffort;Off;On;On;H320;H323;H320;Tls;Auto;Tls;Host;Host;Host;1175;938;1045;3561;3482;2011;5739;3891;2806;178;3906;2214;NotDone
Off;On;Off;Off;Off;On;H320;H323;Sip;Tls;Auto;Tls;Host;Host;Host;1196;938;1045;3561;3482;2011;5739;4293;2806;178;3906;2217;NotDone
Off;BestEffort;On;Off;Off;Off;H320;H323;H320;Tls;Auto;Tls;Host;Host;Host;1081;938;1045;3277;3666;1993;5550;5417;2164;75;3843;2217;NotDone
Off;BestEffort;On;Off;Off;Off;H320;H323;H320;Tls;Auto;Tls;Host;Host;Host;1081;938;1045;2585;4138;1993;5550;3781;2164;271;4376;2217;NotDone
Off;BestEffort;On;Off;On;On;H320;H323;Sip;Tls;Auto;Tls;Host;Host;Host;1081;938;1045;4590;3638;1993;5739;3891;2806;75;4318;2217;NotDone
Off;On;On;Off;Off;Off;H320;H323;Sip;Tls;Auto;Tls;Host;Host;Host;1059;938;1045;1584;2258;1876;5810;2845;2164;109;4376;2069;NotDone
Off;BestEffort;BestEffort;Off;On;On;H320;H323;Sip;Tls;Auto;Tls;Host;Host;Host;1081;938;1045;4590;3638;1993;5739;3891;2806;75;4318;2217;NotDone
Off;BestEffort;BestEffort;On;On;Off;H320;H323;Sip;TCP;Auto;Tls;Host;Host;Host;1175;924;1240;5940;3666;1879;5946;5671;3001;109;4376;2168;NotDone
On;On;On;Off;On;On;H320;H323;Sip;Tls;Auto;Tls;Host;Host;Host;1196;938;1215;3277;3638;1876;5810;2845;2164;75;3843;2217;NotDone
On;BestEffort;BestEffort;Off;On;Off;Auto;H323;Sip;TCP;Auto;Tls;Host;Host;Host;1128;924;1061;1979;5002;1879;5992;5797;2914;75;4318;2214;NotDone
Off;BestEffort;On;On;On;Off;H320;H323;H323;TCP;Auto;Tls;Host;Host;Host;1175;924;1045;5940;3666;1993;5550;5417;2256;75;4272;2377;NotDone
Off;BestEffort;BestEffort;On;Off;Off;Sip;H323;H323;TCP;Auto;Tls;Host;Host;Host;1175;924;1229;5940;3666;1879;5739;5797;2914;109;4926;2377;NotDone
On;BestEffort;BestEffort;Off;On;On;H320;Sip;Sip;Tls;Auto;Tls;Host;Host;Host;1175;938;1045;3561;3482;2011;5739;3891;2806;243;3699;2377;NotDone
On;BestEffort;BestEffort;On;Off;Off;H320;H323;H320;TCP;Auto;Tls;Host;Host;Host;1175;924;771;5936;5002;1879;5946;5595;2164;75;4272;2217;NotDone
Off;On;Off;On;Off;Off;H320;H323;Auto;TCP;Auto;Tls;Host;Host;Host;1089;938;1045;2585;4138;1876;5768;5797;2806;178;4318;2217;NotDone
On;BestEffort;BestEffort;On;Off;Off;Auto;H320;H323;TCP;Auto;Tls;Host;Host;Host;1175;924;1240;5940;3666;1876;5946;5417;2164;75;4272;2217;NotDone
On;On;On;Off;On;On;H320;Sip;Sip;Tls;Auto;Tls;Host;Host;Host;1175;938;1045;3297;3666;1876;5946;3891;2806;75;3843;2027;NotDone
Off;BestEffort;On;Off;Off;On;H320;H323;Sip;Tls;Auto;Tls;Host;Host;Host;1175;924;1045;1571;3638;1964;5810;3891;2164;271;3843;2217;NotDone
On;BestEffort;BestEffort;On;Off;Off;Auto;H323;H323;TCP;Auto;Tls;Host;Host;Host;1175;924;1045;5940;4451;1879;5946;5417;2164;75;3843;2217;NotDone
Off;On;On;Off;On;Off;H320;H320;H320;Tls;Auto;Tls;Host;Host;Host;1059;938;1045;1584;3666;1879;5946;5797;2914;75;4318;2217;NotDone
Off;On;On;Off;On;On;H320;H323;H323;Tls;Auto;Tls;Host;Host;Host;1081;938;1045;3561;3482;2876;5739;3891;2164;75;3843;2027;NotDone
Off;BestEffort;On;Off;Off;Off;H320;H320;Sip;Tls;Auto;Tls;Host;Host;Host;1120;924;1042;5940;3666;1879;5946;5797;2164;75;4272;2217;NotDone
On;On;Off;Off;On;On;H320;H323;Sip;Tls;Auto;Tls;Host;Host;Host;1100;938;1062;140;3638;1876;4176;3781;2164;109;4401;2214;NotDone
On;On;BestEffort;Off;On;On;H320;Sip;H323;Tls;Auto;Tls;Host;Host;Host;1175;924;1045;3277;3638;1876;5810;2845;2164;265;4257;2377;NotDone
Off;On;Off;Off;On;Off;H320;H323;Sip;Tls;Auto;Tls;Host;Host;Host;1196;938;1045;3561;3482;2011;5739;4293;2806;178;4257;2377;NotDone
On;BestEffort;BestEffort;On;On;On;Auto;H323;H323;TCP;Auto;Tls;Host;Host;Host;1175;924;1229;5852;3514;1993;5550;5417;2164;271;3843;2217;NotDone
On;On;BestEffort;Off;Off;Off;H320;H323;H323;TCP;Auto;Tls;Host;Host;Host;1196;938;1045;3561;3482;2011;5739;4293;2806;178;4257;2377;NotDone
On;BestEffort;BestEffort;Off;On;On;Sip;H323;Sip;TCP;Auto;Tls;Host;Host;Host;1175;924;1045;2536;3666;1821;5946;5595;2164;271;3843;2214;NotDone
Off;On;Off;Off;Off;Off;H320;H320;H320;Tls;Auto;Tls;Host;Host;Host;1059;938;1045;2304;4138;1879;5992;5797;2914;75;3843;2214;NotDone
Off;On;On;Off;On;On;H320;H323;H323;Tls;Auto;Tls;Host;Host;Host;1081;938;1045;2973;3638;1993;5739;3891;2164;75;3843;2214;NotDone
On;BestEffort;BestEffort;On;Off;Off;H320;H323;H320;TCP;Auto;Tls;Host;Host;Host;1100;938;1045;3277;3666;1993;5550;5417;2164;75;4272;2217;NotDone
Off;BestEffort;Off;Off;Off;Off;H320;H323;H323;TCP;Auto;Tls;Host;Host;Host;1175;924;1240;5852;3854;1879;5992;5797;2914;75;4318;2214;NotDone
On;BestEffort;BestEffort;On;Off;Off;H323;H323;Sip;TCP;Auto;Tls;Host;Host;Host;1081;924;1240;3382;4138;1876;5946;5797;2164;75;3843;2214;NotDone
On;BestEffort;On;Off;Off;Off;H320;H323;Auto;TCP;Auto;Tls;Host;Host;Host;1100;938;1102;3382;3386;1993;5550;4157;2164;75;4272;2217;NotDone
Off;On;Off;Off;Off;On;H320;H323;H323;Tls;Auto;Tls;Host;Host;Host;1052;924;1101;3277;3638;1876;5810;2845;3251;243;4272;2377;NotDone
Off;BestEffort;BestEffort;Off;On;Off;H320;H323;H320;Tls;Auto;Tls;Host;Host;Host;1100;938;1102;5936;3482;1876;5946;5671;3001;109;4376;2377;NotDone
On;On;BestEffort;Off;Off;Off;H320;H323;H320;TCP;Auto;Tls;Host;Host;Host;1175;938;1045;3382;1599;1876;5946;3891;2806;178;3843;2217;NotDone
Off;On;Off;Off;Off;Off;H320;H320;H320;TCP;Auto;Tls;Host;Host;Host;1100;938;1062;5936;3666;1879;5946;5595;2164;265;4257;2377;NotDone
On;On;BestEffort;Off;On;On;H320;H323;Auto;Tls;Auto;Tls;Host;Host;Host;1196;938;1045;3382;4138;1993;4176;3891;2164;265;4257;2377;NotDone
On;On;Off;Off;On;On;H320;Sip;H320;Tls;Auto;Tls;Host;Host;Host;1100;938;1062;732;3638;1876;5810;3179;2164;109;4376;2217;NotDone
Off;BestEffort;On;Off;Off;Off;H320;H320;H323;TCP;Auto;Tls;Host;Host;Host;1128;924;1045;3994;3523;1876;5810;2845;2164;75;3843;2214;NotDone
On;BestEffort;BestEffort;On;Off;Off;Auto;H323;H323;TCP;Auto;Tls;Host;Host;Host;1175;924;1240;5936;3666;1879;5992;5797;2164;75;3843;2115;NotDone
Off;On;On;Off;Off;Off;H320;H323;H323;TCP;Auto;Tls;Host;Host;Host;1175;938;1045;3561;3482;2876;5739;3891;2164;75;3843;2217;NotDone
On;On;BestEffort;Off;Off;On;H320;H323;Sip;Tls;Auto;Tls;Host;Host;Host;1175;924;1045;4590;3638;1879;5992;5797;2914;75;4620;2214;NotDone
On;BestEffort;On;Off;Off;Off;H320;H323;H323;Tls;Auto;Tls;Host;Host;Host;1052;924;1101;3277;3638;1876;5810;2845;2164;75;3843;2214;NotDone
Off;On;On;Off;On;Off;H320;H320;H320;Tls;Auto;Tls;Host;Host;Host;1059;938;1045;1584;3666;1879;5946;3179;2914;178;4926;2377;NotDone
Off;BestEffort;BestEffort;On;On;Off;H320;H323;Sip;TCP;Auto;Tls;Host;Host;Host;1175;924;1229;5852;5002;1879;5992;5797;2914;75;4318;2214;NotDone
Off;BestEffort;Off;Off;Off;Off;H320;H323;H320;TCP;Auto;Tls;Host;Host;Host;1175;924;1045;3382;4138;1876;5946;5435;2164;271;3776;2217;NotDone
On;BestEffort;BestEffort;On;Off;On;Auto;H323;H320;TCP;Auto;Tls;Host;Host;Host;1195;924;1240;4313;3666;1879;5946;5670;2164;75;3843;2217;NotDone
On;On;BestEffort;Off;Off;Off;H320;H323;H320;TCP;Auto;Tls;Host;Host;Host;1081;938;1045;4373;3666;1879;5992;5797;2299;109;4376;2217;NotDone
Off;BestEffort;On;Off;Off;On;H320;H323;H320;Tls;Auto;Tls;Host;Host;Host;1081;938;1134;3277;3638;1876;5810;2845;2164;75;3843;2217;NotDone
Off;BestEffort;Off;On;Off;Off;H320;H323;H320;TCP;Auto;Tls;Host;Host;Host;1175;924;1240;1842;3666;1879;5946;5595;2164;265;4257;2377;NotDone
Off;BestEffort;Off;Off;On;Off;H320;H323;H320;UDP;Auto;Tls;Host;Host;Host;1081;938;1045;3277;4138;1876;5768;4330;2164;75;3646;2217;NotDone
On;BestEffort;BestEffort;On;Off;On;Auto;H323;H320;TCP;Auto;Tls;Host;Host;Host;1195;924;1240;4313;3666;1879;5946;5670;2164;75;3843;2217;NotDone
On;BestEffort;BestEffort;On;Off;Off;Auto;H323;H323;TCP;Auto;Tls;Host;Host;Host;1128;924;1045;4590;4138;1993;5550;5417;2164;75;4272;2217;NotDone
On;BestEffort;BestEffort;On;Off;On;Auto;H323;H320;TCP;Auto;Tls;Host;Host;Host;1175;924;1222;4023;3576;1993;5550;5417;2164;75;4272;2217;NotDone
On;BestEffort;On;Off;Off;On;H320;H320;Sip;Tls;Auto;Tls;Host;Host;Host;1196;938;1045;3277;3638;1876;5810;2845;2164;75;4318;2214;NotDone
On;BestEffort;On;Off;On;On;H320;H323;Sip;Tls;Auto;Tls;Host;Host;Host;1175;924;1045;3994;3523;1876;5810;5797;2164;75;4272;2217;NotDone
On;BestEffort;BestEffort;On;On;On;Auto;H323;H323;TCP;Auto;Tls;Host;Host;Host;1175;924;1047;5940;3490;1879;5992;5797;2914;75;4376;2217;NotDone
On;BestEffort;BestEffort;Off;On;On;H320;H323;H320;TCP;Auto;Tls;Host;Host;Host;1175;924;1240;5940;3666;1879;5946;5797;2164;75;3843;2214;NotDone
On;On;BestEffort;Off;Off;Off;H320;H323;H320;TCP;Auto;Tls;Host;Host;Host;1175;924;1045;4023;3666;1821;5946;5595;2164;271;3843;2214;NotDone
Off;On;BestEffort;Off;Off;Off;H320;H323;H320;Tls;Auto;Tls;Host;Host;Host;1175;924;734;1584;3714;1876;5810;5163;2164;109;4376;2217;NotDone
Off;On;On;Off;Off;Off;H320;H323;Sip;Tls;Auto;Tls;Host;Host;Host;1175;924;734;1584;3666;1879;5946;5797;2914;75;4376;2217;NotDone
On;BestEffort;BestEffort;Off;Off;On;H320;H323;H320;Tls;Auto;Tls;Host;Host;Host;1081;938;1134;3277;3638;1876;5810;2845;2164;75;3843;2217;NotDone
On;BestEffort;BestEffort;Off;On;Off;H320;H323;Auto;Tls;Auto;Tls;Host;Host;Host;1195;938;1045;3382;3470;1876;5946;4575;3001;271;3843;2205;NotDone
On;BestEffort;BestEffort;Off;On;Off;H323;H323;Sip;TCP;Auto;Tls;Host;Host;Host;1175;924;1222;4023;3576;1879;5992;5797;2914;75;3843;2214;NotDone
Off;BestEffort;BestEffort;On;Off;Off;H323;H323;Sip;TCP;Auto;Tls;Rflx;Host;Host;1175;924;1240;5940;4067;1879;5946;5797;2164;75;3646;2214;NotDone
On;On;On;Off;Off;On;H320;H323;H320;Tls;Auto;Tls;Host;Host;Host;1100;938;1062;732;3638;1876;5810;3179;2164;271;4272;2217;NotDone
On;On;BestEffort;Off;On;On;H320;H323;Sip;Tls;Auto;Tls;Host;Host;Host;1128;924;1045;894;3638;1993;4176;3781;2471;271;3843;2027;NotDone
Off;On;Off;Off;Off;Off;H320;H323;H320;Tls;Auto;Tls;Host;Host;Host;1175;924;1045;1571;3638;1964;5739;3891;2164;75;3843;2027;NotDone
On;On;BestEffort;Off;Off;Off;H320;H323;H320;TCP;Auto;Tls;Host;Host;Host;1087;924;1045;1549;4138;1876;5768;5797;2164;271;3843;2217;NotDone
Off;BestEffort;Off;On;Off;Off;H320;H320;Sip;TCP;Auto;Tls;Host;Host;Host;1175;924;1045;5940;3666;1993;5550;5417;2256;75;4272;2377;NotDone
Off;On;On;Off;Off;Off;H320;H323;Auto;TCP;Auto;Tls;Host;Host;Host;1059;938;1232;3382;4138;1876;5550;3781;2164;75;4272;2217;NotDone
Off;On;BestEffort;Off;Off;Off;H320;H320;Sip;Tls;Auto;Tls;Host;Host;Host;1175;924;734;1584;3666;1876;5810;2845;3002;271;4376;1932;NotDone
Off;On;On;Off;Off;Off;H320;H320;Sip;Tls;Auto;Tls;Host;Host;Host;1175;924;1240;2359;3666;1879;5550;5417;2164;75;4272;2217;NotDone
Off;On;Off;Off;Off;Off;H320;H320;H320;TCP;Auto;Tls;Host;Host;Host;1100;938;1062;732;4138;1876;5946;3891;2164;75;4272;2217;NotDone
On;On;Off;Off;On;On;H320;Sip;Sip;Tls;Auto;Tls;Host;Host;Host;1175;938;1045;3561;3482;2011;5739;3891;2164;75;3843;2214;NotDone
On;BestEffort;BestEffort;Off;On;Off;H323;H323;Sip;TCP;Auto;Tls;Host;Host;Host;1128;924;1061;1979;3666;1879;5946;5797;2164;271;3843;2217;NotDone
On;BestEffort;BestEffort;Off;On;On;Sip;H323;Sip;TCP;Auto;Tls;Host;Host;Host;1175;924;1222;2952;3666;1879;3972;5797;2914;265;3646;2214;NotDone
Off;BestEffort;BestEffort;Off;Off;Off;H320;H323;H320;Tls;Auto;Tls;Host;Host;Host;1081;938;1045;4313;3666;1879;5946;5797;2164;75;3843;2214;NotDone
On;BestEffort;BestEffort;On;Off;Off;H323;H320;Sip;TCP;Auto;Tls;Host;Host;Host;1092;924;1240;5936;3666;1879;5946;5595;2164;265;3776;2214;NotDone
Off;BestEffort;BestEffort;On;On;Off;H323;H323;H323;TCP;Auto;Tls;Host;Host;Host;1175;924;1229;5852;3514;1993;5550;5417;2164;75;4272;2217;NotDone
Off;BestEffort;BestEffort;Off;Off;On;H320;H323;H320;TCP;Auto;Tls;Host;Host;Host;1175;924;1240;3573;3666;1879;5946;5797;2164;80;3843;2214;NotDone
Off;On;BestEffort;Off;On;On;H320;H323;H320;Tls;Auto;Tls;Host;Host;Host;1175;938;1045;3561;3482;2011;5739;3891;2806;178;3906;2214;NotDone
On;On;Off;Off;Off;Off;H320;H323;Sip;Tls;Auto;Tls;Host;Host;Host;1068;924;1045;1767;4138;1876;5768;2845;2164;178;3843;2214;NotDone
On;BestEffort;BestEffort;On;On;Off;Sip;H323;H320;TCP;Auto;Tls;Host;Host;Host;1079;938;1045;2304;4138;1879;5992;5797;2914;75;3843;2214;NotDone
On;BestEffort;BestEffort;On;Off;On;Sip;H323;H323;TCP;Auto;Tls;Host;Host;Host;1175;924;1240;5091;3666;1879;5946;5797;2164;75;4376;2217;NotDone
Off;BestEffort;Off;Off;Off;Off;H320;H323;H320;TCP;Auto;Tls;Host;Host;Host;1059;938;1045;2304;4138;1956;5768;3891;2806;271;4690;2217;NotDone
Off;On;Off;Off;On;On;H320;Sip;Sip;Tls;Auto;Tls;Host;Host;Host;1175;938;1045;3561;3482;1993;5550;3781;2164;109;4376;2217;NotDone
On;BestEffort;BestEffort;Off;Off;On;H320;H323;H323;TCP;Auto;Tls;Host;Host;Host;1175;924;1222;4023;5002;1879;5992;5797;2914;75;4376;2217;NotDone
Off;BestEffort;BestEffort;On;Off;Off;H323;H323;Sip;TCP;Auto;Tls;Rflx;Host;Host;1175;924;1240;5940;4067;1879;5946;5797;2164;75;3646;2214;NotDone
On;On;BestEffort;Off;Off;On;H320;H320;Auto;Tls;Auto;Tls;Host;Host;Host;1196;938;1045;3994;3523;1876;5810;2845;2164;75;3843;2214;NotDone
Off;BestEffort;BestEffort;On;On;Off;Auto;H323;H320;TCP;Auto;Tls;Host;Host;Host;1175;924;1240;5852;3854;1879;5992;5797;2914;75;4318;2214;NotDone
On;BestEffort;BestEffort;On;On;Off;Auto;H323;H323;TCP;Auto;Tls;Host;Host;Host;1091;924;1240;2359;3666;1879;5946;5595;2240;75;4376;1932;NotDone
On;On;Off;Off;On;On;H320;H323;Sip;Tls;Auto;Tls;Host;Host;Host;1081;938;1045;2585;4138;1993;5550;3781;2164;75;4272;2217;NotDone
On;BestEffort;BestEffort;Off;Off;On;H323;H323;Sip;Tls;Auto;Tls;Host;Host;Host;1120;924;1042;5940;3666;1879;5946;5797;2164;75;3646;2214;NotDone
Off;BestEffort;On;Off;Off;Off;H320;H323;H320;TCP;Auto;Tls;Host;Host;Host;1175;924;1240;1842;3666;1879;5946;5595;2164;265;4257;2377;NotDone
Off;On;On;Off;Off;Off;H320;H323;Sip;Tls;Auto;Tls;Host;Host;Host;1128;924;1222;4023;3666;1876;5768;5671;3001;109;4376;2377;NotDone
Off;BestEffort;On;Off;Off;Off;H320;H320;H320;Tls;Auto;Tls;Host;Host;Host;1059;938;1045;1584;3666;1879;5946;5797;2802;75;4376;2217;NotDone
Off;On;Off;On;Off;Off;H320;H323;Auto;TCP;Auto;Tls;Host;Host;Host;1128;924;1045;3382;4138;1876;5946;5797;2164;75;3843;2214;NotDone
On;BestEffort;BestEffort;Off;On;Off;Sip;H323;H323;TCP;Auto;Tls;Host;Host;Host;1175;924;1240;5936;3666;1879;5946;5595;2164;265;4257;2377;NotDone
On;BestEffort;BestEffort;Off;On;On;H320;Sip;Sip;Tls;Auto;Tls;Host;Host;Host;1081;938;1045;4023;3666;1821;3938;3781;2484;75;4376;2217;NotDone
Off;BestEffort;BestEffort;On;On;Off;Auto;H323;H320;TCP;Auto;Tls;Host;Host;Host;1175;924;1240;5852;3854;1879;5992;5797;2914;75;4318;2214;NotDone
On;BestEffort;BestEffort;On;Off;On;Auto;H323;H323;TCP;Auto;Tls;Host;Host;Host;1059;938;1045;4590;3638;1876;5946;5435;2164;75;4272;2217;NotDone
On;BestEffort;BestEffort;On;Off;Off;H323;H323;H323;TCP;Auto;Tls;Host;Host;Host;1091;924;1229;5852;4138;1993;5550;5417;2164;271;3843;2217;NotDone
On;BestEffort;BestEffort;Off;Off;On;H320;H323;Auto;TCP;Auto;Tls;Host;Host;Host;1081;938;1045;2585;4138;1993;5550;3781;2164;178;3776;2217;NotDone
Off;BestEffort;BestEffort;Off;Off;Off;H320;H320;Sip;Tls;Auto;Tls;Host;Host;Host;1175;924;1229;5940;3666;1879;5739;5797;2914;109;4926;2377;NotDone
Off;On;Off;Off;On;Off;H320;H320;Auto;Tls;Auto;Tls;Host;Host;Host;1196;938;1045;3843;3638;1993;5550;3781;2164;109;4376;2217;NotDone
On;BestEffort;BestEffort;Off;On;Off;H323;H323;Sip;TCP;Auto;Tls;Host;Host;Host;1091;924;1229;5852;5002;1879;5992;5797;2914;75;4318;2217;NotDone
On;BestEffort;BestEffort;On;On;On;H323;H323;H320;TCP;Auto;Tls;Host;Host;Host;1120;924;1240;5940;3666;1879;5550;5417;2256;75;4272;2377;NotDone
On;BestEffort;BestEffort;On;On;Off;Auto;H323;H320;TCP;Auto;Tls;Host;Host;Host;1059;938;1045;4590;3638;1879;5992;5797;2164;75;3565;2217;NotDone
On;BestEffort;BestEffort;Off;On;On;H323;H323;H320;TCP;Auto;Tls;Host;Host;Host;1128;924;1061;2268;3638;1993;5550;3781;2164;109;4376;2217;NotDone
Off;BestEffort;BestEffort;On;Off;Off;H320;H323;Sip;TCP;Auto;Tls;Host;Host;Host;1175;924;1007;5940;3666;1879;5946;5595;2164;75;1391;2217;NotDone
On;BestEffort;BestEffort;Off;On;Off;H320;H323;Auto;Tls;Auto;Tls;Host;Host;Host;1175;901;1045;4023;3666;1879;5992;5797;2490;75;4376;2226;NotDone
Off;On;On;Off;Off;Off;H320;H323;Auto;TCP;Auto;Tls;Host;Host;Host;1100;938;1102;3382;3386;1993;5550;4157;2164;271;4376;2377;NotDone
On;BestEffort;On;Off;On;On;H320;H323;Sip;Tls;Auto;Tls;Host;Host;Host;1081;938;1045;4590;3638;1876;5810;2845;2164;75;4318;2214;NotDone
Off;On;BestEffort;Off;Off;Off;H320;H320;H320;Tls;Auto;Tls;Host;Host;Host;1081;938;1102;3382;3386;1993;5550;4157;2164;271;4376;2377;NotDone
Off;BestEffort;BestEffort;Off;Off;On;H323;H323;H320;TCP;Auto;Tls;Host;Host;Host;1175;924;1229;5852;3514;1993;5550;5417;2164;75;4272;2217;NotDone
Off;BestEffort;Off;Off;Off;Off;H320;H320;H320;TCP;Auto;Tls;Host;Host;Host;1081;924;791;3382;4138;1876;5550;5417;2164;75;3646;2214;NotDone
On;BestEffort;BestEffort;On;On;On;Auto;H323;Sip;TCP;Auto;Tls;Host;Host;Host;1175;924;1229;5852;3514;1993;5550;5417;2164;271;3843;2217;NotDone
On;BestEffort;BestEffort;On;Off;On;H323;H323;H320;TCP;Auto;Tls;Host;Host;Host;1097;924;1045;5940;3580;1879;5946;5797;2164;75;4376;1465;NotDone
Off;BestEffort;BestEffort;Off;Off;Off;H320;H323;H320;Tls;Auto;Tls;Host;Host;Host;1081;938;1045;2973;3638;1993;5946;5270;2164;75;3843;2027;NotDone
Off;BestEffort;BestEffort;On;Off;Off;H323;H323;H323;TCP;Auto;Tls;Host;Host;Host;1175;924;1229;5852;3514;1993;5550;5417;2164;75;4272;2217;NotDone
Off;BestEffort;BestEffort;On;Off;Off;H320;H320;H320;TCP;Auto;Tls;Host;Host;Host;1175;924;1222;5940;3666;1879;5946;5797;2164;75;4376;2214;NotDone
Off;BestEffort;Off;Off;On;Off;H320;H323;Auto;Tls;Auto;Tls;Host;Host;Host;1059;938;1045;2973;3638;1993;5550;3781;2164;271;4376;1932;NotDone
On;On;Off;Off;Off;On;H320;H323;Sip;Tls;Auto;Tls;Host;Host;Host;1196;938;1045;3561;3482;2011;5739;4293;2806;178;3906;2214;NotDone
On;BestEffort;BestEffort;On;On;On;Sip;H323;H320;TCP;Auto;Tls;Host;Host;Host;1195;924;1240;4313;3666;1879;5946;5670;2164;75;3843;2217;NotDone
On;BestEffort;BestEffort;On;On;On;H323;H323;Auto;TCP;Auto;Tls;Host;Host;Host;1097;924;1045;5940;3580;1879;5946;5797;2164;75;4376;1465;NotDone
Off;BestEffort;BestEffort;Off;Off;On;H320;H323;H320;Tls;Auto;Tls;Host;Host;Host;1081;938;1134;3277;3638;1876;5810;2845;2164;75;3843;2217;NotDone
Off;BestEffort;BestEffort;On;Off;Off;H320;H320;H320;TCP;Auto;Tls;Host;Host;Host;1081;924;1240;3382;4138;1876;5946;5797;2806;75;3843;2214;NotDone
Off;BestEffort;BestEffort;Off;Off;Off;Sip;H323;Sip;TCP;Auto;Tls;Host;Host;Host;1175;938;1229;5852;5002;1879;5992;5797;2914;75;4318;2214;NotDone
Off;BestEffort;BestEffort;Off;On;Off;H320;H323;H320;Tls;Auto;Tls;Host;Host;Host;1100;938;1102;4028;4138;1876;5810;3630;3093;109;4376;2217;NotDone
Off;BestEffort;On;On;Off;Off;H320;H323;Auto;TCP;Auto;Tls;Host;Host;Host;1175;924;1240;5940;3666;1876;5946;5797;2164;72;4272;2214;NotDone
Off;BestEffort;BestEffort;Off;On;Off;H320;H323;Sip;TCP;Auto;Tls;Host;Host;Host;1175;924;1229;5940;3666;1879;5739;5797;2914;109;4926;2377;NotDone
On;BestEffort;BestEffort;On;On;Off;Auto;H323;H320;TCP;Auto;Tls;Host;Host;Host;1175;924;1240;5936;3666;1879;5946;5595;2164;265;4257;2377;NotDone
Off;BestEffort;BestEffort;Off;Off;Off;H320;H323;Auto;TCP;Auto;Tls;Host;Host;Host;1059;938;1232;3382;4138;1876;5550;3781;2164;75;4272;2217;NotDone
On;BestEffort;BestEffort;On;Off;On;Auto;H323;H323;TCP;Auto;Tls;Host;Host;Host;1175;924;1045;4023;3666;1879;5992;5797;2164;75;3843;2217;NotDone
Off;On;On;Off;On;Off;H320;H320;H320;Tls;Auto;Tls;Host;Host;Host;1059;938;1045;1584;3666;1879;5946;3179;2914;178;4926;2377;NotDone
Off;BestEffort;BestEffort;On;Off;Off;H320;H320;Sip;TCP;Auto;Tls;Host;Host;Host;1175;924;1045;3382;4138;1876;5946;5435;2164;271;3776;2217;NotDone
On;BestEffort;On;Off;Off;On;H320;H320;Sip;Tls;Auto;Tls;Host;Host;Host;1100;938;1045;3327;3666;1993;5885;5417;2164;75;4272;2377;NotDone
Off;BestEffort;BestEffort;Off;Off;Off;H320;H323;H320;TCP;Auto;Tls;Host;Host;Host;1175;924;1045;3382;4138;1876;5946;5435;2164;271;3776;2217;NotDone
Off;On;Off;Off;Off;Off;H320;H320;H320;TCP;Auto;Tls;Host;Host;Host;1059;938;1232;3382;3490;1879;5946;5797;2164;75;4257;2377;NotDone
On;BestEffort;BestEffort;Off;Off;On;H323;H323;H320;TCP;Auto;Tls;Host;Host;Host;1175;924;1229;5852;3514;1993;5550;5417;2164;75;4272;2217;NotDone
Off;BestEffort;BestEffort;On;Off;Off;Auto;H323;Sip;TCP;Auto;Tls;Host;Host;Host;1175;938;1045;5940;3666;1879;5946;5595;2164;75;3843;2217;NotDone
Off;On;Off;Off;Off;Off;H320;H323;H320;TCP;Auto;Tls;Host;Host;Host;1175;924;1045;3277;3666;1993;5550;5417;2164;109;4926;2377;NotDone
On;BestEffort;BestEffort;Off;On;On;Auto;H323;H323;TCP;Auto;Tls;Host;Host;Host;1091;924;1229;5852;4138;1993;5550;5417;2164;75;4272;2217;NotDone
On;BestEffort;BestEffort;On;Off;Off;Sip;H323;H323;TCP;Auto;Tls;Host;Host;Host;854;924;1229;5852;4138;1993;5550;5417;2164;75;4376;2214;NotDone
Off;BestEffort;BestEffort;On;On;Off;Auto;H323;H320;TCP;Auto;Tls;Host;Host;Host;1175;924;997;5940;3666;1879;5946;5595;2164;265;4257;2377;NotDone
Off;BestEffort;On;Off;Off;Off;H320;H320;H323;TCP;Auto;Tls;Host;Host;Host;1128;924;1061;1979;3666;1879;5946;5797;2164;271;3843;2217;NotDone
Off;On;Off;Off;On;On;H320;H323;H320;Tls;Auto;Tls;Host;Host;Host;1195;938;1045;2585;4138;1876;5768;2845;2164;271;4690;2217;NotDone
Off;BestEffort;Off;Off;Off;Off;H320;H323;H320;Tls;Auto;Tls;Host;Host;Host;1059;938;1045;1584;2258;1993;5550;5417;2164;75;4272;2217;NotDone
Off;On;BestEffort;Off;On;Off;H320;H323;Auto;Tls;Auto;Tls;Host;Host;Host;1195;938;1045;2585;4138;1876;5768;2845;2164;75;3685;2217;NotDone
Off;BestEffort;BestEffort;Off;Off;Off;H320;H323;H320;TCP;Auto;Tls;Host;Host;Host;1175;924;1240;5940;3666;1879;5550;5417;2256;75;4272;2377;NotDone
On;On;On;Off;On;Off;H320;H323;H320;TCP;Auto;Tls;Host;Host;Host;1051;938;1045;2585;4138;1993;5550;5417;2164;75;4272;2217;NotDone
On;BestEffort;BestEffort;On;Off;Off;H323;H323;H320;TCP;Auto;Tls;Rflx;Host;Host;1059;938;1045;2304;4138;1879;5992;5797;2914;75;3843;2214;NotDone
On;BestEffort;BestEffort;On;Off;On;H323;H323;H320;TCP;Auto;Tls;Host;Host;Host;1097;924;1045;5940;3580;1879;5946;5797;2164;75;4376;1465;NotDone
Off;BestEffort;Off;Off;Off;Off;H320;H320;H320;TCP;Auto;Tls;Host;Host;Host;1081;924;1240;3382;4138;1876;5946;5797;2164;75;3843;2214;NotDone
On;On;On;Off;On;On;H320;H323;Sip;Tls;Auto;Tls;Host;Host;Host;1196;938;1215;3277;3666;1993;5550;5417;2164;75;3843;2217;NotDone
On;On;BestEffort;Off;Off;On;H320;H323;Sip;Tls;Auto;Tls;Host;Host;Host;1175;924;1045;4590;3638;1993;5550;5417;2164;75;3646;2214;NotDone
On;BestEffort;BestEffort;On;Off;Off;H323;H323;H323;TCP;Auto;Tls;Host;Host;Host;1091;924;1229;5852;4138;1993;5550;5417;2164;271;3843;2217;NotDone
Off;BestEffort;On;Off;Off;Off;H320;H320;Sip;Tls;Auto;Tls;Host;Host;Host;1120;924;1042;5940;3666;1879;5946;5797;2164;75;4272;2217;NotDone
On;BestEffort;BestEffort;Off;Off;Off;H320;H320;H320;TCP;Auto;Tls;Host;Host;Host;1175;924;1045;5940;3666;1879;5946;5595;2164;75;4272;2217;NotDone
On;BestEffort;BestEffort;On;On;Off;Auto;H323;H320;TCP;Auto;Tls;Host;Host;Host;1175;924;1240;5936;3666;1879;5946;5595;2164;265;4257;2377;NotDone
Off;On;On;Off;Off;Off;H320;H320;Sip;Tls;Auto;Tls;Host;Host;Host;1175;924;1240;2359;3666;1879;5550;5417;2164;75;4272;2217;NotDone
On;BestEffort;On;Off;Off;Off;H320;H320;Sip;Tls;Auto;Tls;Host;Host;Host;1100;938;1102;3382;3386;1993;5550;4157;2164;271;4376;2377;NotDone
On;On;BestEffort;Off;Off;On;H320;H320;Sip;Tls;Auto;Tls;Host;Host;Host;1100;938;1045;3327;3666;1879;5992;5797;2164;75;4272;2217;NotDone
Off;On;Off;Off;On;On;H320;Sip;Sip;Tls;Auto;Tls;Host;Host;Host;1175;938;1045;2973;3638;1993;5739;3891;2164;75;3843;2214;NotDone
On;BestEffort;BestEffort;Off;Off;Off;Auto;H323;H323;TCP;Auto;Tls;Host;Host;Host;1081;938;1045;4373;3666;1879;5992;5797;2256;75;4272;2377;NotDone
On;BestEffort;BestEffort;On;On;Off;H320;H323;Sip;TCP;Auto;Tls;Host;Host;Host;1175;924;1240;5936;3666;1879;5946;5595;2164;265;4257;2377;NotDone
On;On;On;Off;On;On;H320;H323;Sip;Tls;Auto;Tls;Host;Host;Host;1100;938;1045;3327;2251;1993;5550;5417;2164;75;3843;2299;NotDone
On;BestEffort;BestEffort;Off;On;Off;H323;H323;H323;TCP;Auto;Tls;Host;Host;Host;1120;924;1209;5940;3666;1876;5946;5797;2164;72;4272;2214;NotDone
Off;On;Off;Off;On;On;H320;H320;Sip;Tls;Auto;Tls;Host;Host;Host;1100;938;1045;3382;3470;1876;5946;4575;3001;271;3843;2205;NotDone
Off;On;Off;Off;Off;On;H320;H320;H320;Tls;Auto;Tls;Host;Host;Host;1100;938;1102;3382;3386;1876;5810;3630;3093;274;4376;1932;NotDone
On;BestEffort;BestEffort;Off;On;On;H320;Sip;Sip;Tls;Auto;Tls;Host;Host;Host;1195;938;1045;2585;4138;1876;5768;2845;2164;75;4376;2217;NotDone
On;BestEffort;BestEffort;Off;On;On;H320;H323;H323;Tls;Auto;Tls;Host;Host;Host;1059;938;1045;3382;4138;1879;5992;3999;2914;75;3906;2214;NotDone
On;BestEffort;BestEffort;Off;On;Off;Sip;H323;H320;TCP;Auto;Tls;Host;Host;Host;1092;924;1229;5852;1243;1879;5992;5797;2164;75;4272;2217;NotDone
Off;BestEffort;On;Off;On;Off;H320;H323;Sip;TCP;Auto;Tls;Host;Host;Host;1120;924;1042;5940;3666;1876;5946;5417;2312;75;4272;2377;NotDone
Off;On;Off;Off;Off;On;H320;H323;Sip;Tls;Auto;Tls;Host;Host;Host;1081;938;1045;3277;3666;1993;5550;5417;2164;75;4272;2217;NotDone
On;BestEffort;BestEffort;On;Off;Off;H320;H323;H320;TCP;Auto;Tls;Host;Host;Host;1175;924;1229;5852;5002;1879;5992;5797;2914;75;4318;2217;NotDone
Off;On;BestEffort;Off;Off;Off;H320;H323;H320;TCP;Auto;Tls;Host;Host;Host;1175;896;1048;2585;4138;1876;5768;4330;2164;75;3646;2217;NotDone
On;BestEffort;BestEffort;Off;On;Off;Auto;H323;H323;TCP;Auto;Tls;Host;Host;Host;1175;924;1222;4023;3576;1879;5992;5797;2914;75;3843;2214;NotDone
On;BestEffort;BestEffort;Off;Off;Off;H320;H320;H320;TCP;Auto;Tls;Host;Host;Host;1175;941;1050;5940;3666;1879;5946;5797;2164;75;1938;2217;NotDone
Off;BestEffort;BestEffort;Off;Off;Off;H320;H323;H320;TCP;Auto;Tls;Host;Host;Host;1175;924;1045;3382;4138;1876;5946;5435;2164;271;3776;2217;NotDone
Off;BestEffort;BestEffort;On;Off;Off;Auto;H323;Sip;TCP;Auto;Tls;Host;Host;Host;1092;924;1240;5936;3666;1879;5946;5595;2164;265;3776;2214;NotDone
On;BestEffort;BestEffort;On;Off;On;Auto;H323;H320;TCP;Auto;Tls;Host;Host;Host;1175;924;1222;4023;3576;1879;5992;5797;2914;75;3843;2214;NotDone
Off;BestEffort;BestEffort;Off;On;Off;H320;H323;Sip;TCP;Auto;Tls;Host;Host;Host;1081;938;1045;2973;3638;1993;5946;5270;2164;75;4926;2377;NotDone
On;BestEffort;BestEffort;Off;On;On;H320;H323;H320;TCP;Auto;Tls;Host;Host;Host;1175;924;1240;5940;3666;1879;5946;5797;2164;75;3843;2214;NotDone
Off;BestEffort;On;Off;Off;Off;H320;H323;Auto;TCP;Auto;Tls;Host;Host;Host;1175;924;1222;4023;3666;1879;5946;5797;2164;75;4318;2214;NotDone
On;BestEffort;BestEffort;Off;On;On;H320;H323;H320;TCP;Auto;Tls;Host;Host;Host;1173;924;1045;4590;2216;1993;4176;3891;2806;178;4318;2214;NotDone
On;BestEffort;BestEffort;Off;Off;Off;H320;H320;H320;TCP;Auto;Tls;Host;Host;Host;1195;938;1048;2585;4138;1876;5550;5417;2164;109;3843;2214;NotDone
Off;BestEffort;BestEffort;On;On;Off;Auto;H323;H320;TCP;Auto;Tls;Host;Host;Host;1175;924;997;5940;3666;1879;5946;5595;2164;265;4257;2377;NotDone
On;BestEffort;BestEffort;Off;On;On;H320;Sip;Sip;Tls;Auto;Tls;Host;Host;Host;1128;924;1045;858;3638;1993;4176;3781;2164;109;4376;2217;NotDone
Off;BestEffort;BestEffort;On;On;Off;H320;H323;H320;TCP;Auto;Tls;Host;Host;Host;1175;924;1240;3573;3666;1879;5946;5797;2164;80;3843;2214;NotDone
Off;BestEffort;On;Off;On;Off;H320;H323;Sip;TCP;Auto;Tls;Host;Host;Host;1128;924;1061;1979;3666;1879;5946;5797;2164;240;3843;2217;NotDone
On;BestEffort;BestEffort;On;Off;On;Sip;H323;H323;TCP;Auto;Tls;Host;Host;Host;1175;924;1240;5091;3666;1879;5946;5797;2164;75;4376;2217;NotDone
Off;BestEffort;BestEffort;Off;Off;Off;H320;H320;Sip;Tls;Auto;Tls;Host;Host;Host;1175;924;1240;5940;3666;1879;5946;5671;3001;109;4376;2168;NotDone
On;BestEffort;BestEffort;Off;On;Off;H323;H323;Sip;TCP;Auto;Tls;Host;Host;Host;1091;924;1229;5852;5002;1879;5992;5797;2914;75;4318;2217;NotDone
Off;BestEffort;On;Off;Off;Off;H320;H320;H320;TCP;Auto;Tls;Host;Host;Host;1089;938;1045;2585;4138;1879;5946;5671;3001;109;4376;2168;NotDone
On;On;BestEffort;Off;On;On;H320;Sip;H323;Tls;Auto;Tls;Host;Host;Host;1175;924;1045;3277;3638;1876;5810;2845;2164;75;3843;2214;NotDone
On;BestEffort;BestEffort;Off;On;On;H323;H323;Sip;TCP;Auto;Tls;Host;Host;Host;1175;938;1045;5940;3666;1879;5946;5595;2164;75;3843;2217;NotDone
On;BestEffort;BestEffort;Off;Off;Off;Auto;H323;H323;TCP;Auto;Tls;Host;Host;Host;1175;924;1229;5852;5002;1879;5992;5797;2164;75;4272;2217;NotDone
On;BestEffort;BestEffort;On;On;Off;Sip;H323;H320;TCP;Auto;Tls;Host;Host;Host;1079;938;1045;4023;3666;1821;5946;5595;2164;271;3843;2214;NotDone
On;BestEffort;On;Off;On;On;H320;H323;Auto;Tls;Auto;Tls;Host;Host;Host;1100;938;1062;732;3666;1993;5550;5417;2164;75;4272;2217;NotDone
