Encryption; Encryption_s2; Encryption_s3;ListenPort;ListenPort_s2;ListenPort_s3;DefaultCall_Protocol;DefaultCall_Protocol_s2;DefaultCall_Protocol_s3;DefaultTransport;DefaultTransport_s2;DefaultTransport_s3;Ice_DefaultCandidate;Ice_DefaultCandidate_s2;Ice_DefaultCandidate_S3;MTU;MTU_s2;MTU_s3;DefaultCall_Rate;DefaultCall_Rate_s2;DefaultCall_Rate_s3;MaxTransmitCallRate;MaxTransmitCallRate_s2;MaxTransmitCallRate_s3;MaxReceiveCallRate;MaxReceiveCallRate_s2;MaxReceiveCallRate_s3;Done
Off;On;Off;Off;Off;Off;H320;H320;Auto;TCP;Auto;Tls;Host;Host;Host;1054;905;1108;1587;3344;1726;5979;5342;2190;108;4191;2131;NotDone
Off;On;Off;Off;Off;Off;H320;H320;H323;Tls;Auto;Tls;Host;Host;Host;1054;905;1108;551;3344;1721;5979;2953;2190;117;3937;2131;NotDone
On;On;On;Off;On;On;H320;Sip;Sip;Tls;Auto;Tls;Host;Host;Host;1054;905;1108;1587;3344;1726;3975;4147;2190;108;3624;2131;NotDone
Off;BestEffort;BestEffort;On;Off;Off;Auto;H323;H323;TCP;Auto;Tls;Host;Host;Host;1054;909;1247;5857;3595;1769;5979;5342;2430;108;4480;1753;NotDone
On;BestEffort;BestEffort;On;On;On;H323;H323;H323;TCP;Auto;Tls;Host;Host;Host;1054;909;1247;5998;4605;1726;4118;5342;2112;261;3574;2131;NotDone
On;BestEffort;BestEffort;On;On;On;H323;H323;Auto;TCP;Auto;Tls;Host;Host;Host;1186;905;710;1587;3344;1726;4213;5342;2112;261;3624;2131;NotDone
On;BestEffort;BestEffort;On;On;On;H323;H323;Auto;TCP;Auto;Tls;Host;Host;Host;1054;909;1108;5844;3344;1726;5742;5342;2112;261;3624;2131;NotDone
On;BestEffort;BestEffort;Off;On;On;H323;H323;Auto;TCP;Auto;Tls;Host;Host;Host;1054;909;1247;5998;4605;1726;4118;5342;2190;108;3624;2131;NotDone
On;BestEffort;BestEffort;On;On;On;H323;H323;H320;TCP;Auto;Tls;Host;Host;Host;1054;938;1128;3851;3595;1769;5979;5342;2112;108;3624;2131;NotDone
On;BestEffort;BestEffort;Off;On;Off;H323;H323;Sip;TCP;Auto;Tls;Host;Host;Host;1118;905;1107;3200;3344;1726;5979;5342;2112;261;3624;2131;NotDone
Off;On;Off;Off;On;On;H320;Sip;H323;Tls;Auto;Tls;Host;Host;Host;1054;905;1108;3534;2154;1721;5742;2953;2667;108;4480;2131;NotDone
Off;On;Off;Off;Off;On;H320;H320;H320;Tls;Auto;Tls;Host;Host;Host;1054;905;1108;439;3344;1721;5979;4252;2190;117;3609;2131;NotDone
On;BestEffort;BestEffort;Off;On;Off;Auto;H323;Auto;TCP;Auto;Tls;Host;Host;Host;1054;905;1108;3232;2278;1726;5742;5342;2112;108;3624;2131;NotDone
On;BestEffort;BestEffort;On;Off;Off;H323;H320;Sip;TCP;Auto;Tls;Host;Host;Host;1054;909;1247;5998;3595;1721;5979;5342;2112;108;3624;2131;NotDone
On;On;BestEffort;Off;On;On;H320;H323;H323;Tls;Auto;Tls;Host;Host;Host;1054;905;1108;1587;3344;1726;4380;4147;2190;1330;3624;2131;NotDone
On;BestEffort;BestEffort;Off;On;On;H320;H323;H323;Tls;Auto;Tls;Host;Host;Host;1054;905;1108;1587;3344;1726;4380;4147;2190;622;3624;2131;NotDone
Off;BestEffort;BestEffort;On;Off;On;H323;H323;Auto;TCP;Auto;Tls;Host;Host;Host;1054;909;1247;5998;4357;1726;5979;5342;2190;108;3624;2131;NotDone
On;BestEffort;BestEffort;On;Off;Off;Sip;H323;H320;TCP;Auto;Tls;Host;Host;Host;1088;909;1108;5844;3344;1726;5718;5342;2112;261;3624;2131;NotDone
Off;On;Off;Off;On;On;H320;H320;H323;Tls;Auto;Tls;Host;Host;Host;1054;909;1108;3786;3344;1721;5742;4251;2190;108;3624;2131;NotDone
On;BestEffort;BestEffort;On;On;On;H320;H323;Sip;Tls;Auto;Tls;Host;Host;Host;1118;905;1108;2448;3344;1726;4213;5342;2112;261;3624;2131;NotDone
Off;BestEffort;Off;On;Off;Off;H320;H320;H323;TCP;Auto;Tls;Host;Host;Host;1147;905;1108;5844;3344;1726;5979;5342;2190;108;3624;2131;NotDone
Off;On;Off;Off;Off;Off;H320;H323;Sip;TCP;Auto;Tls;Host;Host;Host;1218;909;1247;2885;4357;1748;5742;5342;2112;261;3574;2131;NotDone
Off;On;On;Off;On;On;H320;Sip;H323;Tls;Auto;Tls;Host;Host;Host;1054;905;1108;551;3344;1721;5979;2953;2190;117;3937;2131;NotDone
Off;On;Off;Off;Off;Off;H320;H320;Sip;TCP;Auto;Tls;Host;Host;Host;1054;909;985;5998;3595;1748;5742;5342;2112;261;3574;2131;NotDone
Off;BestEffort;Off;Off;Off;Off;H320;H323;H320;TCP;Auto;Tls;Host;Host;Host;1186;905;1108;2655;3344;1726;5979;5342;2190;108;3624;2131;NotDone
On;BestEffort;BestEffort;Off;On;Off;Auto;H323;Auto;TCP;Auto;Tls;Host;Host;Host;1054;905;1108;3786;3344;1721;5979;5342;2190;108;3624;2131;NotDone
On;BestEffort;BestEffort;On;Off;Off;Auto;H323;H323;TCP;Auto;Tls;Host;Host;Host;1054;909;1247;1587;3344;1726;5979;5342;2190;108;3624;2131;NotDone
On;BestEffort;BestEffort;Off;On;Off;Sip;H323;H323;Tls;Auto;Tls;Host;Host;Host;1199;905;1108;3232;2278;1726;5742;5342;2190;261;3624;2131;NotDone
Off;On;BestEffort;Off;On;On;H320;H323;H323;Tls;Auto;Tls;Host;Host;Host;1054;905;1108;1587;3344;1726;4380;4147;2190;108;3624;2131;NotDone
On;BestEffort;BestEffort;Off;Off;Off;H323;H323;H323;TCP;Auto;Tls;Host;Host;Host;1054;909;1077;5998;4357;1726;5979;5342;2190;108;3624;2131;NotDone
Off;On;BestEffort;Off;Off;Off;H320;H320;H323;Tls;Auto;Tls;Host;Host;Host;1054;905;1108;551;3344;1721;5979;5342;2190;108;3624;2131;NotDone
On;BestEffort;BestEffort;Off;Off;Off;Auto;H323;Auto;TCP;Auto;Tls;Host;Host;Host;1054;905;1108;3232;2278;1726;5742;5342;2112;117;3933;2131;NotDone
Off;BestEffort;On;Off;Off;Off;Sip;H320;H320;TCP;Auto;Tls;Host;Host;Host;1054;909;1247;5998;4357;1726;5979;5342;2190;108;3624;2131;NotDone
Off;On;On;Off;Off;Off;H320;H323;H323;Tls;Auto;Tls;Host;Host;Host;1054;937;1108;439;3650;1726;5742;5342;2112;261;3624;2131;NotDone
On;BestEffort;BestEffort;Off;Off;Off;H323;H323;Auto;TCP;Auto;Tls;Host;Host;Host;1054;905;1247;3328;4357;1726;5979;5342;2190;108;3619;2131;NotDone
Off;BestEffort;Off;Off;Off;Off;H320;H323;H323;Tls;Auto;Tls;Host;Host;Host;1054;909;720;1479;3344;1726;5979;2953;2190;117;3937;2370;NotDone
Off;BestEffort;BestEffort;Off;Off;On;H320;H323;Auto;Tls;Auto;Tls;Host;Host;Host;1054;909;1108;5844;3344;1726;5979;5342;2190;108;3624;2131;NotDone
Off;BestEffort;BestEffort;On;Off;Off;H320;H323;H323;TCP;Auto;Tls;Host;Host;Host;1054;909;1055;5998;3595;1726;5742;5342;2190;261;3624;2131;NotDone
Off;BestEffort;Off;Off;Off;On;H320;H320;H323;Tls;Auto;Tls;Host;Host;Host;1186;905;1108;2655;3344;1726;5979;5342;2190;108;3624;2131;NotDone
Off;BestEffort;On;Off;Off;Off;H320;H323;Sip;TCP;Auto;Tls;Host;Host;Host;1054;909;985;5998;3595;1748;5742;5342;2112;261;3574;2131;NotDone
On;On;On;Off;On;On;H320;H323;H323;Tls;Auto;Tls;Host;Host;Host;1118;909;1247;1587;3344;1726;4213;4252;2190;261;3624;2131;NotDone
On;On;On;Off;On;Off;H320;H323;H320;TCP;Auto;Tls;Host;Host;Host;1186;921;1081;2332;3344;1726;5742;5342;2112;261;3624;2131;NotDone
On;BestEffort;BestEffort;On;Off;On;H323;H323;H320;TCP;Auto;Tls;Host;Host;Host;1054;909;1108;5844;3344;1726;5979;5342;2112;108;3624;2131;NotDone
Off;BestEffort;Off;Off;Off;On;H320;H323;H320;TCP;Auto;Tls;Host;Host;Host;1071;921;720;1587;2154;1726;5979;5342;2190;108;3624;2131;NotDone
Off;On;On;Off;On;On;H320;H320;H323;Tls;Auto;Tls;Host;Host;Host;1186;905;1108;439;3344;1721;5979;4252;2190;261;3624;2131;NotDone
On;BestEffort;BestEffort;Off;Off;On;Auto;H323;Auto;TCP;Auto;Tls;Host;Host;Host;1054;909;1247;5998;3344;1726;5979;5342;2190;108;4191;2131;NotDone
On;BestEffort;BestEffort;On;On;Off;Auto;H323;H323;TCP;Auto;Tls;Host;Host;Host;1054;909;710;1587;3344;1726;5742;5342;2112;117;3624;2131;NotDone
On;On;On;Off;On;On;H320;Sip;Sip;Tls;Auto;Tls;Host;Host;Host;1054;905;1108;1587;3344;1726;3975;4236;2190;261;3624;2131;NotDone
Off;On;On;Off;Off;Off;H320;H320;H323;TCP;Auto;Tls;Host;Host;Host;1054;905;1108;3232;2278;1726;5742;5342;2190;261;3624;2131;NotDone
On;BestEffort;BestEffort;On;Off;Off;Auto;H323;H323;TCP;Auto;Tls;Host;Host;Host;1054;909;1247;1587;3344;1726;5979;5342;2190;108;3624;2131;NotDone
Off;BestEffort;BestEffort;Off;Off;Off;H320;H320;H323;TCP;Auto;Tls;Host;Host;Host;1054;909;1108;5844;3344;1726;5742;5342;2112;108;3624;2131;NotDone
On;On;On;Off;On;On;H320;H323;H323;Tls;Auto;Tls;Host;Host;Host;1054;905;1108;1587;3344;1726;4355;4147;2112;117;3624;2131;NotDone
On;BestEffort;BestEffort;On;Off;Off;Auto;H323;Auto;TCP;Auto;Tls;Host;Host;Host;1186;905;1108;3473;3344;1726;5979;5342;2190;108;3624;2131;NotDone
On;BestEffort;BestEffort;Off;Off;On;H320;H323;Sip;Tls;Auto;Tls;Host;Host;Host;1054;909;1247;5998;3595;1769;5979;5342;2112;108;4480;1753;NotDone
On;On;BestEffort;Off;On;Off;H320;H323;H320;TCP;Auto;Tls;Host;Host;Host;1054;998;1108;3534;2154;1721;5742;5342;2112;261;3624;2131;NotDone
Off;BestEffort;BestEffort;On;Off;Off;H323;H323;Auto;TCP;Auto;Tls;Host;Host;Host;1054;909;1108;5844;3344;1726;5742;5342;2112;261;3624;2131;NotDone
Off;BestEffort;BestEffort;Off;On;On;H320;H323;H323;Tls;Auto;Tls;Host;Host;Host;1054;909;1247;3328;4357;1726;5979;5342;2190;108;3624;2131;NotDone
On;BestEffort;BestEffort;Off;Off;On;Auto;H323;H323;Tls;Auto;Tls;Host;Host;Host;1054;909;995;5998;3503;1944;5961;5342;2112;117;4191;2131;NotDone
On;BestEffort;BestEffort;On;On;Off;Auto;H323;Auto;TCP;Auto;Tls;Host;Host;Host;1118;909;1247;1587;3344;1721;5979;5342;2190;108;3624;2131;NotDone
Off;BestEffort;BestEffort;On;Off;Off;Auto;H323;H323;TCP;Auto;Tls;Host;Host;Host;1054;909;1107;5998;4605;1726;5979;5342;2112;108;4480;2131;NotDone
Off;BestEffort;BestEffort;On;On;Off;Auto;H323;Sip;TCP;Auto;Tls;Host;Host;Host;1054;909;994;5998;4357;1726;5979;5342;2190;108;3624;2131;NotDone
On;BestEffort;BestEffort;On;Off;Off;H323;H323;H323;TCP;Auto;Tls;Host;Host;Host;1054;909;1247;5857;3344;1726;5979;5342;2190;108;4191;2131;NotDone
On;BestEffort;BestEffort;On;On;Off;Auto;H323;Sip;TCP;Auto;Tls;Host;Host;Host;1054;909;1247;3436;3916;1726;5742;5342;2190;108;5981;2168;NotDone
Off;BestEffort;BestEffort;Off;On;On;H320;H320;H323;Tls;Auto;Tls;Host;Host;Host;1054;909;720;1479;3344;1726;5979;5342;2190;108;3624;2131;NotDone
On;BestEffort;BestEffort;Off;On;On;Auto;H323;H323;TCP;Auto;Tls;Host;Host;Host;1054;909;1247;5998;3595;1726;5742;5342;3108;261;3624;2131;NotDone
Off;On;Off;Off;Off;Off;H320;H320;Auto;TCP;Auto;Tls;Host;Host;Host;1054;905;1108;1587;3344;1726;5979;5342;2190;108;4191;2131;NotDone
Off;On;Off;Off;On;On;H320;Sip;H323;Tls;Auto;Tls;Host;Host;Host;1054;905;1108;3534;2154;1721;5742;2953;2667;108;4480;2131;NotDone
On;BestEffort;BestEffort;Off;On;On;H320;H323;H323;Tls;Auto;Tls;Host;Host;Host;1054;905;1108;1587;3344;1726;4380;4147;2190;622;3624;2131;NotDone
On;BestEffort;BestEffort;On;On;Off;H323;H323;H323;TCP;Auto;Tls;Host;Host;Host;1054;909;1247;2740;3344;1726;5979;5342;2190;108;3624;2131;NotDone
Off;BestEffort;BestEffort;On;Off;Off;H323;H323;Auto;TCP;Auto;Tls;Host;Host;Host;1054;909;1247;5998;3595;1726;5742;5342;2112;117;3580;2131;NotDone
Off;BestEffort;Off;Off;Off;Off;H320;H320;H323;TCP;Auto;Tls;Host;Host;Host;1054;909;710;1587;3344;1726;5979;5342;2190;108;4480;2131;NotDone
Off;On;On;Off;On;Off;H320;H323;H323;Tls;Auto;Tls;Host;Host;Host;1054;921;753;1587;4357;1726;5979;5342;2112;108;4480;2131;NotDone
On;BestEffort;BestEffort;Off;On;Off;H323;H323;Sip;TCP;Auto;Tls;Host;Host;Host;1054;909;1108;5844;2236;1726;5979;5342;2190;108;3624;2131;NotDone
On;On;BestEffort;Off;On;Off;H320;H320;H323;Tls;Auto;Tls;Host;Host;Host;1147;905;1108;3232;3344;1726;5742;5342;2112;108;4480;2131;NotDone
On;BestEffort;BestEffort;On;Off;On;H323;H323;Auto;TCP;Auto;Tls;Host;Host;Host;1054;909;1247;5998;3595;1726;5742;5342;2112;117;3624;2131;NotDone
On;BestEffort;BestEffort;Off;Off;On;H323;H323;H323;Tls;Auto;Tls;Host;Host;Host;1108;905;1108;5998;3595;1726;5742;5342;2112;117;3624;1678;NotDone
On;On;Off;Off;Off;Off;H320;H323;H323;TCP;Auto;Tls;Host;Host;Host;1186;905;1107;3200;3344;1726;5979;5342;2112;261;3624;2131;NotDone
On;BestEffort;BestEffort;On;On;On;Auto;H323;Auto;TCP;Auto;Tls;Host;Host;Host;1054;909;1247;5857;3344;1726;5742;5342;2112;117;3624;2131;NotDone
On;BestEffort;BestEffort;Off;Off;Off;Auto;H323;H323;TCP;Auto;Tls;Host;Host;Host;1054;909;1247;3786;3344;1726;5979;5342;2112;108;3624;2131;NotDone
Off;On;Off;Off;On;On;H320;H323;Sip;Tls;Auto;Tls;Host;Host;Host;1054;905;1108;1587;3344;1726;5979;5342;2190;108;3624;2131;NotDone
Off;BestEffort;BestEffort;Off;Off;Off;H320;H323;Auto;Tls;Auto;Tls;Host;Host;Host;1054;909;1247;3328;4357;1726;5979;5342;2190;108;3624;2131;NotDone
On;BestEffort;BestEffort;Off;On;Off;Auto;H323;H320;TCP;Auto;Tls;Host;Host;Host;1054;905;1247;3328;4279;1726;5979;5342;2190;108;3624;2131;NotDone
Off;BestEffort;BestEffort;On;Off;Off;Auto;H323;H323;TCP;Auto;Tls;Host;Host;Host;1054;909;1247;5857;3344;1726;5742;5342;2112;108;3624;2131;NotDone
On;On;BestEffort;Off;On;On;H320;H320;H323;Tls;Auto;Tls;Host;Host;Host;1054;909;1108;3786;3344;1721;5742;4251;2190;261;3574;2131;NotDone
On;BestEffort;BestEffort;On;Off;On;H323;H323;H323;TCP;Auto;Tls;Host;Host;Host;1186;905;1237;3200;3344;1726;5979;5342;2190;108;4191;2340;NotDone
Off;BestEffort;BestEffort;On;Off;On;H323;H323;H320;TCP;Auto;Tls;Host;Host;Host;1054;909;1108;5844;3344;1726;5742;5342;2112;261;3624;2131;NotDone
Off;On;On;Off;On;Off;H320;H323;H320;TCP;Auto;Tls;Host;Host;Host;1054;909;1247;3786;3344;1726;5742;5342;2112;117;4017;2131;NotDone
On;BestEffort;BestEffort;On;Off;On;H323;H323;Auto;TCP;Auto;Tls;Host;Host;Host;1054;909;1108;1587;3344;1726;5742;5342;2112;117;2166;2131;NotDone
Off;BestEffort;BestEffort;On;On;Off;H323;H323;Sip;TCP;Auto;Tls;Host;Host;Host;1054;909;985;5998;3595;1748;5742;5342;2112;261;3574;2131;NotDone
On;On;On;Off;On;On;H320;H320;H323;Tls;Auto;Tls;Host;Host;Host;1054;905;1108;3534;2154;1721;5742;2953;2112;117;3624;2131;NotDone
Off;On;On;Off;Off;Off;H320;H323;Auto;Tls;Auto;Tls;Host;Host;Host;1054;905;1108;1587;3344;1726;5979;5342;2190;108;4191;2131;NotDone
Off;On;Off;Off;Off;Off;H320;H323;Sip;TCP;Auto;Tls;Host;Host;Host;1054;909;1013;3200;3344;1726;5979;4153;2512;108;4480;3764;NotDone
On;On;On;Off;On;On;H320;Sip;H323;Tls;Auto;Tls;Host;Host;Host;1054;909;720;1479;3344;1726;5979;2953;2112;261;3574;2131;NotDone
Off;On;BestEffort;Off;Off;Off;H320;H320;Sip;Tls;Auto;Tls;Host;Host;Host;1071;905;1108;1587;3344;1726;5979;5342;2112;261;3624;2131;NotDone
On;BestEffort;BestEffort;On;Off;Off;H323;H323;H320;TCP;Auto;Tls;Host;Host;Host;1054;909;1108;5844;3344;1726;5718;5342;2112;261;3624;2131;NotDone
Off;BestEffort;BestEffort;Off;Off;Off;H320;H320;H320;Tls;Auto;Tls;Host;Host;Host;1186;921;1108;3786;3344;1726;5979;5342;2112;261;3624;2131;NotDone
On;BestEffort;BestEffort;On;Off;Off;Auto;H323;H323;TCP;Auto;Tls;Host;Host;Host;1054;909;1247;5998;4357;1726;5979;5342;2166;108;3624;2131;NotDone
Off;BestEffort;BestEffort;On;Off;Off;H320;H320;H323;TCP;Auto;Tls;Host;Host;Host;1054;905;1108;1587;3344;1726;5979;5342;2190;108;4191;2131;NotDone
Off;BestEffort;BestEffort;On;Off;Off;Sip;H320;H323;TCP;Auto;Tls;Host;Host;Host;1054;905;1108;5998;3595;1714;5742;5342;2112;117;3624;1678;NotDone
Off;On;Off;On;Off;Off;H320;H320;Sip;Tls;Auto;Tls;Host;Host;Host;1054;921;1247;5998;4357;1726;5742;5342;2112;117;4480;2131;NotDone
On;BestEffort;BestEffort;Off;Off;Off;H320;H320;Sip;TCP;Auto;Tls;Host;Host;Host;1054;909;1247;5857;3344;1726;5979;5342;2190;108;4191;2131;NotDone
On;BestEffort;BestEffort;On;Off;Off;H323;H323;H320;TCP;Auto;Tls;Host;Host;Host;1054;909;1247;3786;3344;1726;5742;5342;2112;117;1062;2131;NotDone
On;On;BestEffort;Off;Off;On;H320;H323;H323;TCP;Auto;Tls;Host;Host;Host;1186;909;1247;3880;3595;1726;5742;5342;2112;117;4480;2131;NotDone
On;BestEffort;On;Off;Off;Off;H320;H320;H320;TCP;Auto;Tls;Host;Host;Host;1054;905;1108;3328;4357;1726;5979;5342;2190;108;3624;2131;NotDone
On;BestEffort;BestEffort;Off;On;Off;Auto;H323;Auto;TCP;Auto;Tls;Host;Host;Host;1054;909;1247;5998;4357;1726;5979;5342;2190;108;3624;2131;NotDone
On;BestEffort;BestEffort;Off;Off;On;H320;H323;Sip;Tls;Auto;Tls;Host;Host;Host;1054;909;1247;3786;3344;1726;5742;5342;2112;117;4017;2131;NotDone
On;BestEffort;BestEffort;Off;On;Off;Sip;H323;H323;Tls;Auto;Tls;Host;Host;Host;1199;905;1108;5998;3595;1714;5742;5342;2112;117;3624;1678;NotDone
On;BestEffort;Off;Off;Off;Off;H320;H323;H323;TCP;Auto;Tls;Host;Host;Host;1118;905;1247;3786;3344;1726;5742;5342;2112;117;3553;2131;NotDone
On;BestEffort;BestEffort;Off;On;On;H320;Sip;H323;Tls;Auto;Tls;Host;Host;Host;1054;909;1108;3786;3344;1721;4060;4251;2190;261;3574;2131;NotDone
On;On;Off;Off;Off;Off;H320;H323;H323;TCP;Auto;Tls;Host;Host;Host;1054;905;1108;1587;4357;1726;5979;5342;2190;108;3624;2131;NotDone
On;BestEffort;BestEffort;On;Off;On;H320;H323;Sip;TCP;Auto;Tls;Host;Host;Host;1054;909;1108;5844;3344;1726;5979;5342;2190;108;3624;2131;NotDone
Off;On;On;Off;Off;Off;H320;H320;H323;Tls;Auto;Tls;Host;Host;Host;1186;921;1081;1587;3344;1726;5979;5342;2190;108;3624;2131;NotDone
On;BestEffort;BestEffort;Off;On;On;Sip;H323;H323;TCP;Auto;Tls;Host;Host;Host;1054;909;1247;5998;4357;1726;5979;5342;2190;108;3937;2131;NotDone
Off;BestEffort;BestEffort;On;Off;Off;Sip;H323;Sip;TCP;Auto;Tls;Host;Host;Host;1147;905;1108;5844;4357;1726;5742;5342;2112;108;4480;2131;NotDone
On;On;BestEffort;Off;On;On;H320;H320;Sip;Tls;Auto;Tls;Host;Host;Host;1054;909;720;1479;3344;1748;5979;5342;2190;108;4191;2340;NotDone
On;BestEffort;BestEffort;Off;On;On;H323;H323;Auto;TCP;Auto;Tls;Host;Host;Host;1054;909;1247;3792;4605;1726;4118;5342;2190;108;3624;2131;NotDone
Off;BestEffort;On;Off;Off;Off;H320;H323;Auto;Tls;Auto;Tls;Host;Host;Host;1054;909;1247;3328;3344;1726;5979;5342;2190;108;4191;2131;NotDone
Off;On;Off;Off;Off;Off;H320;H323;Auto;Tls;Auto;Tls;Host;Host;Host;1054;909;1247;3328;4357;1726;5979;5342;2190;108;3624;2131;NotDone
Off;On;On;Off;On;Off;H320;H323;H320;TCP;Auto;Tls;Host;Host;Host;1186;921;1081;2332;3344;1726;5742;5342;2112;261;3624;2131;NotDone
Off;On;On;Off;On;On;H320;Sip;H323;Tls;Auto;Tls;Host;Host;Host;1054;909;1108;3786;3344;1721;5742;4251;2190;261;3574;2131;NotDone
Off;On;Off;Off;Off;Off;H320;H323;Auto;Tls;Auto;Tls;Host;Host;Host;1054;905;1108;439;3097;1721;5979;4252;2190;117;3609;2131;NotDone
Off;On;On;Off;On;On;H320;H323;Sip;Tls;Auto;Tls;Host;Host;Host;1054;905;1108;1587;3344;1726;4137;4236;2190;261;3624;2131;NotDone
On;BestEffort;BestEffort;On;On;On;H323;H323;Auto;TCP;Auto;Tls;Host;Host;Host;1186;905;710;1587;3344;1726;3975;5342;2112;138;2272;1574;NotDone
Off;On;BestEffort;Off;Off;On;H320;H323;H323;TCP;Auto;Tls;Host;Host;Host;1076;909;1247;3880;3595;1726;5742;5342;2112;117;4480;2131;NotDone
Off;BestEffort;BestEffort;On;Off;Off;H320;H320;H323;TCP;Auto;Tls;Host;Host;Host;1186;921;720;5844;3344;1726;5979;5342;2112;117;3624;1678;NotDone
On;BestEffort;BestEffort;On;Off;Off;Auto;H323;H323;TCP;Auto;Tls;Host;Host;Host;1054;909;690;5998;4357;1726;5979;5342;2112;108;3624;2131;NotDone
Off;On;Off;Off;Off;Off;H320;H323;Auto;Tls;Auto;Tls;Host;Host;Host;1054;909;1247;5998;3595;1726;5742;5342;2112;108;3624;2131;NotDone
Off;On;On;Off;On;On;H320;H323;Sip;Tls;Auto;Tls;Host;Host;Host;1054;905;1108;551;3344;1721;5742;3480;2112;108;3624;2131;NotDone
On;BestEffort;BestEffort;Off;Off;Off;H320;H320;H323;Tls;Auto;Tls;Host;Host;Host;1186;909;1247;5998;3595;1726;5742;5342;2112;117;4480;2131;NotDone
On;On;BestEffort;Off;On;On;Sip;H323;H323;Tls;Auto;Tls;Host;Host;Host;1054;905;1108;3786;3344;1726;5979;5342;2190;108;4191;2131;NotDone
On;BestEffort;BestEffort;On;On;On;Sip;H323;H323;Tls;Auto;Tls;Host;Host;Host;1199;905;1108;3232;2278;1726;5742;5342;2190;261;3624;2131;NotDone
On;BestEffort;BestEffort;Off;On;On;H320;H323;Sip;Tls;Auto;Tls;Host;Host;Host;1054;909;1247;5857;3344;1726;5742;5342;2190;108;3937;2024;NotDone
On;BestEffort;BestEffort;Off;Off;On;H320;H320;Sip;Tls;Auto;Tls;Host;Host;Host;1054;909;1247;1587;3344;1726;5979;5342;2112;261;3624;2131;NotDone
Off;BestEffort;BestEffort;On;Off;Off;Sip;H323;Sip;TCP;Auto;Tls;Host;Host;Host;1054;909;1247;5857;3344;1726;5742;5342;2112;138;2272;1574;NotDone
Off;BestEffort;BestEffort;Off;Off;Off;Auto;H323;H323;TCP;Auto;Tls;Host;Host;Host;1118;909;1247;5857;3344;1726;5742;5342;2112;117;3624;2131;NotDone
On;BestEffort;BestEffort;Off;Off;Off;Auto;H323;Sip;TCP;Auto;Tls;Host;Host;Host;1054;905;1108;5998;3474;1726;5742;5342;3108;261;3624;2131;NotDone
On;BestEffort;BestEffort;Off;Off;Off;H323;H323;H323;TCP;Auto;Tls;Host;Host;Host;1054;909;1247;5998;3344;1726;5979;5342;2190;108;3624;2131;NotDone
On;On;BestEffort;Off;On;On;H320;H320;Auto;Tls;Auto;Tls;Host;Host;Host;1186;905;1108;2655;3344;1726;4213;5342;2112;261;3624;2131;NotDone
On;BestEffort;BestEffort;Off;On;On;H323;H323;H323;Tls;Auto;Tls;Host;Host;Host;1054;909;720;1479;3344;1726;5979;5342;2190;108;3624;2131;NotDone
On;BestEffort;BestEffort;Off;On;On;Auto;H323;H323;TCP;Auto;Tls;Host;Host;Host;1054;909;1247;5998;3595;1726;5742;5342;3108;261;3624;2131;NotDone
Off;On;On;Off;On;On;H320;H320;H323;Tls;Auto;Tls;Host;Host;Host;1054;909;720;1479;3344;1726;5979;2953;2190;108;3624;2131;NotDone
On;BestEffort;BestEffort;Off;On;On;H320;H323;Auto;Tls;Auto;Tls;Host;Host;Host;1054;909;1108;5844;3344;1726;5979;5342;2190;108;3624;2131;NotDone
Off;BestEffort;On;Off;On;Off;H320;H323;H323;Tls;Auto;Tls;Host;Host;Host;1054;909;671;5998;2236;1726;5979;5342;2190;108;3624;2131;NotDone
On;On;BestEffort;Off;On;On;H320;H320;H323;Tls;Auto;Tls;Host;Host;Host;1054;905;1108;1587;3344;1726;3975;4236;2190;261;3624;2131;NotDone
On;BestEffort;BestEffort;On;Off;Off;H323;H320;H323;TCP;Auto;Tls;Host;Host;Host;1054;909;1247;1587;3344;1819;5979;5342;2190;108;3624;2131;NotDone
On;On;Off;Off;Off;Off;H320;H323;Auto;Tls;Auto;Tls;Host;Host;Host;1054;909;1108;2633;3344;1721;5742;4147;2112;117;3624;2131;NotDone
Off;On;Off;Off;On;On;H320;Sip;H323;Tls;Auto;Tls;Host;Host;Host;1054;905;1108;1587;3344;1726;4380;4147;2190;108;3624;2131;NotDone
Off;BestEffort;On;Off;On;On;H320;H320;H323;Tls;Auto;Tls;Host;Host;Host;1054;905;1108;3436;3916;1726;5742;5342;2190;108;3624;2168;NotDone
On;BestEffort;BestEffort;Off;On;On;Sip;H323;H323;Tls;Auto;Tls;Host;Host;Host;1054;909;1247;5998;4357;1726;5742;5342;2112;108;4480;2131;NotDone
Off;BestEffort;BestEffort;Off;Off;Off;H320;H320;H323;Tls;Auto;Tls;Host;Host;Host;1054;909;1247;5998;3344;1748;5979;5342;2190;108;4191;2340;NotDone
Off;BestEffort;BestEffort;Off;Off;Off;H320;H320;H320;Tls;Auto;Tls;Host;Host;Host;1186;905;1108;5844;4357;1726;5979;5342;2190;108;4191;2131;NotDone
On;On;Off;Off;Off;Off;H320;H323;H323;Tls;Auto;Tls;Host;Host;Host;1054;909;1108;2633;3344;1726;5742;5342;2112;117;3624;2131;NotDone
Off;BestEffort;On;On;Off;On;H320;H323;Auto;TCP;Auto;Tls;Host;Host;Host;1054;909;1108;1587;4357;1726;5979;5342;2190;108;3624;2131;NotDone
Off;BestEffort;On;Off;Off;On;H320;H323;Auto;Tls;Auto;Tls;Host;Host;Host;1054;905;1108;439;3344;1726;5742;3909;3108;108;3624;2131;NotDone
On;BestEffort;On;Off;Off;On;H320;H323;Auto;Tls;Auto;Tls;Host;Host;Host;1054;905;1108;439;3344;1726;5742;5342;2112;108;4480;2131;NotDone
On;On;BestEffort;Off;On;On;H320;H323;Auto;Tls;Auto;Tls;Host;Host;Host;1054;905;1108;439;3650;1726;5742;3909;3108;108;3624;2131;NotDone
On;On;On;Off;On;On;H320;H320;Auto;Tls;Auto;Tls;Host;Host;Host;1186;905;1108;2655;3344;1726;4213;2953;2112;108;4480;2131;NotDone
On;BestEffort;BestEffort;Off;Off;Off;H320;H320;H323;TCP;Auto;Tls;Host;Host;Host;1054;909;1108;5844;3344;1726;5742;5342;2112;261;3624;2131;NotDone
On;BestEffort;BestEffort;Off;On;Off;Sip;H323;H323;TCP;Auto;Tls;Host;Host;Host;1054;909;1108;5844;3344;1726;5979;5342;2190;108;3624;2131;NotDone
Off;On;On;Off;Off;On;H320;H320;H323;Tls;Auto;Tls;Host;Host;Host;1186;921;1081;439;3344;1726;5979;4252;2190;108;3624;2131;NotDone
Off;BestEffort;Off;Off;Off;Off;H320;H323;H320;TCP;Auto;Tls;Host;Host;Host;1054;909;1247;2885;4357;1748;5742;5342;2112;261;3574;2131;NotDone
Off;On;Off;Off;On;On;H320;Sip;H323;Tls;Auto;Tls;Host;Host;Host;1054;909;1108;3786;3344;1721;5742;4251;2190;261;3574;2131;NotDone
On;On;On;Off;Off;Off;H320;H323;H323;TCP;Auto;Tls;Host;Host;Host;1054;905;1108;1587;3344;1819;5979;5342;2190;108;3624;2131;NotDone
On;BestEffort;BestEffort;Off;Off;On;Auto;H323;H323;TCP;Auto;Tls;Host;Host;Host;1054;909;1247;5857;3344;1726;5742;5342;2190;108;3937;2024;NotDone
On;BestEffort;BestEffort;On;On;On;Sip;H323;Auto;TCP;Auto;Tls;Host;Host;Host;1054;909;720;5998;3344;1726;5742;5342;2112;117;3624;3307;NotDone
Off;BestEffort;BestEffort;On;On;Off;Auto;H323;Sip;TCP;Auto;Tls;Host;Host;Host;1054;909;994;5998;4357;1726;5742;5342;2190;261;3624;2131;NotDone
On;BestEffort;BestEffort;Off;On;Off;H323;H323;Sip;TCP;Auto;Tls;Host;Host;Host;1054;909;1247;5998;2176;1726;5979;5342;2190;108;3937;2024;NotDone
On;BestEffort;BestEffort;On;On;On;H323;H323;Auto;TCP;Auto;Tls;Host;Host;Host;1054;909;1108;5844;3344;1726;5742;5342;2112;261;3624;2131;NotDone
On;BestEffort;BestEffort;Off;On;Off;H323;H323;Sip;TCP;Auto;Tls;Host;Host;Host;1054;909;1108;5844;3595;1726;5742;5342;2112;117;3624;1678;NotDone
On;BestEffort;BestEffort;Off;Off;On;H320;H323;Auto;TCP;Auto;Tls;Host;Host;Host;1071;921;1247;5857;3344;1726;5979;5342;2190;108;4191;2340;NotDone
On;BestEffort;BestEffort;Off;Off;On;Sip;H323;H323;Tls;Auto;Tls;Host;Host;Host;1054;909;671;5998;2236;1726;5979;5342;2190;108;3624;2131;NotDone
On;On;BestEffort;Off;Off;Off;H320;H320;H320;TCP;Auto;Tls;Host;Host;Host;1054;905;1108;2436;3344;1726;5979;5342;2190;108;3624;2131;NotDone
Off;BestEffort;BestEffort;Off;On;Off;H320;H320;H323;Tls;Auto;Tls;Host;Host;Host;1054;909;1108;3786;3344;1721;5742;4251;2190;108;3624;2131;NotDone
Off;BestEffort;On;Off;On;On;H320;H323;Auto;Tls;Auto;Tls;Host;Host;Host;1054;905;1108;439;3344;1726;5742;3909;3108;108;3624;2131;NotDone
On;On;On;Off;On;On;H320;Sip;Sip;Tls;Auto;Tls;Host;Host;Host;1054;909;1108;3786;3344;1721;5742;4251;2190;261;3574;2131;NotDone
On;BestEffort;BestEffort;On;On;On;H323;H323;Auto;TCP;Auto;Tls;Host;Host;Host;1186;905;671;5998;3344;1726;5979;5342;2112;261;3624;2131;NotDone
On;BestEffort;BestEffort;Off;On;On;H323;H323;Auto;TCP;Auto;Tls;Host;Host;Host;1054;909;1247;5998;4605;1726;4118;5342;2190;108;3624;2131;NotDone
On;On;BestEffort;Off;On;Off;H320;H323;H320;TCP;Auto;Tls;Host;Host;Host;1054;998;1108;3534;2154;1721;5742;5342;2112;261;3624;2131;NotDone
On;BestEffort;BestEffort;Off;Off;On;Sip;H323;H323;Tls;Auto;Tls;Host;Host;Host;1054;905;1108;3786;3344;1726;5979;5342;2190;108;3937;2131;NotDone
Off;On;On;Off;Off;Off;H320;H320;H323;TCP;Auto;Tls;Host;Host;Host;1054;909;1247;1587;3344;1726;5979;5342;2112;261;3624;2131;NotDone
On;BestEffort;BestEffort;Off;On;Off;H320;H323;H320;TCP;Auto;Tls;Host;Host;Host;1054;998;1108;3534;2154;1721;5742;5342;2112;261;3624;2131;NotDone
On;BestEffort;BestEffort;Off;On;On;H320;H320;H323;Tls;Auto;Tls;Host;Host;Host;1054;905;1108;2056;3344;1726;5979;3348;2112;108;4480;2131;NotDone
On;BestEffort;BestEffort;Off;Off;Off;H323;H320;H323;TCP;Auto;Tls;Host;Host;Host;1118;909;1247;5998;4605;1726;5742;5342;2112;117;3624;2131;NotDone
On;BestEffort;BestEffort;On;On;Off;Auto;H323;Auto;TCP;Auto;Tls;Host;Host;Host;1054;909;1108;5844;3344;1726;5979;5342;2190;108;3624;2131;NotDone
Off;BestEffort;On;Off;Off;Off;H320;H320;H323;TCP;Auto;Tls;Host;Host;Host;1054;909;1247;1587;3344;1726;5979;5342;2112;261;3624;2131;NotDone
On;BestEffort;On;Off;Off;On;H320;H320;H323;Tls;Auto;Tls;Host;Host;Host;1054;909;1108;2633;3344;1726;5742;5342;2112;117;3624;2131;NotDone
On;On;On;Off;Off;On;H320;H323;H323;Tls;Auto;Tls;Host;Host;Host;1054;909;1247;2740;3344;1726;5979;5342;2190;108;3624;2131;NotDone
On;BestEffort;BestEffort;On;Off;Off;H323;H323;H320;TCP;Auto;Tls;Host;Host;Host;1054;905;1108;3232;2278;1726;5742;5342;2112;117;4480;2131;NotDone
On;BestEffort;On;Off;Off;On;H320;H323;H323;Tls;Auto;Tls;Host;Host;Host;1054;909;1247;3328;4357;1726;5979;5342;2190;108;3624;2131;NotDone
Off;BestEffort;BestEffort;Off;Off;Off;H320;H323;Auto;TCP;Auto;Tls;Host;Host;Host;1054;938;1128;3299;3595;1769;5979;5342;2112;108;4480;2340;NotDone
Off;BestEffort;Off;Off;On;On;H320;H320;H323;Tls;Auto;Tls;Host;Host;Host;1054;909;1108;3786;3344;1721;5742;4251;2112;108;4480;2131;NotDone
On;BestEffort;BestEffort;Off;On;On;H320;Sip;H323;Tls;Auto;Tls;Host;Host;Host;1054;909;720;1479;3344;1726;5979;2953;2112;117;3624;2131;NotDone
On;On;Off;Off;Off;On;H320;H323;Auto;Tls;Auto;Tls;Host;Host;Host;1054;905;1108;1587;4357;1721;5742;4251;2190;261;3574;2131;NotDone
On;BestEffort;BestEffort;On;On;On;Sip;H323;Auto;TCP;Auto;Tls;Host;Host;Host;1054;909;1247;5998;4605;1726;4118;5342;2190;108;3624;2131;NotDone
Off;BestEffort;BestEffort;Off;Off;On;H320;H323;Sip;Tls;Auto;Tls;Host;Host;Host;1054;905;1108;1587;3344;1726;5742;2953;2112;117;4480;2131;NotDone
On;BestEffort;Off;Off;Off;Off;H320;H323;H323;TCP;Auto;Tls;Host;Host;Host;1118;905;1108;5998;3595;1726;5742;5342;2112;117;3624;2131;NotDone
Off;On;Off;Off;Off;Off;H320;H323;Auto;Tls;Auto;Tls;Host;Host;Host;1054;909;1247;5998;3595;1726;5742;5342;2112;108;3624;2131;NotDone
Off;BestEffort;Off;Off;Off;Off;H320;H320;H323;TCP;Auto;Tls;Host;Host;Host;1186;909;1247;3880;3595;1726;5742;5342;2112;117;1248;2131;NotDone
Off;BestEffort;On;On;On;Off;H320;H323;Sip;TCP;Auto;Tls;Host;Host;Host;1054;909;1247;5998;3344;1748;5979;5342;2190;108;4191;2340;NotDone
Off;On;Off;Off;Off;Off;H320;H320;Auto;Tls;Auto;Tls;Host;Host;Host;1186;921;1081;1587;3344;1726;5979;5342;2190;108;3624;2131;NotDone
Off;On;On;On;On;Off;H320;H323;H320;TCP;Auto;Tls;Host;Host;Host;1054;909;1247;3786;3344;1726;5742;5342;2112;117;4017;2131;NotDone
Off;On;Off;Off;Off;Off;H320;H320;H323;Tls;Auto;Tls;Host;Host;Host;1054;938;1128;3299;3595;1769;5979;5342;2112;108;4480;1839;NotDone
On;BestEffort;BestEffort;Off;Off;Off;Auto;H320;H323;TCP;Auto;Tls;Host;Host;Host;1054;909;1247;5998;4357;1726;5979;5342;2190;108;3937;2024;NotDone
Off;On;On;Off;On;On;H320;H323;Sip;Tls;Auto;Tls;Host;Host;Host;1054;905;1108;1587;3344;1726;5979;5342;2190;108;3624;2131;NotDone
Off;BestEffort;Off;On;Off;Off;H320;H320;H323;TCP;Auto;Tls;Host;Host;Host;1054;909;1247;5998;3595;1726;5742;5342;3108;261;3624;2131;NotDone
On;BestEffort;BestEffort;Off;Off;On;H320;H323;Auto;TCP;Auto;Tls;Host;Host;Host;1118;905;1055;5998;3595;1726;5742;5342;2112;117;3609;2131;NotDone
Off;On;Off;Off;Off;Off;H320;H323;H320;TCP;Auto;Tls;Host;Host;Host;1186;921;1081;2332;3344;1726;5742;5342;2112;261;3624;2131;NotDone
On;On;BestEffort;Off;Off;On;H320;H320;H323;Tls;Auto;Tls;Host;Host;Host;1054;905;1108;1587;4357;1726;5979;5342;2190;108;3624;2131;NotDone
On;BestEffort;BestEffort;Off;Off;Off;Auto;H323;H323;TCP;Auto;Tls;Host;Host;Host;1054;909;1247;5998;3344;1748;5979;5342;2190;108;4191;2340;NotDone
Off;BestEffort;BestEffort;On;On;Off;H323;H323;H320;TCP;Auto;Tls;Host;Host;Host;1054;909;1247;5998;3595;1748;5979;5342;2112;108;3624;2131;NotDone
Off;BestEffort;Off;Off;Off;On;H320;H323;Auto;Tls;Auto;Tls;Host;Host;Host;1054;905;1108;439;3650;1726;5742;5342;2112;261;3624;2131;NotDone
On;BestEffort;BestEffort;Off;On;On;H320;H323;H323;Tls;Auto;Tls;Host;Host;Host;1054;905;1108;3786;2275;1726;5742;3654;3108;261;3624;1678;NotDone
On;BestEffort;On;Off;On;On;H320;H323;H323;Tls;Auto;Tls;Host;Host;Host;1054;909;1108;2655;3344;1726;4213;2953;2190;261;3624;3307;NotDone
On;BestEffort;BestEffort;Off;On;On;H323;H323;H323;Tls;Auto;Tls;Host;Host;Host;1147;905;1108;3232;3344;1726;5742;5342;2112;108;4480;2131;NotDone
On;On;On;Off;Off;On;H320;H323;Auto;Tls;Auto;Tls;Host;Host;Host;1054;905;1108;1587;3344;1726;5742;3266;2190;108;2388;2131;NotDone
Off;On;On;Off;Off;On;H320;H323;Auto;Tls;Auto;Tls;Host;Host;Host;1054;905;1247;4141;4357;1726;5979;5342;2190;108;3624;2131;NotDone
Off;BestEffort;On;Off;On;On;H320;H320;H323;Tls;Auto;Tls;Host;Host;Host;1054;905;1108;2056;3074;1726;5979;5342;2190;108;3624;2131;NotDone
On;BestEffort;BestEffort;Off;Off;On;H323;H323;H323;Tls;Auto;Tls;Host;Host;Host;1108;905;1108;5998;3595;1726;5742;5342;2112;117;3624;1678;NotDone
Off;BestEffort;Off;On;Off;Off;H320;H320;H323;TCP;Auto;Tls;Host;Host;Host;1054;909;1247;1587;3344;1726;5979;5342;2112;261;3624;2131;NotDone
On;BestEffort;BestEffort;Off;Off;Off;H320;H323;H323;Tls;Auto;Tls;Host;Host;Host;1054;909;1108;2633;3344;2110;5742;4147;2112;117;3624;2131;NotDone
On;BestEffort;BestEffort;On;Off;Off;H320;H323;Auto;TCP;Auto;Tls;Host;Host;Host;1054;938;1128;2217;3595;1819;5979;5342;2190;108;3624;2131;NotDone
On;BestEffort;BestEffort;On;Off;Off;Auto;H323;H323;TCP;Auto;Tls;Host;Host;Host;1054;905;1108;5998;3474;1726;5742;5342;3108;261;3624;2131;NotDone
Off;On;On;On;Off;Off;H320;H323;Sip;TCP;Auto;Tls;Host;Host;Host;1054;909;1247;2774;4357;1726;5979;5342;2190;108;3624;2131;NotDone
Off;BestEffort;BestEffort;On;On;Off;Auto;H323;H320;TCP;Auto;Tls;Host;Host;Host;1054;909;1247;5998;3595;1748;5979;5342;2112;108;3624;2131;NotDone
Off;On;On;Off;Off;Off;H320;H323;H323;TCP;Auto;Tls;Host;Host;Host;1054;905;1108;1587;4357;1726;5979;5342;2190;108;3624;2131;NotDone
On;BestEffort;BestEffort;Off;Off;Off;H323;H320;H323;TCP;Auto;Tls;Host;Host;Host;1147;905;1108;5844;3344;1726;5742;5342;2231;261;3624;2131;NotDone
Off;On;BestEffort;Off;On;Off;H320;H323;Auto;TCP;Auto;Tls;Host;Host;Host;1186;905;1108;1587;5010;1769;5979;5342;2112;108;3624;2131;NotDone
Off;On;BestEffort;Off;On;On;H320;H323;H323;Tls;Auto;Tls;Host;Host;Host;1054;905;1108;3786;3326;1721;5979;5342;2112;108;4191;2131;NotDone
Off;BestEffort;BestEffort;On;Off;Off;Sip;H323;Sip;TCP;Auto;Tls;Host;Host;Host;1147;905;1108;5844;4357;1726;5979;5342;2190;108;4191;2131;NotDone
Off;On;Off;Off;On;Off;H320;H323;H323;Tls;Auto;Tls;Host;Host;Host;1054;905;1108;3786;1910;1726;5742;4164;2112;117;3624;3307;NotDone
Off;On;Off;Off;On;Off;H320;H323;Auto;Tls;Auto;Tls;Host;Host;Host;1054;905;720;1479;3344;1726;5979;2953;2112;117;3624;2131;NotDone
Off;BestEffort;BestEffort;Off;Off;Off;H320;H320;H323;Tls;Auto;Tls;Host;Host;Host;1054;909;1247;1587;3344;1726;5742;5342;2112;108;3624;2131;NotDone
Off;On;On;On;Off;Off;H320;H323;H320;TCP;Auto;Tls;Host;Host;Host;1118;905;1107;3200;3344;1726;5979;5342;2112;261;3624;2131;NotDone
Off;BestEffort;BestEffort;On;Off;Off;H320;H323;Sip;TCP;Auto;Tls;Host;Host;Host;1054;938;1128;2217;3595;1819;5979;5342;2190;108;3624;2131;NotDone
Off;BestEffort;BestEffort;Off;On;Off;H320;H323;H323;TCP;Auto;Tls;Host;Host;Host;1054;905;1108;1587;3344;1819;5979;5342;2190;108;3624;2131;NotDone
On;BestEffort;On;Off;Off;On;H320;H323;H323;Tls;Auto;Tls;Host;Host;Host;1054;909;1108;3786;3344;1721;5742;4251;2190;261;3574;2131;NotDone
Off;BestEffort;On;Off;On;Off;H320;H320;H323;Tls;Auto;Tls;Host;Host;Host;1186;921;1108;3864;3344;1726;5979;5342;2190;108;3624;2131;NotDone
On;BestEffort;BestEffort;Off;On;On;Auto;H323;Sip;TCP;Auto;Tls;Host;Host;Host;1147;921;1196;5844;3344;1726;5979;5342;2190;108;4191;2131;NotDone
On;BestEffort;BestEffort;On;On;Off;H320;H323;Sip;TCP;Auto;Tls;Host;Host;Host;1054;909;1247;5998;3595;1726;5742;5342;2190;108;3624;2131;NotDone
Off;BestEffort;BestEffort;On;On;Off;H320;H323;Sip;TCP;Auto;Tls;Host;Host;Host;1054;909;1247;5998;4357;1726;5979;5342;2112;117;3624;3307;NotDone
On;BestEffort;BestEffort;On;On;Off;H323;H323;H323;TCP;Auto;Tls;Host;Host;Host;1054;909;1247;2740;3344;1726;5979;5342;2190;108;3624;2131;NotDone
On;BestEffort;On;Off;On;On;H320;H323;Sip;Tls;Auto;Tls;Host;Host;Host;1054;905;1108;1587;3434;1726;5979;5342;2190;108;3624;2131;NotDone
On;BestEffort;BestEffort;Off;On;On;Sip;H323;H323;Tls;Auto;Tls;Host;Host;Host;1199;905;1108;3232;2278;1726;5742;5342;2112;117;4480;2131;NotDone
On;BestEffort;BestEffort;On;On;Off;H323;H323;H323;TCP;Auto;Tls;Host;Host;Host;1054;905;1247;4141;4357;1726;5979;5342;2190;108;3624;2131;NotDone
Off;BestEffort;Off;Off;Off;On;H320;H323;H323;Tls;Auto;Tls;Host;Host;Host;1186;921;1081;1587;3344;1726;5979;5342;2190;108;3624;2131;NotDone
Off;BestEffort;BestEffort;On;Off;On;H323;H323;Auto;TCP;Auto;Tls;Host;Host;Host;1054;909;1247;5998;3595;1726;5742;5342;2112;117;3624;2131;NotDone
On;BestEffort;BestEffort;On;On;Off;H323;H323;H323;TCP;Auto;Tls;Host;Host;Host;1054;909;1247;5857;3344;1726;5979;5342;2190;108;4191;2131;NotDone
Off;BestEffort;On;Off;Off;On;H320;H323;Auto;Tls;Auto;Tls;Host;Host;Host;1054;909;1108;2633;3344;1726;5742;5342;2112;117;3624;2131;NotDone
On;On;Off;Off;On;Off;H320;H323;H323;Tls;Auto;Tls;Host;Host;Host;1054;905;1108;3786;2275;1726;5742;3654;3108;261;3624;1678;NotDone
On;BestEffort;On;Off;On;On;H320;H323;Sip;TCP;Auto;Tls;Host;Host;Host;1054;909;1013;1479;3595;1748;5979;5342;2190;108;4191;3307;NotDone
Off;BestEffort;On;Off;Off;On;H320;H323;Auto;Tls;Auto;Tls;Host;Host;Host;1054;905;720;1587;2154;1721;5742;5342;2190;108;3624;3307;NotDone
On;BestEffort;BestEffort;On;Off;Off;H320;H320;Auto;TCP;Auto;Tls;Host;Host;Host;1054;905;1108;1587;3344;1726;5979;5342;2190;108;4191;2131;NotDone
On;BestEffort;On;Off;On;On;H320;H323;H323;Tls;Auto;Tls;Host;Host;Host;1054;998;1108;3534;2154;1721;5742;5342;2112;261;3624;2131;NotDone
On;BestEffort;BestEffort;Off;On;Off;H323;H323;Sip;TCP;Auto;Tls;Host;Host;Host;1054;909;1247;1959;2176;1726;5979;5342;2190;108;3937;2024;NotDone
On;On;On;Off;On;On;H320;H323;H323;Tls;Auto;Tls;Host;Host;Host;1118;909;1247;1587;3344;1726;4213;4252;2190;261;3624;2131;NotDone
On;BestEffort;BestEffort;On;Off;Off;H320;H320;H323;TCP;Auto;Tls;Host;Host;Host;1054;909;1247;5998;4357;1726;5979;5342;2112;117;3624;3307;NotDone
Off;BestEffort;BestEffort;Off;Off;Off;H320;H323;Sip;Tls;Auto;Tls;Host;Host;Host;1186;921;720;1587;4357;1726;5979;5342;2190;108;3624;2131;NotDone
On;BestEffort;BestEffort;Off;On;Off;Auto;H323;Auto;TCP;Auto;Tls;Host;Host;Host;1107;905;1108;5844;3344;1726;5979;5342;2112;117;2272;2131;NotDone
On;BestEffort;BestEffort;Off;Off;Off;H320;H323;Sip;Tls;Auto;Tls;Host;Host;Host;1054;909;1108;5844;3344;1726;5742;5342;2231;261;3624;2131;NotDone
Off;BestEffort;BestEffort;On;Off;Off;Sip;H320;H323;TCP;Auto;Tls;Host;Host;Host;1054;938;1247;5998;3595;1769;5979;5342;2112;108;4191;2340;NotDone
On;BestEffort;BestEffort;Off;On;Off;Sip;H323;H323;TCP;Auto;Tls;Host;Host;Host;1054;909;1247;3786;3344;1726;5742;5342;2112;117;3553;2131;NotDone
On;BestEffort;BestEffort;Off;Off;On;H320;H320;Sip;Tls;Auto;Tls;Host;Host;Host;1054;909;720;1479;3344;1748;5979;5342;2190;108;4191;2131;NotDone
Off;On;On;Off;On;On;H320;H320;H323;Tls;Auto;Tls;Host;Host;Host;1054;909;1108;3786;3344;1726;5979;5342;2112;261;3624;2131;NotDone
On;BestEffort;BestEffort;Off;On;On;H320;H323;H323;Tls;Auto;Tls;Host;Host;Host;1054;905;1108;551;3344;1721;5979;2953;2190;117;3937;2131;NotDone
Off;BestEffort;BestEffort;On;On;Off;H320;H323;Sip;TCP;Auto;Tls;Host;Host;Host;1118;909;1247;1587;3344;1726;5979;5342;2190;108;4305;2131;NotDone
Off;On;Off;Off;Off;On;H320;H320;H323;TCP;Auto;Tls;Host;Host;Host;1054;909;1108;1587;3344;1726;5742;5342;2667;108;4480;2131;NotDone
On;On;BestEffort;Off;On;Off;H320;H323;Auto;Tls;Auto;Tls;Host;Host;Host;1054;909;1108;2633;3344;1721;5742;4147;2112;117;3624;2131;NotDone
Off;BestEffort;BestEffort;Off;Off;On;H323;H323;Auto;TCP;Auto;Tls;Host;Host;Host;1054;909;1247;5998;3595;1726;5742;5342;2112;117;3624;1678;NotDone
On;On;On;Off;Off;Off;H320;H320;H323;TCP;Auto;Tls;Host;Host;Host;1054;909;1108;1587;3344;1726;5742;5342;2667;108;4480;2131;NotDone
Off;BestEffort;On;On;On;Off;H320;H323;Sip;TCP;Auto;Tls;Host;Host;Host;1186;921;1247;5857;3344;1726;5742;5342;2112;108;3624;2131;NotDone
Off;BestEffort;On;Off;Off;On;H320;H320;H323;Tls;Auto;Tls;Host;Host;Host;1186;921;1081;439;3344;1726;5979;4252;2190;108;3624;2131;NotDone
Off;On;BestEffort;Off;Off;On;H320;H323;Auto;Tls;Auto;Tls;Host;Host;Host;1186;921;710;1587;3344;1726;5979;5342;2190;108;4480;2131;NotDone
On;BestEffort;BestEffort;Off;On;Off;Sip;H323;H323;TCP;Auto;Tls;Host;Host;Host;1054;909;1108;5844;3344;1726;5979;5342;2190;108;3624;2131;NotDone
On;BestEffort;BestEffort;Off;On;Off;H323;H323;Sip;TCP;Auto;Tls;Host;Host;Host;1118;905;1107;1587;3344;1726;5979;5342;2112;261;3624;2131;NotDone
On;BestEffort;BestEffort;Off;Off;Off;Sip;H323;Sip;TCP;Auto;Tls;Host;Host;Host;1147;905;1108;5844;4357;1726;5742;5342;2190;261;3624;3307;NotDone
Off;BestEffort;BestEffort;Off;Off;Off;H320;H323;H323;TCP;Auto;Tls;Rflx;Host;Host;1054;909;1055;5998;3595;1726;5742;5342;2190;108;3937;2024;NotDone
Off;BestEffort;Off;On;Off;Off;H320;H323;Sip;TCP;Auto;Tls;Host;Host;Host;1054;909;1247;1587;3344;1726;5979;5342;2190;108;3574;2131;NotDone
On;BestEffort;BestEffort;On;On;On;Sip;H323;H323;TCP;Auto;Tls;Host;Host;Host;1054;905;1108;1587;3344;1819;5979;5342;2190;108;3624;2131;NotDone
On;On;BestEffort;Off;Off;Off;H320;H323;H320;Tls;Auto;Tls;Host;Host;Host;1186;921;710;1587;3344;1726;5979;5342;2190;108;4480;2131;NotDone
On;BestEffort;BestEffort;On;Off;Off;H320;H323;H323;TCP;Auto;Tls;Host;Host;Host;1054;909;1247;5998;3595;1726;5979;5342;3071;108;3624;2131;NotDone
Off;BestEffort;Off;Off;Off;Off;H320;H320;H323;Tls;Auto;Tls;Host;Host;Host;1054;909;1108;5844;3344;1726;5979;5342;2112;117;3624;3307;NotDone
On;BestEffort;BestEffort;Off;Off;Off;Sip;H320;H320;TCP;Auto;Tls;Host;Host;Host;1054;909;1247;5998;3344;1726;5979;5342;2190;108;4191;2131;NotDone
On;BestEffort;BestEffort;Off;On;Off;Sip;H323;H320;TCP;Auto;Tls;Host;Host;Host;1054;909;1247;5998;4357;1726;5979;5342;2190;108;4191;2131;NotDone
Off;On;Off;Off;Off;Off;H320;H320;Sip;Tls;Auto;Tls;Host;Host;Host;1054;921;1081;1587;3344;1721;5742;4251;2190;261;3574;2131;NotDone
On;BestEffort;BestEffort;On;On;On;H323;H323;H320;TCP;Auto;Tls;Host;Host;Host;1054;905;1108;1587;3434;1726;5979;5342;2190;108;3624;2131;NotDone
Off;On;BestEffort;Off;On;On;H320;H323;Sip;Tls;Auto;Tls;Host;Host;Host;1054;905;1108;1587;3344;1721;5742;4251;2190;108;3624;2131;NotDone
Off;BestEffort;BestEffort;Off;Off;Off;H320;H323;Sip;Tls;Auto;Tls;Host;Host;Host;1186;905;1108;747;4535;1721;5979;4252;2190;261;3624;2131;NotDone
Off;On;On;Off;On;On;H320;Sip;H323;Tls;Auto;Tls;Host;Host;Host;1054;909;720;1479;3344;1726;5979;2953;2112;117;3624;2131;NotDone
Off;On;Off;Off;Off;Off;H320;H323;H323;TCP;Auto;Tls;Host;Host;Host;1147;905;1108;5844;4101;1726;5979;5342;2190;108;3624;2131;NotDone
On;On;BestEffort;Off;Off;On;H320;H323;Auto;Tls;Auto;Tls;Host;Host;Host;1054;905;1108;3786;3344;1726;5979;5342;2190;108;3937;2131;NotDone
Off;BestEffort;BestEffort;Off;Off;Off;H320;H320;H320;Tls;Auto;Tls;Host;Host;Host;1054;905;1108;3436;3916;1726;5742;5342;2190;108;3624;2131;NotDone
On;BestEffort;BestEffort;On;Off;On;Auto;H323;H323;TCP;Auto;Tls;Host;Host;Host;1054;909;1247;5857;3595;1726;5742;5342;2112;117;3624;1678;NotDone
Off;BestEffort;On;Off;Off;Off;H320;H320;H323;Tls;Auto;Tls;Host;Host;Host;1186;909;1247;5998;3595;1726;5742;5342;2112;261;3624;2131;NotDone
Off;BestEffort;BestEffort;Off;On;Off;H320;H323;Sip;TCP;Auto;Tls;Host;Host;Host;1054;909;1247;1587;3344;1726;5979;5342;2884;108;3624;2131;NotDone
On;On;Off;Off;On;On;H320;H323;H323;Tls;Auto;Tls;Host;Host;Host;1186;905;1108;747;4535;1721;5979;4252;2190;261;3624;2131;NotDone
On;BestEffort;On;Off;On;On;H320;H323;Sip;TCP;Auto;Tls;Host;Host;Host;1186;905;1108;1587;3344;1726;3975;5342;2112;138;2272;1574;NotDone
Off;BestEffort;BestEffort;Off;Off;Off;H320;H323;H323;Tls;Auto;Tls;Host;Host;Host;1054;909;1108;3786;3344;1721;5742;4251;2190;261;3574;2131;NotDone
On;BestEffort;BestEffort;Off;On;On;H320;Sip;H323;Tls;Auto;Tls;Host;Host;Host;1058;909;1108;3786;3344;1721;4060;4251;2190;117;4480;2131;NotDone
Off;BestEffort;BestEffort;Off;Off;Off;H320;H320;H323;TCP;Auto;Tls;Host;Host;Host;1054;905;1108;3786;3326;1721;5979;5342;2112;108;3624;2131;NotDone
On;BestEffort;BestEffort;On;Off;Off;H323;H320;H323;TCP;Auto;Tls;Host;Host;Host;1054;909;1247;3200;3344;1726;5979;5342;2112;261;3624;2131;NotDone
On;BestEffort;BestEffort;Off;Off;Off;Sip;H323;Sip;TCP;Auto;Tls;Host;Host;Host;1054;909;1247;5998;4357;1726;5979;5342;2190;108;3624;2131;NotDone
On;BestEffort;BestEffort;Off;Off;Off;H323;H320;H323;TCP;Auto;Tls;Host;Host;Host;1147;905;1108;5844;3344;1726;5742;5342;2231;261;3624;2131;NotDone
Off;On;On;Off;Off;Off;H320;H323;H323;Tls;Auto;Tls;Host;Host;Host;1054;905;720;1587;2154;1721;5742;2953;2112;117;3624;2131;NotDone
Off;On;BestEffort;Off;On;Off;H320;H323;Auto;TCP;Auto;Tls;Host;Host;Host;1186;905;1108;1587;5010;1769;5979;5342;2112;108;3624;2131;NotDone
On;BestEffort;BestEffort;Off;Off;On;Auto;H323;H323;Tls;Auto;Tls;Host;Host;Host;1054;909;1247;5998;4357;1726;5979;5342;2190;108;3624;2131;NotDone
Off;BestEffort;On;On;Off;Off;Sip;H320;H320;TCP;Auto;Tls;Host;Host;Host;1054;909;1247;5998;3344;1726;5979;5342;2190;108;3624;2131;NotDone
On;BestEffort;BestEffort;On;On;On;H320;H323;Sip;Tls;Auto;Tls;Host;Host;Host;1118;905;1108;2448;3344;1726;4213;5342;2112;108;4480;2131;NotDone
Off;BestEffort;On;Off;Off;Off;H320;H320;H323;Tls;Auto;Tls;Host;Host;Host;1054;938;1128;3851;3595;1769;5979;5342;2112;108;3624;2131;NotDone
On;On;On;Off;Off;Off;H320;H323;H323;Tls;Auto;Tls;Host;Host;Host;1054;905;1108;3786;3344;1726;5742;5342;2112;261;3624;2131;NotDone
On;BestEffort;BestEffort;On;Off;Off;Sip;H320;H323;TCP;Auto;Tls;Host;Host;Host;1054;938;1247;5998;3595;1769;5979;5342;2112;108;4191;2340;NotDone
Off;On;On;Off;Off;On;H320;H323;Auto;Tls;Auto;Tls;Host;Host;Host;1054;909;1055;5998;3595;1726;5742;5342;2190;108;3624;3307;NotDone
On;On;On;Off;On;On;H320;H323;Sip;Tls;Auto;Tls;Host;Host;Host;1054;905;1108;2056;3074;1726;5979;5342;2190;108;3624;2131;NotDone
On;On;On;Off;On;Off;H320;H323;H323;Tls;Auto;Tls;Host;Host;Host;1054;909;720;1479;3344;1726;5979;2953;2112;117;3624;1678;NotDone
On;BestEffort;BestEffort;On;On;Off;H320;H323;Sip;TCP;Auto;Tls;Host;Host;Host;1054;909;1247;2774;4357;1726;5979;5342;2190;108;3624;2131;NotDone
Off;BestEffort;BestEffort;Off;On;On;H320;H323;Sip;Tls;Auto;Tls;Host;Host;Host;1054;905;1108;1587;3344;1726;5742;3646;2190;108;3624;3307;NotDone
Off;BestEffort;BestEffort;On;On;Off;H320;H323;Auto;TCP;Auto;Tls;Host;Host;Host;1054;909;1247;5998;4357;1726;5979;5342;2190;108;3624;2131;NotDone
Off;BestEffort;On;On;Off;Off;H320;H323;Sip;TCP;Auto;Tls;Host;Host;Host;1054;938;1128;2217;3595;1819;5979;5342;2190;108;3624;2131;NotDone
Off;On;On;Off;On;On;H320;Sip;H323;Tls;Auto;Tls;Host;Host;Host;1054;905;1108;551;3344;1721;5979;2953;2190;117;3937;2131;NotDone
Off;BestEffort;Off;Off;Off;Off;H320;H320;H323;Tls;Auto;Tls;Host;Host;Host;1054;909;720;1479;3344;1726;5979;5342;2190;108;3624;2131;NotDone
On;BestEffort;BestEffort;On;On;On;H320;H323;Auto;TCP;Auto;Tls;Host;Host;Host;1071;921;1247;5857;3344;1726;5979;5342;2190;108;4191;2131;NotDone
Off;BestEffort;On;On;On;Off;H320;H323;Sip;TCP;Auto;Tls;Host;Host;Host;1054;909;1247;1587;3344;1819;5979;5342;2190;108;3624;2131;NotDone
On;On;BestEffort;Off;On;On;H320;H323;H323;Tls;Auto;Tls;Host;Host;Host;1054;905;1165;1587;3344;1726;3975;4147;2190;117;3624;2131;NotDone
Off;On;On;Off;Off;On;H320;H323;Sip;Tls;Auto;Tls;Host;Host;Host;1054;905;1108;551;3344;1721;5742;2953;2112;108;3624;2131;NotDone
On;BestEffort;On;Off;On;Off;H320;H323;H323;Tls;Auto;Tls;Host;Host;Host;1054;921;753;1587;4357;1726;5979;5342;2112;108;4480;664;NotDone
Off;On;Off;Off;Off;Off;H320;H323;Sip;TCP;Auto;Tls;Host;Host;Host;1054;909;1013;3200;3344;1726;5979;5342;2190;108;3624;2131;NotDone
Off;BestEffort;BestEffort;On;Off;Off;H323;H323;H320;TCP;Auto;Tls;Host;Host;Host;1054;909;1108;5844;3344;1726;5742;5342;2112;261;3624;2131;NotDone
On;BestEffort;BestEffort;On;On;On;H323;H323;Auto;TCP;Auto;Tls;Host;Host;Host;1186;905;710;1587;3344;1726;4213;5342;2112;261;3624;2131;NotDone
On;BestEffort;BestEffort;Off;On;On;H320;Sip;Sip;Tls;Auto;Tls;Host;Host;Host;1054;909;1108;3786;3344;1721;5742;4251;2190;261;3574;2131;NotDone
Off;On;Off;Off;Off;Off;H320;H320;Sip;Tls;Auto;Tls;Host;Host;Host;1054;909;1107;5998;4605;1726;5979;5342;2112;108;4480;2131;NotDone
Off;BestEffort;Off;Off;Off;Off;H320;H320;Auto;TCP;Auto;Tls;Host;Host;Host;1054;909;1247;5998;3595;1726;5742;5342;2112;117;3624;2131;NotDone
On;BestEffort;BestEffort;Off;On;On;H323;H323;H323;Tls;Auto;Tls;Host;Host;Host;1054;909;1247;5998;4605;1726;5742;5342;2112;117;4480;2131;NotDone
On;BestEffort;BestEffort;Off;Off;Off;Sip;H323;Sip;TCP;Auto;Tls;Host;Host;Host;1054;909;1247;5998;4357;1726;5979;5342;2190;108;3624;2131;NotDone
On;BestEffort;BestEffort;Off;Off;On;Sip;H323;H323;Tls;Auto;Tls;Host;Host;Host;1054;905;1247;5998;3595;1726;5742;5342;2660;117;4480;2131;NotDone
Off;On;On;Off;On;On;H320;H320;H323;Tls;Auto;Tls;Host;Host;Host;1054;905;1108;3436;3916;1726;5742;5342;2190;108;3624;2168;NotDone
Off;BestEffort;On;On;Off;Off;H320;H320;Sip;TCP;Auto;Tls;Host;Host;Host;1147;905;1247;5998;3595;1726;5742;5342;2660;117;4480;2131;NotDone
Off;BestEffort;Off;Off;Off;Off;H320;H323;Sip;Tls;Auto;Tls;Host;Host;Host;1054;909;1247;5998;4605;1726;5742;5342;2112;117;4480;2131;NotDone
On;BestEffort;BestEffort;Off;Off;On;H323;H323;H323;TCP;Auto;Tls;Host;Host;Host;1054;909;995;5998;4605;1726;5742;5342;2190;108;3937;2024;NotDone
Off;On;On;Off;On;On;H320;Sip;H323;Tls;Auto;Tls;Host;Host;Host;1054;909;1108;3786;3344;1721;5742;4251;2112;108;3624;2131;NotDone
Off;On;On;Off;On;On;H320;H320;H323;Tls;Auto;Tls;Host;Host;Host;1054;909;720;1479;3344;1726;5979;5342;2190;108;3624;2131;NotDone
On;BestEffort;On;Off;Off;On;H320;H320;H323;Tls;Auto;Tls;Host;Host;Host;1054;909;1108;2633;3344;1726;5742;5342;2112;117;3624;2131;NotDone
On;On;BestEffort;Off;On;On;Sip;H323;H323;Tls;Auto;Tls;Host;Host;Host;1054;905;1108;3786;3344;1726;5979;5342;2190;108;4191;2131;NotDone
On;BestEffort;BestEffort;Off;Off;Off;Auto;H323;Auto;TCP;Auto;Tls;Host;Host;Host;1054;909;1247;5857;3344;1726;5742;5342;2112;117;3624;2131;NotDone
On;On;Off;Off;On;Off;H320;H323;H323;Tls;Auto;Tls;Host;Host;Host;1054;905;1108;3786;3344;1726;5979;5342;2112;261;3624;2131;NotDone
Off;BestEffort;On;Off;Off;Off;H320;H320;H323;Tls;Auto;Tls;Host;Host;Host;1054;905;1108;5998;3474;1726;5979;5342;2190;108;5251;2131;NotDone
On;BestEffort;BestEffort;Off;On;Off;H320;H323;Sip;TCP;Auto;Tls;Host;Host;Host;1054;909;1247;5998;3344;1748;5979;5342;2190;108;4191;2340;NotDone
Off;On;Off;Off;Off;Off;H320;H320;H323;TCP;Auto;Tls;Host;Host;Host;1054;909;1247;3786;3344;1726;5979;5342;2112;108;3624;2131;NotDone
Off;BestEffort;Off;Off;Off;On;H320;H323;H323;TCP;Auto;Tls;Host;Host;Host;1071;921;720;1587;2154;1726;5979;5342;2190;108;3624;2131;NotDone
On;BestEffort;BestEffort;On;On;On;H320;H323;H323;TCP;Auto;Tls;Host;Host;Host;1147;905;1108;5844;3344;1726;5979;5342;2190;108;3624;2131;NotDone
On;On;On;Off;Off;Off;H320;H320;H320;Tls;Auto;Tls;Host;Host;Host;1186;921;1081;1587;3344;1769;5979;5342;2112;108;3624;2131;NotDone
Off;On;Off;Off;On;On;H320;Sip;H323;Tls;Auto;Tls;Host;Host;Host;1054;909;1108;3786;3344;1721;5742;4251;2190;261;3574;2131;NotDone
Off;BestEffort;On;Off;Off;On;H320;H323;H323;UDP;Auto;Tls;Host;Host;Host;1054;905;1108;3786;3344;1721;5979;5342;2190;108;3624;2131;NotDone
On;BestEffort;BestEffort;On;Off;Off;H320;H323;H323;TCP;Auto;Tls;Host;Host;Host;1054;909;1247;5998;3595;1726;5979;5342;3071;108;3624;2131;NotDone
On;BestEffort;Off;Off;Off;On;H320;H323;H323;Tls;Auto;Tls;Host;Host;Host;1054;905;1108;3786;3344;1726;5979;5342;2112;117;4480;2131;NotDone
On;On;BestEffort;Off;On;On;H320;H323;H323;Tls;Auto;Tls;Host;Host;Host;1054;905;1165;1587;3344;1726;3975;4147;2190;117;3624;2131;NotDone
Off;BestEffort;BestEffort;Off;Off;On;H320;H323;Sip;Tls;Auto;Tls;Host;Host;Host;1054;909;1247;5998;4357;1726;5742;5342;2190;108;3624;2168;NotDone
On;BestEffort;BestEffort;Off;Off;Off;H323;H323;Auto;Tls;Auto;Tls;Host;Host;Host;1054;905;1247;3328;4357;1726;5979;5342;2190;108;3619;2131;NotDone
Off;BestEffort;On;Off;Off;Off;H320;H323;Auto;TCP;Auto;Tls;Host;Host;Host;1054;909;1247;5857;3344;1726;5742;5342;2112;117;3624;2131;NotDone
On;BestEffort;BestEffort;On;On;On;Sip;H323;Auto;TCP;Auto;Tls;Host;Host;Host;1054;909;1247;5998;4605;1726;4118;5342;2190;108;3624;2131;NotDone
On;BestEffort;BestEffort;On;Off;Off;H323;H320;Sip;TCP;Auto;Tls;Host;Host;Host;1054;909;1247;5998;3595;1721;5979;5342;2112;108;3624;2131;NotDone
On;BestEffort;BestEffort;Off;Off;Off;H320;H320;Sip;TCP;Auto;Tls;Host;Host;Host;1054;909;1247;1587;3344;1726;5979;5342;2667;108;3624;2131;NotDone
Off;BestEffort;BestEffort;On;Off;Off;Sip;H323;Sip;TCP;Auto;Tls;Host;Host;Host;1054;909;1247;5857;3344;1726;5742;5342;2231;261;3624;2131;NotDone
Off;BestEffort;On;On;Off;Off;Sip;H320;H320;TCP;Auto;Tls;Host;Host;Host;1054;909;1247;5998;3344;1726;5979;5342;2190;108;3624;2131;NotDone
On;BestEffort;BestEffort;On;On;On;H320;H323;Sip;Tls;Auto;Tls;Host;Host;Host;1118;905;1108;2448;3344;1726;4213;5342;2112;261;3624;2131;NotDone
Off;On;On;Off;On;On;H320;H323;Sip;Tls;Auto;Tls;Host;Host;Host;1054;905;1108;551;3344;1726;5742;5342;2112;261;3624;2131;NotDone
Off;BestEffort;On;Off;Off;Off;H320;H320;H323;Tls;Auto;Tls;Host;Host;Host;1054;905;1108;5998;3474;1726;5979;5342;2190;108;5251;2131;NotDone
On;BestEffort;BestEffort;Off;On;Off;Auto;H323;Auto;TCP;Auto;Tls;Host;Host;Host;1054;909;1108;5844;3344;1726;5742;5342;2112;261;3624;2131;NotDone
On;BestEffort;BestEffort;Off;Off;On;H323;H323;H320;TCP;Auto;Tls;Host;Host;Host;1054;909;1108;5844;3344;1726;5979;5342;2112;108;3624;2131;NotDone
On;On;On;Off;Off;On;H320;H323;Sip;Tls;Auto;Tls;Host;Host;Host;1054;905;1108;1587;3344;1726;5751;3947;2468;117;3815;5337;NotDone
Off;BestEffort;BestEffort;On;Off;Off;H320;H323;H323;TCP;Auto;Tls;Host;Host;Host;1054;909;1055;5998;3595;1726;5742;5342;2190;108;3937;2024;NotDone
On;BestEffort;BestEffort;Off;On;On;H323;H323;H323;Tls;Auto;Tls;Host;Host;Host;1054;909;1247;5998;4605;1726;5742;5342;2112;117;4480;2131;NotDone
Off;On;On;Off;Off;Off;H320;H320;H323;Tls;Auto;Tls;Host;Host;Host;1186;921;1081;1587;3344;1726;5979;5342;2190;108;3624;2131;NotDone
On;BestEffort;BestEffort;On;On;On;H320;H323;Sip;TCP;Auto;Tls;Host;Host;Host;1186;905;1108;1587;3344;1726;3975;5342;2112;138;2272;1574;NotDone
On;On;BestEffort;Off;Off;On;H320;H323;Sip;Tls;Auto;Tls;Host;Host;Host;1054;905;1108;1587;3344;1726;5742;2953;2112;117;4480;2131;NotDone
On;BestEffort;BestEffort;Off;On;Off;Auto;H323;Auto;TCP;Auto;Tls;Host;Host;Host;1054;909;1247;1587;3344;1726;5742;5342;2364;108;4480;2131;NotDone
Off;On;Off;Off;Off;Off;H320;H320;Auto;Tls;Auto;Tls;Host;Host;Host;1054;905;1108;439;3344;1726;5742;5342;2112;108;4480;2131;NotDone
Off;On;On;Off;On;On;H320;H323;H323;Tls;Auto;Tls;Host;Host;Host;1118;909;1247;1587;3344;1726;5979;5342;2112;117;3624;2131;NotDone
On;BestEffort;Off;Off;Off;Off;H320;H323;H323;Tls;Auto;Tls;Host;Host;Host;1054;909;720;1479;3344;1726;5979;5342;2190;108;3624;2131;NotDone
Off;On;On;Off;On;On;H320;H323;H323;Tls;Auto;Tls;Host;Host;Host;1186;905;1108;747;4535;1721;5979;4252;2190;261;3624;2131;NotDone
On;On;BestEffort;Off;On;Off;H320;H323;Auto;TCP;Auto;Tls;Host;Host;Host;1186;905;1111;1587;5010;1726;5979;5342;2884;108;3624;2131;NotDone
On;BestEffort;BestEffort;Off;Off;Off;Auto;H323;H323;TCP;Auto;Tls;Host;Host;Host;1108;905;1108;5998;3595;1726;5742;5342;2112;117;3624;1678;NotDone
Off;BestEffort;BestEffort;Off;Off;Off;Sip;H320;H320;TCP;Auto;Tls;Host;Host;Host;1054;909;1247;5998;4357;1726;5979;5342;2253;108;3624;2131;NotDone
On;BestEffort;BestEffort;Off;Off;Off;Auto;H320;H323;TCP;Auto;Tls;Host;Host;Host;1147;905;1108;5844;3344;1726;5979;5342;2112;117;3624;3307;NotDone
On;BestEffort;BestEffort;Off;On;Off;H320;H323;Auto;Tls;Auto;Tls;Host;Host;Host;1054;909;1247;3328;3344;1726;5979;5342;2190;108;4191;2131;NotDone
On;BestEffort;BestEffort;On;Off;Off;Sip;H323;Sip;TCP;Auto;Tls;Host;Host;Host;747;905;1108;5844;4357;1726;5742;5342;2112;108;4480;2131;NotDone
On;BestEffort;BestEffort;Off;Off;On;H320;H323;H323;Tls;Auto;Tls;Host;Host;Host;1054;909;720;1479;3344;1726;5979;2953;2112;117;3624;1678;NotDone
On;On;On;Off;On;On;H320;H323;H323;Tls;Auto;Tls;Host;Host;Host;1118;909;1247;1587;3344;1726;4213;5342;2190;108;3624;2131;NotDone
Off;BestEffort;BestEffort;Off;On;On;H320;H323;Sip;Tls;Auto;Tls;Host;Host;Host;1054;909;1247;1587;3344;1726;5979;5342;2112;261;3624;2131;NotDone
On;BestEffort;BestEffort;Off;Off;Off;Sip;H323;Sip;TCP;Auto;Tls;Host;Host;Host;1071;909;1247;1587;3344;1726;5979;5342;2112;261;3624;2131;NotDone
On;BestEffort;BestEffort;On;Off;Off;Auto;H323;H323;TCP;Auto;Tls;Host;Host;Host;1054;909;1247;5857;3344;1726;5742;5342;2112;108;3624;2131;NotDone
On;BestEffort;BestEffort;Off;Off;Off;H320;H320;Sip;TCP;Auto;Tls;Host;Host;Host;1054;909;1108;5844;3344;1726;5979;5342;2190;108;3624;2131;NotDone
Off;BestEffort;Off;Off;Off;Off;H320;H320;H323;Tls;Auto;Tls;Host;Host;Host;1054;909;720;1479;3344;1726;5979;2953;2190;117;3937;2131;NotDone
Off;On;Off;Off;Off;Off;H320;H320;Sip;TCP;Auto;Tls;Host;Host;Host;1054;909;985;5998;3595;1748;5742;5342;2112;261;3574;2131;NotDone
Off;BestEffort;BestEffort;Off;Off;Off;Sip;H323;H323;TCP;Auto;Tls;Host;Host;Host;1054;909;1247;5998;3595;1726;5742;5342;3108;261;3624;2131;NotDone
Off;BestEffort;BestEffort;Off;Off;Off;H320;H320;H323;TCP;Auto;Tls;Host;Host;Host;1054;905;1108;3786;3326;1721;5979;5342;2112;108;3624;2131;NotDone
On;BestEffort;BestEffort;On;On;Off;Auto;H323;H323;TCP;Auto;Tls;Host;Host;Host;1054;909;710;1587;3344;1726;5979;5342;2112;108;3624;2131;NotDone
Off;BestEffort;BestEffort;Off;Off;On;H320;H323;Sip;Tls;Auto;Tls;Host;Host;Host;1054;909;1247;5998;4357;1726;5979;5342;2190;108;3937;2024;NotDone
Off;BestEffort;On;Off;Off;Off;H320;H323;H320;Tls;Auto;Tls;Host;Host;Host;1118;905;1055;5998;3595;1726;5742;5342;2112;117;3609;2131;NotDone
On;On;Off;Off;Off;Off;H320;H323;H323;TCP;Auto;Tls;Host;Host;Host;1186;905;1107;3200;3344;1726;5979;5342;2112;261;3624;2131;NotDone
Off;BestEffort;BestEffort;Off;On;Off;H320;H323;H323;Tls;Auto;Tls;Host;Host;Host;1054;905;1108;3786;2275;1726;5742;3654;3108;261;3624;1678;NotDone
Off;BestEffort;On;Off;Off;Off;H320;H320;H323;TCP;Auto;Tls;Host;Host;Host;1186;909;1247;5998;3595;1726;5742;5342;2112;261;3624;2131;NotDone
On;BestEffort;BestEffort;Off;Off;On;Sip;H323;Sip;Tls;Auto;Tls;Host;Host;Host;1054;909;1247;5998;3595;1769;5979;5342;2112;108;4480;1753;NotDone
On;BestEffort;BestEffort;On;On;On;H320;H323;Auto;TCP;Auto;Tls;Host;Host;Host;1147;905;1108;3232;3344;1726;5742;5342;2112;108;4480;2131;NotDone
On;BestEffort;BestEffort;Off;On;On;Auto;H323;H323;TCP;Auto;Tls;Host;Host;Host;1054;909;1108;5844;2236;1726;5979;5342;2190;108;3624;2131;NotDone
Off;On;Off;On;Off;Off;H320;H323;H323;TCP;Auto;Tls;Host;Host;Host;1054;909;1247;1587;3344;1726;5979;5342;2190;108;3624;2131;NotDone
On;On;BestEffort;Off;Off;Off;H320;H320;Auto;TCP;Auto;Tls;Host;Host;Host;1054;909;1247;1587;3344;1726;5979;5342;2190;108;3624;2131;NotDone
On;BestEffort;BestEffort;Off;On;On;H320;Sip;H323;Tls;Auto;Tls;Host;Host;Host;1054;909;720;1479;3344;1726;5979;2953;2112;117;3624;2131;NotDone
On;BestEffort;Off;Off;Off;Off;H320;H323;H323;TCP;Auto;Tls;Host;Host;Host;1118;905;1247;3786;3344;1726;5742;5342;2112;117;3553;2131;NotDone
On;BestEffort;BestEffort;Off;On;On;H323;H323;H323;Tls;Auto;Tls;Host;Host;Host;1054;909;1247;5998;4357;1726;5979;5342;2190;108;3624;2131;NotDone
On;BestEffort;On;On;Off;On;H320;H323;Auto;TCP;Auto;Tls;Host;Host;Host;1054;909;1108;1587;4357;1726;5979;5342;2190;108;3624;2131;NotDone
On;BestEffort;BestEffort;Off;On;Off;Sip;H323;Auto;TCP;Auto;Tls;Host;Host;Host;1054;909;1062;3200;3344;1726;5979;5342;2190;108;3624;2131;NotDone
Off;BestEffort;BestEffort;Off;On;Off;H320;H323;Sip;TCP;Auto;Tls;Host;Host;Host;1054;909;1247;5998;4357;1726;5979;5342;2166;108;3624;2131;NotDone
On;BestEffort;Off;Off;Off;Off;H320;H323;H323;Tls;Auto;Tls;Host;Host;Host;1054;909;1108;2633;3344;2110;5742;4147;2112;117;3624;2131;NotDone
On;BestEffort;On;Off;On;On;H320;H323;H323;TCP;Auto;Tls;Host;Host;Host;1118;909;1247;1587;4180;1726;5979;5342;2112;261;3624;2131;NotDone
On;BestEffort;BestEffort;Off;Off;Off;Auto;H323;Auto;Tls;Auto;Tls;Host;Host;Host;1054;909;995;5998;3503;1944;5961;5342;2112;117;4191;2131;NotDone
On;BestEffort;BestEffort;Off;Off;Off;H320;H323;Auto;Tls;Auto;Tls;Host;Host;Host;1054;909;1247;5998;4357;1726;5979;5342;2190;108;3937;2024;NotDone
On;On;BestEffort;Off;On;Off;H320;H323;Auto;TCP;Auto;Tls;Host;Host;Host;1186;905;1111;1587;5010;1726;5979;5342;2884;108;3624;2131;NotDone
Off;BestEffort;BestEffort;On;Off;Off;Sip;H320;H323;TCP;Auto;Tls;Host;Host;Host;1054;938;1247;5998;3595;1769;5979;5342;2112;108;4191;2340;NotDone
On;BestEffort;On;Off;On;On;H320;H323;Auto;TCP;Auto;Tls;Host;Host;Host;1054;938;1128;3299;3595;1769;5979;5342;2112;108;4480;1839;NotDone
Off;BestEffort;BestEffort;On;On;Off;Auto;H323;Sip;TCP;Auto;Tls;Host;Host;Host;1054;909;1247;5998;3595;1726;5742;5342;2190;108;3624;2131;NotDone
Off;On;Off;Off;Off;On;H320;H323;H323;Tls;Auto;Tls;Host;Host;Host;1186;921;720;1587;4357;1726;5979;5342;2190;108;3624;3389;NotDone
Off;BestEffort;BestEffort;Off;Off;Off;H320;H323;Auto;Tls;Auto;Tls;Host;Host;Host;1054;905;1108;3786;3344;1726;5979;5342;2112;261;3624;2131;NotDone
Off;On;On;Off;Off;Off;H320;H320;H323;Tls;Auto;Tls;Host;Host;Host;1186;905;1237;3200;3344;1726;5979;5342;2190;108;3742;2199;NotDone
On;BestEffort;BestEffort;On;On;Off;H323;H323;H323;TCP;Auto;Tls;Host;Host;Host;1054;909;1055;5998;3595;1726;5742;5342;2190;108;3937;2024;NotDone
On;BestEffort;BestEffort;Off;Off;On;H323;H323;H323;Tls;Auto;Tls;Host;Host;Host;1108;905;1108;1587;3344;1726;5979;5342;2190;108;4191;2131;NotDone
On;BestEffort;BestEffort;On;Off;On;H323;H323;H320;TCP;Auto;Tls;Host;Host;Host;1054;909;1108;5844;3344;1726;5979;5342;2112;108;3624;2131;NotDone
On;On;BestEffort;Off;On;On;H320;H323;H323;Tls;Auto;Tls;Host;Host;Host;1054;905;1108;3851;3595;1769;5979;5342;2112;108;3624;2131;NotDone
Off;BestEffort;On;On;Off;Off;H320;H323;Sip;TCP;Auto;Tls;Host;Host;Host;1054;909;1247;5998;3344;1748;5979;5342;2190;108;3937;2227;NotDone
Off;BestEffort;On;On;Off;Off;H320;H320;Sip;TCP;Auto;Tls;Host;Host;Host;1054;909;1182;5998;4357;1726;5979;5342;2190;108;3624;2131;NotDone
Off;On;Off;Off;Off;Off;H320;H323;H323;TCP;Auto;Tls;Host;Host;Host;1054;909;1247;1587;3344;1726;5979;5342;2190;108;3624;2131;NotDone
On;BestEffort;BestEffort;Off;On;Off;Sip;H323;H323;Tls;Auto;Tls;Host;Host;Host;1199;905;1108;3232;2278;1726;5742;5342;2190;261;3624;2131;NotDone
Off;BestEffort;On;Off;Off;Off;H320;H323;Auto;Tls;Auto;Tls;Host;Host;Host;1054;909;1247;3328;3344;1726;5979;5342;2190;108;4191;2131;NotDone
On;BestEffort;BestEffort;On;On;On;Sip;H323;Auto;TCP;Auto;Tls;Host;Host;Host;1054;909;720;5998;3344;1726;5742;5342;2112;117;3624;3307;NotDone
On;BestEffort;BestEffort;On;On;On;H323;H323;Auto;TCP;Auto;Tls;Host;Host;Host;1186;905;671;5998;3344;1726;5979;5342;2112;261;3624;2131;NotDone
On;BestEffort;BestEffort;Off;Off;Off;H320;H323;Sip;Tls;Auto;Tls;Host;Host;Host;1054;909;1108;5844;3344;1726;5742;5342;2231;261;3624;2131;NotDone
Off;On;Off;Off;Off;Off;H320;H320;Auto;Tls;Auto;Tls;Host;Host;Host;1054;909;1108;3786;3344;1726;5979;5342;2112;261;3624;2131;NotDone
Off;On;On;Off;Off;On;H320;H320;H323;Tls;Auto;Tls;Host;Host;Host;1186;921;1081;439;3344;1726;5979;4252;2190;108;3624;2131;NotDone
On;BestEffort;BestEffort;On;Off;Off;Auto;H323;Auto;Tls;Auto;Tls;Host;Host;Host;1054;909;995;5998;4605;1726;5742;5342;2112;108;3624;2131;NotDone
Off;BestEffort;BestEffort;On;On;Off;Auto;H323;Sip;TCP;Auto;Tls;Host;Host;Host;1054;909;1247;5998;3595;1726;5742;5342;2190;108;3624;2131;NotDone
Off;BestEffort;On;On;On;Off;H320;H323;Sip;TCP;Auto;Tls;Host;Host;Host;1186;921;720;5844;3344;1726;5979;5342;2112;117;3624;1678;NotDone
Off;BestEffort;Off;Off;Off;Off;H320;H320;H323;TCP;Auto;Tls;Host;Host;Host;1186;909;1247;3880;3595;1726;5742;5342;2112;117;1248;2131;NotDone
On;BestEffort;BestEffort;On;Off;Off;H320;H323;H323;TCP;Auto;Tls;Host;Host;Host;1054;909;1247;3328;4357;1726;5979;5342;2190;108;3624;2131;NotDone
Off;BestEffort;Off;Off;Off;Off;H320;H323;H323;Tls;Auto;Tls;Host;Host;Host;1054;909;1247;3328;4357;1726;5979;5342;2190;108;3624;2131;NotDone
On;On;BestEffort;Off;On;Off;H320;H323;Auto;Tls;Auto;Tls;Host;Host;Host;1054;909;1108;2633;4357;1726;5979;5342;2112;117;3624;3307;NotDone
On;BestEffort;BestEffort;Off;Off;On;H323;H323;Auto;TCP;Auto;Tls;Host;Host;Host;1054;909;1247;5998;3344;1726;5979;5342;2190;108;4191;2131;NotDone
On;BestEffort;BestEffort;On;On;Off;Auto;H323;Sip;TCP;Auto;Tls;Host;Host;Host;1054;909;1232;1479;3344;1726;5742;5342;2190;108;3624;2131;NotDone
Off;On;Off;Off;Off;On;H320;H323;H323;Tls;Auto;Tls;Host;Host;Host;1186;921;720;1587;4357;1726;5979;5342;2190;108;3624;3389;NotDone
On;BestEffort;BestEffort;Off;Off;Off;H320;H320;Sip;TCP;Auto;Tls;Host;Host;Host;1054;905;1108;2801;3344;1819;5979;5342;2190;108;3624;2131;NotDone
Off;On;BestEffort;Off;Off;Off;H320;H320;Sip;Tls;Auto;Tls;Host;Host;Host;1071;905;1108;1587;3344;1726;5979;5342;2112;261;3624;2131;NotDone
On;BestEffort;BestEffort;Off;Off;Off;Auto;H320;H323;TCP;Auto;Tls;Host;Host;Host;1054;909;1108;5844;3595;1726;5742;5342;2112;117;3624;1678;NotDone
On;On;On;Off;On;On;H320;H323;Sip;Tls;Auto;Tls;Host;Host;Host;1054;909;1013;3200;3344;1726;5979;4153;2512;108;4480;3764;NotDone
On;BestEffort;BestEffort;Off;On;On;H320;H323;H323;TCP;Auto;Tls;Host;Host;Host;1054;909;690;5998;4357;1726;5979;5342;2190;108;3624;2131;NotDone
On;On;Off;Off;On;On;H320;H323;H323;Tls;Auto;Tls;Host;Host;Host;1186;905;1108;747;4535;1721;5979;4252;2190;261;3624;2131;NotDone
On;BestEffort;BestEffort;On;Off;Off;Sip;H320;H323;TCP;Auto;Tls;Host;Host;Host;1054;909;1247;5998;3595;1726;5742;5342;2112;117;3624;1678;NotDone
On;On;On;Off;Off;On;H320;H323;Auto;Tls;Auto;Tls;Host;Host;Host;1054;905;1108;1587;3595;1726;5742;5342;2660;117;4480;2131;NotDone
On;BestEffort;BestEffort;Off;Off;On;H323;H323;H320;Tls;Auto;Tls;Host;Host;Host;1054;909;1247;5998;4357;1726;5742;5342;2112;117;4480;2131;NotDone
On;BestEffort;BestEffort;Off;Off;Off;Auto;H323;Auto;TCP;Auto;Tls;Host;Host;Host;1054;909;1247;5857;3344;1726;5742;5342;2112;117;3624;2131;NotDone
On;On;On;Off;Off;Off;H320;H323;H323;Tls;Auto;Tls;Host;Host;Host;1186;921;720;1587;4357;1726;5979;5342;2190;108;3624;3389;NotDone
On;BestEffort;BestEffort;On;Off;Off;H323;H323;H320;TCP;Auto;Tls;Host;Host;Host;1054;909;1108;5844;3344;1726;5979;5342;2190;108;3624;2131;NotDone
Off;On;Off;Off;Off;Off;H320;H323;H323;Tls;Auto;Tls;Host;Host;Host;1186;921;1081;439;3344;1726;5979;4252;2190;108;3624;2131;NotDone
On;On;BestEffort;Off;Off;On;H320;H323;Auto;Tls;Auto;Tls;Host;Host;Host;1054;905;1108;439;3344;1726;5742;3909;2190;108;3574;2131;NotDone
Off;On;Off;On;Off;Off;H320;H320;Auto;TCP;Auto;Tls;Host;Host;Host;1054;909;1247;5857;3344;1726;5742;5342;2112;108;3624;2131;NotDone
On;BestEffort;BestEffort;Off;Off;Off;H323;H323;H323;Tls;Auto;Tls;Host;Host;Host;1054;905;1108;3786;3344;1726;5979;5342;2190;108;3937;2131;NotDone
Off;BestEffort;BestEffort;On;Off;Off;H320;H323;Auto;TCP;Auto;Tls;Host;Host;Host;1054;909;1247;1587;3344;1726;5979;5342;2112;261;3624;2131;NotDone
Off;BestEffort;On;On;Off;Off;H320;H320;Sip;TCP;Auto;Tls;Host;Host;Host;1147;905;1108;5844;4357;1726;5979;5342;2190;108;4191;2131;NotDone
On;BestEffort;BestEffort;Off;Off;Off;H320;H320;H323;TCP;Auto;Tls;Host;Host;Host;1186;921;1081;2332;3344;1726;5742;5342;2112;261;3624;2131;NotDone
Off;BestEffort;Off;Off;Off;Off;H320;H323;Sip;TCP;Auto;Tls;Host;Host;Host;1054;909;1247;5998;3344;1748;5979;5342;2190;108;4191;2340;NotDone
On;On;Off;Off;Off;Off;H320;H323;H323;TCP;Auto;Tls;Host;Host;Host;1054;905;1108;1587;4357;1726;5979;5342;2190;108;3624;2131;NotDone
On;BestEffort;BestEffort;Off;Off;Off;H323;H320;H323;TCP;Auto;Tls;Host;Host;Host;1054;909;1247;5998;3344;1748;5979;5342;2190;108;4191;2340;NotDone
On;BestEffort;BestEffort;Off;Off;Off;Sip;H323;Sip;TCP;Auto;Tls;Host;Host;Host;1147;905;1108;5844;4357;1726;5742;5342;2112;108;4480;2131;NotDone
On;On;BestEffort;Off;On;On;H320;H320;H323;Tls;Auto;Tls;Host;Host;Host;1054;909;1108;3786;3344;1721;5742;5342;2190;108;3624;2131;NotDone
On;BestEffort;BestEffort;Off;On;Off;H320;H323;H323;Tls;Auto;Tls;Host;Host;Host;1054;905;1108;3786;3344;1726;5979;5342;2112;261;3624;2131;NotDone
Off;On;Off;Off;Off;Off;H320;H320;Auto;Tls;Auto;Tls;Host;Host;Host;1054;909;1247;5998;3344;1726;5979;5342;2190;108;4191;2131;NotDone
On;BestEffort;BestEffort;Off;On;On;H320;Sip;H323;Tls;Auto;Tls;Host;Host;Host;1054;909;1108;3786;3344;1721;4060;4251;2190;261;3574;2131;NotDone
On;On;On;Off;On;On;H320;H323;Auto;Tls;Auto;Tls;Host;Host;Host;1054;905;1108;439;3344;1726;5742;5342;2112;261;3624;2131;NotDone
On;BestEffort;BestEffort;On;Off;Off;H323;H323;Auto;TCP;Auto;Tls;Host;Host;Host;1054;909;1247;5998;3595;1726;5742;5342;2112;117;3580;2131;NotDone
On;BestEffort;BestEffort;Off;On;Off;Auto;H323;Auto;TCP;Auto;Tls;Host;Host;Host;1054;909;1107;5998;4605;1726;5979;5342;2190;108;4191;2340;NotDone
Off;On;Off;Off;Off;Off;H320;H323;Sip;Tls;Auto;Tls;Host;Host;Host;1054;909;1108;3786;3344;1721;5742;4251;2190;108;3624;2131;NotDone
On;BestEffort;BestEffort;Off;Off;On;H320;H323;Auto;TCP;Auto;Tls;Host;Host;Host;1071;921;1247;3851;3595;1769;5979;5342;2112;108;3624;2131;NotDone
Off;On;On;Off;Off;Off;H320;H320;H323;TCP;Auto;Tls;Host;Host;Host;1054;909;909;1587;3344;1726;5979;5342;2112;261;3624;2131;NotDone
On;BestEffort;BestEffort;On;Off;On;Auto;H323;H323;TCP;Auto;Tls;Host;Host;Host;1054;909;1247;5857;3344;1726;5979;5342;2190;108;4191;2131;NotDone
On;BestEffort;BestEffort;On;On;Off;Sip;H323;H323;TCP;Auto;Tls;Host;Host;Host;1054;909;1055;5998;3595;1726;3982;5342;2190;108;3624;3307;NotDone
Off;BestEffort;On;Off;On;On;H320;H323;Sip;Tls;Auto;Tls;Host;Host;Host;1054;905;1108;1587;3344;1726;5979;5342;2112;108;3624;2131;NotDone
On;BestEffort;On;Off;On;On;H320;H323;H323;Tls;Auto;Tls;Host;Host;Host;1054;998;1108;3534;2154;1721;5742;5342;2112;261;3624;2131;NotDone
On;BestEffort;BestEffort;Off;Off;On;H320;H323;H323;Tls;Auto;Tls;Host;Host;Host;1186;921;710;1587;3344;1726;5979;5342;2190;108;4458;2131;NotDone
Off;BestEffort;BestEffort;Off;On;Off;H320;H320;H323;Tls;Auto;Tls;Host;Host;Host;1054;909;1108;3786;3344;1726;5979;5342;2112;261;3624;2131;NotDone
On;On;On;Off;On;On;H320;H323;Sip;Tls;Auto;Tls;Host;Host;Host;1054;905;1108;1587;3344;1726;5742;3646;2190;108;3624;3307;NotDone
On;BestEffort;BestEffort;Off;On;Off;Sip;H323;Auto;TCP;Auto;Tls;Host;Host;Host;1054;905;1108;3232;2278;1726;5742;5342;2112;117;3933;2277;NotDone
Off;On;On;Off;On;On;H320;Sip;H323;Tls;Auto;Tls;Host;Host;Host;1054;909;1108;3786;3344;1721;5742;4251;2190;261;3574;2131;NotDone
Off;BestEffort;On;Off;Off;On;H320;H320;H323;Tls;Auto;Tls;Host;Host;Host;1186;921;1081;439;3344;1726;5979;4252;2190;108;3624;2131;NotDone
On;On;BestEffort;Off;Off;Off;H320;H320;Auto;TCP;Auto;Tls;Host;Host;Host;1054;909;1247;1587;3344;1726;5979;5342;2190;108;3624;2131;NotDone
Off;BestEffort;On;On;Off;Off;H320;H320;Sip;TCP;Auto;Tls;Host;Host;Host;1147;905;1108;5844;4357;1726;5979;5342;2190;108;4191;2131;NotDone
On;BestEffort;BestEffort;Off;Off;On;H323;H323;H323;Tls;Auto;Tls;Host;Host;Host;1068;905;1108;3232;3344;1726;5742;5342;2112;108;4480;2131;NotDone
On;On;Off;Off;On;On;H320;H323;H323;Tls;Auto;Tls;Host;Host;Host;1054;905;1108;1587;3344;1726;4137;4236;2190;261;3624;2131;NotDone
On;BestEffort;BestEffort;On;On;On;H320;H323;H323;Tls;Auto;Tls;Host;Host;Host;1118;909;1247;1587;3344;1726;5979;5342;2112;117;3624;2131;NotDone
On;BestEffort;BestEffort;Off;On;Off;Auto;H323;Auto;TCP;Auto;Tls;Host;Host;Host;1107;905;1108;5844;3344;1726;5979;5342;2112;117;2272;2131;NotDone
On;BestEffort;BestEffort;Off;On;On;H320;H323;H323;TCP;Auto;Tls;Host;Host;Host;1118;909;1247;1587;3344;1726;5742;5342;2112;117;3624;1678;NotDone
Off;BestEffort;On;Off;On;On;H320;H323;Auto;Tls;Auto;Tls;Host;Host;Host;1054;905;1108;439;3344;1726;5742;3909;3108;108;3624;2131;NotDone
On;On;On;Off;Off;On;H320;H323;Sip;Tls;Auto;Tls;Host;Host;Host;1054;905;1108;1587;3344;1726;5751;3947;2468;117;3815;5337;NotDone
On;On;BestEffort;Off;Off;Off;H320;H323;H320;Tls;Auto;Tls;Host;Host;Host;1186;921;710;1587;3344;1726;5742;5342;2112;108;3624;2131;NotDone
Off;On;Off;Off;Off;Off;H320;H323;Sip;Tls;Auto;Tls;Host;Host;Host;1054;909;1108;3786;3344;1721;5742;4251;2190;108;3624;2131;NotDone
