Time Taken For NSGA-II-PART R1.1:-	1055940
Time Taken For NSGA-II-PART R1.2:-	272916
Time Taken For NSGA-II-PART R1.3:-	307252
Time Taken For NSGA-II-PART R1.4:-	288745
Time Taken For NSGA-II-PART R1.5:-	288782
Time Taken For NSGA-II-C45 R1.1:-	1434047
Time Taken For NSGA-II-C45 R1.2:-	356010
Time Taken For NSGA-II-C45 R1.3:-	24954283
Time Taken For NSGA-II-C45 R1.4:-	156991
Time Taken For NSGA-II-C45 R1.5:-	161085
